
setup_vision = yes
government = monarchy
add_government_reform = taychend_duchy
government_rank = 1
primary_culture = kalavendhi
religion = gods_of_the_taychend
technology_group = tech_taychendi
capital = 2500

1444.1.1 = {
	monarch = {
		culture = yodhanpir
		name = "Kalazhil 'Bronzewing'"
		dynasty = "Rekkatemir"
		birth_date = 1416.3.6
		death_date = 1476.9.4
		adm = 4
		dip = 4
		mil = 5
		female = no
		regent = no
	}
	add_ruler_personality = fierce_negotiator_personality
	add_ruler_personality = tactical_genius_personality
	set_variable = {
		which = TaychendGlory
		value = 50
	}
	update_taychend_glory = yes
}

1444.2.2 = {
	heir = {
		name = "Kamnan"
		monarch_name = "Kamnan"
		dynasty = "Rekkatemir"
		claim = 50
		birth_date = 1442.1.1
		death_date = 1480.1.1
		adm = 3
		dip = 4
		mil = 2
	}
}

1444.1.5 = {
	queen = {
		culture = thekvrystana
		name = "Isermathi"
		dynasty = "Huena"
		birth_date = 1417.1.25
		death_date = 1492.6.8
		female = yes
		adm = 3
		dip = 5
		mil = 4
	}
	add_queen_personality = intricate_web_weaver_personality
}