
setup_vision = yes
government = monarchy
add_government_reform = taychend_duchy
government_rank = 1
primary_culture = chendhyan
add_accepted_culture = yodhanpir
religion = gods_of_the_taychend
technology_group = tech_east_bharbhen
capital = 2558

1444.1.1 = {
	monarch = {
		name = "Uramat IV"
		dynasty = "Vakhyrlana"
		birth_date = 1401.3.6
		death_date = 1476.9.4
		adm = 3
		dip = 2
		mil = 5
		female = no
		regent = no
	}
	add_ruler_personality = tactical_genius_personality
	add_ruler_personality = secretive_personality
	set_variable = {
		which = TaychendGlory
		value = 50
	}
	update_taychend_glory = yes
}

1444.2.2 = {
	heir = {
		name = "Sadhyzlan"
		monarch_name = "Sadhyzlan"
		dynasty = "Vakhyrlana"
		claim = 50
		birth_date = 1429.1.1
		death_date = 1480.1.1
		adm = 2
		dip = 1
		mil = 4
	}
	add_heir_personality = bold_fighter_personality
}

1444.1.5 = {
	queen = {
		name = "Zhara"
		dynasty = "Vakhyrlana"
		birth_date = 1410.1.25
		death_date = 1492.6.8
		female = yes
		adm = 1
		dip = 2
		mil = 1
	}
	add_queen_personality = kind_hearted_personality
}