
kroozmuta_zemna_cult = {
	land_maintenance_modifier = -0.05
	land_attrition = -0.10

	allow = {
		OR = {
			has_unlocked_cult = kroozmuta_zemna_cult
			dwarovar_goblin_culture_primary = yes
			primary_culture = cave_troll
		}
		OR = {
			NOT = { has_country_flag = uses_primary_cult }
			AND = {
				has_country_flag = uses_primary_cult
				has_primary_cult = {
					cult = kroozmuta_zemna_cult
				}
			}
		}
	}
	sprite = 1

	ai_will_do = {
		factor = 1
		modifier = {
			dwarovar_goblin_culture_primary = yes
			factor = 2
		}
		modifier = {
			personality = ai_balanced
			factor = 2
		}
	}
}

kroozbuto_nubo_cult = {
	trade_steering = 0.10
	movement_speed = 0.10

	allow = {
		OR = {
			has_unlocked_cult = kroozbuto_nubo_cult
			dwarovar_goblin_culture_primary = yes
			primary_culture = cave_troll
		}
		OR = {
			NOT = { has_country_flag = uses_primary_cult }
			AND = {
				has_country_flag = uses_primary_cult
				has_primary_cult = {
					cult = kroozbuto_nubo_cult
				}
			}
		}
	}
	sprite = 2

	ai_will_do = {
		factor = 1
		modifier = {
			dwarovar_goblin_culture_primary = yes
			factor = 2
		}
		modifier = {
			personality = ai_militarist
			factor = 2
		}
	}
}

tewaka_sunka_cult = {
	idea_cost = -0.10
	global_institution_spread = 0.05

	allow = {
		OR = {
			has_unlocked_cult = tewaka_sunka_cult
			primary_culture = exodus_goblin
		}
		OR = {
			NOT = { has_country_flag = uses_primary_cult }
			AND = {
				has_country_flag = uses_primary_cult
				has_primary_cult = {
					cult = tewaka_sunka_cult
				}
			}
		}
	}
	sprite = 3

	ai_will_do = {
		factor = 1
		modifier = {
			primary_culture = exodus_goblin
			factor = 2
		}
		modifier = {
			personality = ai_balanced
			factor = 2
		}
		modifier = {
			factor = 0.5
			NOT = { neighbors_tech_discount = 0.1 }
		}
		modifier = {
			factor = 2
			neighbors_tech_discount = 0.2
		}
		modifier = {
			factor = 2
			neighbors_tech_discount = 0.3
		}
		modifier = {
			factor = 2
			neighbors_tech_discount = 0.4
		}
	}
}

muta_mestika_cult = {
	sprite = 4
		
	stability_cost_modifier = -0.10
	legitimacy = 0.3

	allow = {
		always = no
		OR = {
			has_unlocked_cult = muta_mestika_cult
		}
		OR = {
			NOT = { has_country_flag = uses_primary_cult }
			AND = {
				has_country_flag = uses_primary_cult
				has_primary_cult = {
					cult = muta_mestika_cult
				}
			}
		}
	}
	ai_will_do = {
		factor = 1
		modifier = {
			factor = 2
		}
		modifier = {
			personality = ai_balanced
			factor = 2
		}
		modifier = { 
			NOT = { stability = 1 }
			factor = 2
		}
		modifier = { 
			stability = 2
			factor = 0.5
		}
		modifier = { 
			NOT = { legitimacy = 50 }
			factor = 2
		}
		modifier = { 
			legitimacy = 75
			factor = 0.5
		}
	}
}

apzarko_hrom_cult = {
	sprite = 5
		
	discipline = 0.03
	leader_land_shock = 1

	allow = {
		OR = {
			has_unlocked_cult = apzarko_hrom_cult
			primary_culture = common_goblin
		}
		OR = {
			NOT = { has_country_flag = uses_primary_cult }
			AND = {
				has_country_flag = uses_primary_cult
				has_primary_cult = {
					cult = apzarko_hrom_cult
				}
			}
		}
	}
	
	ai_will_do = {
		factor = 1
		modifier = {
			primary_culture = common_goblin
			factor = 2
		}
		modifier = {
			personality = ai_militarist
			factor = 2
		}
		modifier = {
			has_idea_group = religious_ideas
			factor = 2
		}
		modifier = {
			has_idea_group = humanist_ideas
			factor = 0.5
		}
		modifier = {
			religious_unity = 0.8
			factor = 2
		}
		modifier = {
			NOT = { religious_unity = 0.5 }
			factor = 0.5
		}
	}
}

vortza_lesa_cult = {
	sprite = 6
	
	hostile_attrition = 1.0
	build_cost = -0.05
	
	allow  = {
		OR = {
			has_unlocked_cult = vortza_lesa_cult
			primary_culture = forest_goblin
		}
		OR = {
			NOT = { has_country_flag = uses_primary_cult }
			AND = {
				has_country_flag = uses_primary_cult
				has_primary_cult = {
					cult = vortza_lesa_cult
				}
			}
		}
	}
	ai_will_do = {
		factor = 1
		modifier = {
			primary_culture = forest_goblin
			factor = 2
		}
		modifier = {
			personality = ai_balanced
			factor = 2
		}
	}
}

vortzo_laukuno_cult = {

	global_manpower_modifier = 0.1
	global_tax_modifier = 0.05
	
	allow = {
		OR = {
			has_unlocked_cult = vortzo_laukuno_cult
			primary_culture = exodus_goblin
		}
		OR = {
			NOT = { has_country_flag = uses_primary_cult }
			AND = {
				has_country_flag = uses_primary_cult
				has_primary_cult = {
					cult = vortzo_laukuno_cult
				}
			}
		}
	}
	sprite = 7

	ai_will_do = {
		factor = 1
		modifier = {
			primary_culture = exodus_goblin
			factor = 2
		}
		modifier = {
			tax_income_percentage = 0.7
			factor = 2
		}
		modifier = {
			tax_income_percentage = 0.5
			factor = 2
		}
		modifier = {
			NOT = { tax_income_percentage = 0.25 }
			factor = 0.5
		}
		modifier = {
			personality = ai_balanced
			factor = 2
		}
	}
}

vortza_krpa_cult = {
		trade_efficiency = 0.1
		development_cost = -0.05

	allow = {
		OR = {
			has_unlocked_cult = vortza_krpa_cult	
			dwarovar_goblin_culture_primary = yes
			primary_culture = cave_troll
		}
		OR = {
			NOT = { has_country_flag = uses_primary_cult }
			AND = {
				has_country_flag = uses_primary_cult
				has_primary_cult = {
					cult = vortza_krpa_cult
				}
			}
		}
	}
	sprite = 8

	ai_will_do = {
		factor = 1
		modifier = {
			dwarovar_goblin_culture_primary = yes
			factor = 2
		}
		modifier = {
			trade_income_percentage = 0.7
			factor = 2
		}
		modifier = {
			trade_income_percentage = 0.5
			factor = 2
		}
		modifier = {
			NOT = { trade_income_percentage = 0.25 }
			factor = 0.5
		}
		modifier = {
			personality = ai_capitalist
			factor = 2
		}
	}
}

zvaiko_udenzo_cult = {
	navy_tradition = 1
	privateer_efficiency = 0.10

	allow = {
		OR = {
			has_unlocked_cult = zvaiko_udenzo_cult
			primary_culture = exodus_goblin
		}
		OR = {
			NOT = { has_country_flag = uses_primary_cult }
			AND = {
				has_country_flag = uses_primary_cult
				has_primary_cult = {
					cult = zvaiko_udenzo_cult
				}
			}
		}
	}
	sprite = 9

	ai_will_do = {
		factor = 1
		modifier = {
			factor = 2
			primary_culture = exodus_goblin
		}
		modifier = {
			personality = ai_balanced
			factor = 2
		}
	}
}

zvaika_kirba_cult = {

	global_unrest = -1
	religious_unity = 0.05

	sprite = 10
	allow = {
	OR = {
		has_unlocked_cult = zvaika_kirba_cult
		primary_culture = common_goblin
	}
	OR = {
			NOT = { has_country_flag = uses_primary_cult }
			AND = {
				has_country_flag = uses_primary_cult
				has_primary_cult = {
					cult = zvaika_kirba_cult
				}
			}
		}
	}
		
	ai_will_do = {
		factor = 1
		modifier = {
			personality = ai_balanced
			factor = 2
		}
		modifier = {
			primary_culture = common_goblin
			factor = 2
		}
	}
}

vortzo_liezmo_cult = {

	production_efficiency = 0.15
	
	sprite = 11
	allow = {
		OR = {
			has_unlocked_cult = vortzo_liezmo_cult
			dwarovar_goblin_culture_primary = yes
			primary_culture = cave_troll
		}
		OR = {
			NOT = { has_country_flag = uses_primary_cult }
			AND = {
				has_country_flag = uses_primary_cult
				has_primary_cult = {
					cult = vortzo_liezmo_cult
				}
			}
		}
	}
	ai_will_do = {
		factor = 1
		modifier = {
			dwarovar_goblin_culture_primary = yes
			factor = 2
		}
		modifier = {
			production_income_percentage = 0.7
			factor = 2
		}
		modifier = {
			production_income_percentage = 0.5
			factor = 2
		}
		modifier = {
			NOT = { production_income_percentage = 0.25 }
			factor = 0.5
		}
		modifier = {
			personality = ai_capitalist
			factor = 2
		}
	}
}



#foreign cults
cannorian_cult = {

	prestige = 0.5
	free_leader_pool = 1
	
	sprite = 12
	allow  = {
		has_unlocked_cult = cannorian_cult
		OR = {
			NOT = { has_country_flag = uses_primary_cult }
			AND = {
				has_country_flag = uses_primary_cult
				has_primary_cult = {
					cult = cannorian_cult
				}
			}
		}
	}
	ai_will_do = {
		factor = 10
		modifier = {
			personality = ai_balanced
			factor = 2
		}
	}
}

ancestor_worship_cult = {
	sprite = 13
	
	legitimacy = 0.5
	devotion = 0.5
	horde_unity = 0.5
	republican_tradition = 0.15
	tolerance_own = 2
	
	allow  = {
		has_unlocked_cult = ancestor_worship_cult
		OR = {
			NOT = { has_country_flag = uses_primary_cult }
			AND = {
				has_country_flag = uses_primary_cult
				has_primary_cult = {
					cult = ancestor_worship_cult
				}
			}
		}
	}
	ai_will_do = {
		factor = 10
		modifier = {
			personality = ai_capitalist
			factor = 2
		}
	}
}

gnomish_cult = {
	sprite = 14
	
	technology_cost = -0.10
	
	allow  = {
		has_unlocked_cult = gnomish_cult
		OR = {
			NOT = { has_country_flag = uses_primary_cult }
			AND = {
				has_country_flag = uses_primary_cult
				has_primary_cult = {
					cult = gnomish_cult
				}
			}
		}
	}
	ai_will_do = {
		factor = 10
		modifier = {
			personality = ai_militarist
			factor = 2
		}
	}
}

godlost_cult = {
	sprite = 15
	allow = {
		has_unlocked_cult = godlost_cult
					OR = {
			NOT = { has_country_flag = uses_primary_cult }
			AND = {
				has_country_flag = uses_primary_cult
				has_primary_cult = {
					cult = godlost_cult
				}
			}
		}
	}
	drill_decay_modifier = -0.10
	global_manpower_modifier = 0.10
	ai_will_do = {
		factor = 10
		modifier = {
			personality = ai_militarist
			factor = 2
		}
	}
}

khetist_cult = {
	sprite = 16
	allow = {
		has_unlocked_cult = khetist_cult
					OR = {
			NOT = { has_country_flag = uses_primary_cult }
			AND = {
				has_country_flag = uses_primary_cult
				has_primary_cult = {
					cult = khetist_cult
				}
			}
		}
	}
	build_cost = -0.1
	global_unrest = -1
	ai_will_do = {
		factor = 10
		modifier = {
			personality = ai_capitalist
			factor = 2
		}
	}
}

gnollish_cult = {
	sprite = 17
	allow = {
		has_unlocked_cult = gnollish_cult
					OR = {
			NOT = { has_country_flag = uses_primary_cult }
			AND = {
				has_country_flag = uses_primary_cult
				has_primary_cult = {
					cult = gnollish_cult
				}
			}
		}
	}
	land_morale = 0.1
	reduced_liberty_desire = 10
	ai_will_do = {
		factor = 10
		modifier = {
			personality = ai_capitalist
			factor = 2
		}
	}
}

elven_cult = {
	sprite = 18
	allow = {
		has_unlocked_cult = elven_cult
					OR = {
			NOT = { has_country_flag = uses_primary_cult }
			AND = {
				has_country_flag = uses_primary_cult
				has_primary_cult = {
					cult = elven_cult
				}
			}
		}
	}
	prestige = 1
	advisor_cost = -0.1
	ai_will_do = {
		factor = 10
		modifier = {
			personality = ai_capitalist
			factor = 2
		}
	}
}

bulwari_cult = {
	sprite = 19
	allow = {
		has_unlocked_cult = bulwari_cult
					OR = {
			NOT = { has_country_flag = uses_primary_cult }
			AND = {
				has_country_flag = uses_primary_cult
				has_primary_cult = {
					cult = bulwari_cult
				}
			}
		}
	}
	promote_culture_cost = -0.50
	advisor_cost = -0.15
	ai_will_do = {
		factor = 10
		modifier = {
			personality = ai_diplomat
			factor = 2
		}
	}
}

gerudian_cult = {
	sprite = 20
	allow = {
		has_unlocked_cult = gerudian_cult
					OR = {
			NOT = { has_country_flag = uses_primary_cult }
			AND = {
				has_country_flag = uses_primary_cult
				has_primary_cult = {
					cult = gerudian_cult
				}
			}
		}
	}
	stability_cost_modifier = -0.10
	ship_durability = 0.10
	ai_will_do = {
		factor = 10
		modifier = {
			personality = ai_diplomat
			factor = 2
		}
	}
}

orcish_cult = {
	sprite = 21
	allow = {
		has_unlocked_cult = orcish_cult
					OR = {
			NOT = { has_country_flag = uses_primary_cult }
			AND = {
				has_country_flag = uses_primary_cult
				has_primary_cult = {
					cult = orcish_cult
				}
			}
		}
	}
	army_tradition = 0.50
	prestige_from_land  = 0.50
	ai_will_do = {
		factor = 10
		modifier = {
			personality = ai_militarist
			factor = 2
		}
	}
}

harpy_cult = {
	sprite = 22
	allow = {
		has_unlocked_cult = harpy_cult
					OR = {
			NOT = { has_country_flag = uses_primary_cult }
			AND = {
				has_country_flag = uses_primary_cult
				has_primary_cult = {
					cult = harpy_cult
				}
			}
		}
	}
	movement_speed = 0.10
	global_tax_modifier = 0.10
	ai_will_do = {
		factor = 10
		modifier = {
			personality = ai_militarist
			factor = 2
		}
	}
}

fey_cult = {
	sprite = 23
	allow = {
		has_unlocked_cult = fey_cult
					OR = {
			NOT = { has_country_flag = uses_primary_cult }
			AND = {
				has_country_flag = uses_primary_cult
				has_primary_cult = {
					cult = fey_cult
				}
			}
		}
	}
	global_trade_goods_size_modifier = 0.05
	spy_offence = 0.15
	ai_will_do = {
		factor = 10
		modifier = {
			personality = ai_capitalist
			factor = 2
		}
	}
}

raheni_cult = {
	sprite = 24
	allow = {
		has_unlocked_cult = raheni_cult
					OR = {
			NOT = { has_country_flag = uses_primary_cult }
			AND = {
				has_country_flag = uses_primary_cult
				has_primary_cult = {
					cult = raheni_cult
				}
			}
		}
	}
	reform_progress_growth = 0.10
	governing_capacity_modifier = 0.10
	ai_will_do = {
		factor = 10
		modifier = {
			personality = ai_capitalist
			factor = 2
		}
	}
}

giantkin_cult = {
	sprite = 25
	allow = {
		has_unlocked_cult = giantkin_cult
					OR = {
			NOT = { has_country_flag = uses_primary_cult }
			AND = {
				has_country_flag = uses_primary_cult
				has_primary_cult = {
					cult = giantkin_cult
				}
			}
		}
	}
	fort_maintenance_modifier = -0.10
	land_attrition = -0.10
	ai_will_do = {
		factor = 10
		modifier = {
			personality = ai_capitalist
			factor = 2
		}
	}
}

centaur_cult = {
	sprite = 26
	allow = {
		has_unlocked_cult = centaur_cult
					OR = {
			NOT = { has_country_flag = uses_primary_cult }
			AND = {
				has_country_flag = uses_primary_cult
				has_primary_cult = {
					cult = centaur_cult
				}
			}
		}
	}
	cavalry_power = 0.15
	global_unrest = -1
	ai_will_do = {
		factor = 5
		modifier = {
			personality = ai_militarist
			factor = 2
		}
	}
}

kobold_cult = {
	sprite = 27
	allow = {
		has_unlocked_cult = kobold_cult
					OR = {
			NOT = { has_country_flag = uses_primary_cult }
			AND = {
				has_country_flag = uses_primary_cult
				has_primary_cult = {
					cult = kobold_cult
				}
			}
		}
	}
	inflation_reduction = 0.1
	prestige_decay = -0.005
	ai_will_do = {
		factor = 5
		modifier = {
			personality = ai_militarist
			factor = 2
		}
	}
}