#Coded by Mata

azkabar_1 = { 
	slot = 1
	generic = no
	ai = yes 
	has_country_shield = yes
	potential = { tag = F35 }

	F35_into_the_underbelly = {
		icon = mission_gujarati_textiles
		required_missions = {}
		position = 1
		provinces_to_highlight = {} 

			trigger = {
				613 = { development = 26 }
				stability = 1
			}
		effect = {
			country_event = { id = flavour_azkabar.3 }
		}
	}
	
	F35_install_loyal_judges = {
		icon = mission_gujarati_textiles
		required_missions = {
			F35_into_the_underbelly
			F35_the_order_of_judges
		}		
		position = 3
		provinces_to_highlight = {
		} 
			trigger = {#one of "eclipse mission". I need leuz work to finish it
				stability = 1 
			}
		effect = {
			country_event = { id = flavour_azkabar.12 }
		}
	}

	F35_expansion_of_the_cult = {
		icon = mission_gujarati_textiles
		required_missions = {
			F35_install_loyal_judges
		}
		position = 4
		provinces_to_highlight = {
			province_id= 613
		} 

			trigger = {
				613 = {
					development = 30
					has_tax_building_trigger = yes
					has_production_building_trigger = yes
				}

				OR = {
					advisor = spymaster
					dip_power = 50
				}
			}
		effect = {
			613 = {
				add_province_modifier = {
					name = main_eclipse_headquarters
					duration = -1
				}
			}
		}
	}
}

azkabar_2 = { 
	slot = 2
	generic = no
	ai = yes 
	has_country_shield = yes
	potential = { tag = F35 }

	F35_the_order_of_judges = {
		icon = mission_gujarati_textiles
		required_missions = {
		}
		position = 2
		provinces_to_highlight = {
		} 

			trigger = {
				613 = {
					holy_order = order_of_judges_order
					NOT = { has_construction = any }
				}
				has_dip_advisor = yes
				treasury = 100
			}
		effect = {
			add_treasury = -100
			613 = {
				add_building_construction = {
					building = courthouse
					speed = 1
					cost = 0
				}
			}
		}
	}

	F35_expose_project_divinity = {#10
		icon = mission_gujarati_textiles
		required_missions = {
			F35_shadow_over_ash
		}
		position = 4
		provinces_to_highlight = {} 
	
			trigger = {
				OR={
					AND={
						F42 = {
							has_spy_network_from = {
								who = ROOT
								value = 25
							}
						}
						NOT = { truce_with = F42 }
						reverse_has_opinion = {
							who = F30
							value = 75
						}
					}
					AND={
						NOT = { exists = F42 }
						traz_buranun_area= {
							owned_by = ROOT
							type = all
						}
					}
				}
			}
		effect = {
			country_event = { id = flavour_azkabar.13 }}
		}
			
		
	F35_shadow_over_the_lake = {#11
		icon = mission_gujarati_textiles
		required_missions = {
			F35_expose_project_divinity
		}
		position = 5
		provinces_to_highlight = {}

			trigger = {
				traz_buranun_area = {
					owned_by = ROOT
					type=all
				}
				if = {
					limit = { F33 = { exists = yes } }
					army_strength = {
						who = F33
						value = 2
					}
					F33 = {
						is_subject_of = ROOT
						capital_scope = {
							num_of_units_in_province = { who = ROOT amount = 15 }
							unit_has_leader = yes
						
						}
						army_size_percentage = 2
					}
				}
				else = {
					north_naza_area = {
						type = all
						owned_by = ROOT
					}
				}

				if = {
					limit = { F30 = { exists = yes } }
					F30 = {
						is_subject_of = ROOT
						trust = {
							who = ROOT
							value = 75
						}
						has_opinion = {
							who = ROOT
							value = 180
						}
					}
				}
				else = { 
					kumarkand_area = {
						type = all
						owned_by = ROOT

					}
				}
			}
		effect ={
			if = {limit = {F33 = {is_subject_of = ROOT}}
				north_naza_area = {cede_province = ROOT}
			}
			if= {limit={NOT = { exists = F33 }}
				add_adm_power = 100
			}

			imuluses_area = { add_permanent_claim = F30 }
			anzarzax_area = { add_permanent_claim = F30 }
			kuz_mountains_area = { add_permanent_claim = F30 }
			birsartenslib_area = { add_permanent_claim = F30 }
			aqatbahar_area = { add_permanent_claim = F30 }
			bahar_szel_uak_area = { add_permanent_claim = F30 }
			kuzak_area = { add_permanent_claim = F30 }
		}
	}
}
azkabar_3 = { 
	slot = 3
	generic = no
	ai = yes 
	has_country_shield = yes
	potential = { tag = F35 }


	F35_striking_sareyand = {
		icon = mission_gujarati_textiles
		required_missions = {}
		position = 1
		provinces_to_highlight = {}
		
			trigger = {
				AND = {
					army_size_percentage = 0.9
					num_of_generals = 1
						F25 = {
						has_spy_network_from = {
							who = ROOT
							value = 25
						}
					}
				}
			}
		effect = {
			south_naza_area = { add_permanent_claim = ROOT }
			east_naza_area = { add_permanent_claim = ROOT }
			avamezan_area = { add_permanent_claim = ROOT }
			sareyand_area = { add_permanent_claim = ROOT }
			set_country_flag = azkabar_striking_sareyand
		}
	}
	F35_shadow_over_ash = {#17
		icon = mission_gujarati_textiles
		required_missions = {
			F35_striking_sareyand
		}
		position = 3
		provinces_to_highlight = {
		} 

			trigger ={
				F25 = {
					has_spy_network_from = {
						who = ROOT
						value = 50
					}
				}
				625 = { owned_by = ROOT }
				south_naza_area = { 
					type = all
					owned_by = ROOT 
				}
				east_naza_area = {
					type = all
					owned_by = ROOT
				}	
			}
		effect = {
			country_event = { id = flavour_azkabar.11 }
		}
	}
	F35_light_in_the_mountains = {
		icon = mission_gujarati_textiles
		required_missions = {
			F35_shadow_over_ash
		}
		position = 4
		provinces_to_highlight = {
		} 
			trigger = {
				if= {limit= {F26 = {is_subject = yes}}
					has_spy_network_from = {
						who = F21 
						value = 50	
					}
				}
				if= {limit={NOT = { exists = F26 }}
					gelkalis_area ={
						owned_by= ROOT
						type=all	
					}
				}
				if= {limit= {F26 = {is_subject = no exists = F26}}
					has_spy_network_from = {
						who = F26
						value = 50
					}
					F26 = {guaranteed_by = ROOT
						has_opinion_modifier = {
							who = ROOT
							modifier = sent_gift
							value = 25
						}
					}
				}
			}		
		effect = {
			if= {limit= {F26 = {is_subject = yes}}
			vassalize = F26
			}	
			if= {limit={NOT = { exists = F26 }}
				release = F26
				add_adm_power = 100
				add_stability = 1
			}
			if= {limit= {F26 = {is_subject = no}}
	 		add_historical_friend = F26
			}
			country_event = { id = flavour_azkabar.14 }
		}
	}

	F35_eclipse_of_the_garden = {
		icon = mission_gujarati_textiles
		required_missions = {
			F35_shadow_over_the_lake
			F35_light_in_the_mountains
			F35_eclipse_of_the_source
				}
		position = 6
		provinces_to_highlight = {

		} 
			trigger = {
				611 = { country_or_non_sovereign_subject_holds = ROOT }
				604 = { country_or_non_sovereign_subject_holds = ROOT }
				kumarkand_area ={ country_or_non_sovereign_subject_holds = ROOT type=all  }
				azka_sur_area ={ country_or_non_sovereign_subject_holds = ROOT type=all  }
				gelkalis_area ={ country_or_non_sovereign_subject_holds = ROOT type=all }

				any_known_country={
					is_subject_of = ROOT
					NOT = { liberty_desire = 50 }
				}
				has_global_modifier_value = {
					which = spy_offence 
					value = 0.50
				}
			}
		effect = {
			country_event = { id = flavour_azkabar.16 }
			override_country_name = Aršunaellu
			hidden_effect = {
				set_country_flag = azkabar_part2 
			}
		}
	}
}

azkabar_4 = { 
	slot = 4
	generic = no
	ai = yes 
	has_country_shield = yes
	potential = { tag = F35 }

	F35_the_oldest_temple = {
		icon = mission_gujarati_textiles
		required_missions = {
			F35_shadow_over_ash
		}
		position = 4
		provinces_to_highlight = {}
	
			trigger = {
				F31 = {
					has_spy_network_from = {
						who = ROOT
						value = 50
					}
				}
				NOT = { truce_with = F31 }
				if = {limit = {NOT = { exists = F31 }}
					eduz_vacyn_area = {
						type = all
						owned_by = ROOT
					}
				}
			}
		effect = {	
			eduz_vacyn_area = { add_permanent_claim = ROOT }
			upper_suran_area = { add_permanent_claim = ROOT }
			panuses_area = { add_permanent_claim = ROOT }
			#probably forgot to mention leuz agred to write harder part of effect for me
		}
	}

	F35_eclipse_of_the_source = {
		icon = mission_gujarati_textiles
		required_missions = {
			F35_the_oldest_temple
		}
		position = 5
		provinces_to_highlight = {
		} 

			trigger = {
				eduz_vacyn_area = {
					type = all
					owned_by = ROOT }
				panuses_area = { 
					type = all
					owned_by = ROOT }
			
				if={limit={NOT = { exists = U20 }}	
					azka_sur_area = { 
						owned_by = ROOT
						type = all
					}	
				}
				if=	{limit = { exists = U20 }}
					U20 = { alliance_with = F35 }
						has_opinion={
							who=U20
							value = 180
				}
			}
		effect = {
			if={limit = { exists = U20 }
				vassalize = U20
				grixek_area = { add_permanent_claim = U20 }
				jikarzax_area = { add_permanent_claim = U20 }
				garpix_zokka_area = { add_permanent_claim = U20 }
			}
			if={limit = {NOT = { exists = U20} }
				grixek_area = { add_permanent_claim = ROOT }
				jikarzax_area = { add_permanent_claim = ROOT }
				garpix_zokka_area = { add_permanent_claim = ROOT }
			}
		}		
	}
}

azkabar_5 = {
	slot = 5
	generic = no
	ai = yes 
	has_country_shield = yes
	potential = { tag = F35 }

	
	F35_mining_the_past = {
		icon = mission_gujarati_textiles
		required_missions = {
		}
		position = 1
		provinces_to_highlight = {
		} 

			trigger = {
				custom_trigger_tooltip ={
					tooltip = mining_the_past_azkabar
					has_country_flag = secret_of_walls
				}
				any_country = {
					culture_group = dwarven
					has_opinion = {
						who = ROOT
						value = 100
					}
				}
					613 ={owned_by = ROOT}
					624 ={owned_by = ROOT}
					622 ={owned_by = ROOT}
					615 ={owned_by = ROOT}
					616 ={owned_by = ROOT}
			}
		effect = {
			613 = { add_dwarven_minority_size_effect = yes 
			add_province_modifier = {
				name = lake_mining_operations
				duration = -1
			}}
			615 = { add_dwarven_minority_size_effect = yes 
			add_province_modifier = {
				name = lake_mining_operations
				duration = -1
			}}
			616 = { add_dwarven_minority_size_effect = yes 
			add_province_modifier = {
				name = lake_mining_operations
				duration = -1
			}}
			622 = { add_dwarven_minority_size_effect = yes 
			add_province_modifier = {
				name = lake_mining_operations
				duration = -1
			}}
			624 = { add_dwarven_minority_size_effect = yes 
			add_province_modifier = {
				name = lake_mining_operations
				duration = -1
			}}
		}}
	
	F35_obtain_the_obsidian = {
		icon = mission_gujarati_textiles
		required_missions = {
			F35_mining_the_past
		}
		position = 2
		provinces_to_highlight = {
		} 
			trigger = {
				613 = { has_production_building_trigger = yes base_production = 6 }
				615 = { has_production_building_trigger = yes base_production = 6}
				616 = { has_production_building_trigger = yes base_production = 6 }
				622 = { has_production_building_trigger = yes base_production = 6}
				624 = { has_production_building_trigger = yes base_production = 6}
			}
		effect = {
			613 = {
				change_trade_goods = gems
				add_province_modifier = {
					name = black_mines
					duration = -1
				}
			}
			615 = { 
				add_province_modifier = {
					name = black_mines
					duration = -1
				}
			}
			616 = { 
				change_trade_goods = gems
				add_province_modifier = {
					name = black_mines
					duration = -1
				}
			}
			622 = { 
				add_province_modifier = {
					name = black_mines
					duration = -1
				}
			}
			624 = { 
				add_province_modifier = {
					name = black_mines
					duration = -1
				}
			}
			country_event = {id = flavour_azkabar.10}
		}
	}

	F35_replicate_the_walls = {
		icon = mission_gujarati_textiles
		required_missions = {
			F35_obtain_the_obsidian
			}
		position = 3
		provinces_to_highlight = {
			} 
			trigger = {
				AND={
					613={
						has_fort_building_trigger = yes
						base_production = 10
						}
					615 = {	base_production = 10}
					616 = { base_production = 10}
					622 = { base_production = 10}
					624 = { base_production = 10}
				}	
				OR={
					advisor = fortification_expert
					AND={
						mil_power = 50
						employed_advisor = {category = MIL}
					}
				}
			}
		effect = {
			613 = {
				add_province_modifier = {
					name = great_obsydian_mines
					duration = -1
				}
			}
			616 = {
				add_province_modifier = {
					name = great_obsydian_mines
					duration = -1
				}
			}
		}
	}
}
#############################################################
####---------------------Part 2-----------------------#######
#############################################################
azkabar_1 = { 
	slot = 1
	generic = no
	ai = yes 
	has_country_shield = yes
	potential = { 
		tag = F35 
				has_country_flag = azkabar_part2
	}

	F35_for_leuz1 = {#4
		icon = mission_gujarati_textiles
		required_missions = {
			F35_expansion_of_the_cult
		}
		position = 7
		provinces_to_highlight = {

		} 
			trigger = {
				stability = 1
			}
		effect = {
		add_years_of_income = 0.5
		}
	}

	F35_for_leuz2 = {#4
		icon = mission_gujarati_textiles
		required_missions = {
			F35_for_leuz1
		}
		position = 8
		provinces_to_highlight = {

		} 
			trigger = {
				stability = 1
			}
		effect = {
			add_years_of_income = 0.5
		}
	}

	F35_for_leuz3 = {#4
		icon = mission_gujarati_textiles
		required_missions = {
			F35_for_leuz2
		}
		position = 9
		provinces_to_highlight = {

		} 
			trigger = {
				stability = 1
			}

		effect = {
			add_years_of_income = 0.5
		}
	}

	F35_forward_inspection_base = {#4
		icon = mission_gujarati_textiles
		required_missions = {
			F35_for_leuz3
		}
		position = 10
		provinces_to_highlight = {} 
			trigger = {
				4400 = {
				owned_by = ROOT
					has_dock_building_trigger = yes
					has_shipyard_building_trigger = yes
					has_trade_building_trigger = yes
				}
				2913 = {
					owned_by = ROOT
					has_dock_building_trigger = yes
					has_shipyard_building_trigger = yes
					has_trade_building_trigger = yes
				}
				5668 = {
					owned_by = ROOT
					has_dock_building_trigger = yes
					has_shipyard_building_trigger = yes
					has_trade_building_trigger = yes
				}
				452 = {
					owned_by = ROOT
					has_dock_building_trigger = yes
					has_shipyard_building_trigger = yes
					has_trade_building_trigger = yes
				}
			}
		effect = {
			451 = {
				add_permanent_claim = ROOT
			}
			4547 = {
				add_permanent_claim = ROOT
			}
			elizna_area = {
				add_permanent_claim = ROOT
			}
		}
	}

	F35_end_of_foreign_lies = {#8
		icon = mission_gujarati_textiles
		required_missions = {
			F35_forward_inspection_base
		}
		position = 11
		provinces_to_highlight = {
		} 
			trigger = {
				451 = {
					owned_by = ROOT
					has_dock_building_trigger = yes
					has_fort_building_trigger = yes
					has_trade_building_trigger = yes
				}
				4547 = {
					owned_by = ROOT
					has_dock_building_trigger = yes
					has_fort_building_trigger = yes
					has_trade_building_trigger = yes
				}
				elizna_area = {
					type = all
					owned_by = ROOT
					has_dock_building_trigger = yes
					has_fort_building_trigger = yes
					has_trade_building_trigger = yes
				}
				num_of_light_ship = 50
			}
		effect = {
			451 = {
				change_religion = ROOT
				add_province_modifier = { 
					name = F35_forward_inspection_base_modifier
					duration = -1
				}
			}
			4547 = {
				change_religion = ROOT
				add_province_modifier = { 
					name = F35_forward_inspection_base_modifier
					duration = -1
				}
			}
			elizna_area = {
				change_religion = ROOT
				add_province_modifier = { 
					name = F35_forward_inspection_base_modifier
					duration = -1
				}
			}
			country_event = { id = flavour_azkabar.22 }
		}
	}
}

azkabar_2 = { 
	slot = 2
	generic = no
	ai = yes 
	has_country_shield = yes
	potential = { 
		tag = F35 
		has_country_flag = azkabar_part2
	}

	F35_subplant_the_kasra = {#12
		icon = mission_gujarati_textiles
		required_missions = {
			F35_amman_attalu
		}
		position = 8
		provinces_to_highlight = {
		} 

			trigger = {
				643 = {
					owned_by = ROOT
					has_tax_building_trigger = yes
					religion = ROOT
					NOT = { unrest = 0 }
					NOT = { local_autonomy = 15 }
				}
				631 = {
					owned_by = ROOT
					has_tax_building_trigger = yes
					religion = ROOT
					NOT = { unrest = 0 }
					NOT = { local_autonomy = 15 }
				}
				601 = {
					owned_by = ROOT
					has_tax_building_trigger = yes
					religion = ROOT
					NOT = { unrest = 0 }
					NOT = { local_autonomy = 15 }
				}
				561 = {
					owned_by = ROOT
					has_tax_building_trigger = yes
					religion = ROOT
					NOT = { unrest = 0 }
					NOT = { local_autonomy = 15 }
				}
				565 = {
					owned_by = ROOT
					has_tax_building_trigger = yes
					religion = ROOT
					NOT = { unrest = 0 }
					NOT = { local_autonomy = 15 }
				}
			}
		effect = {
			country_event = { id = flavour_azkabar.18 }
		}
	}

	F35_devastated_west = {#13
		icon = mission_gujarati_textiles
		required_missions = {
			F35_necessary_renegotiation
		}
		position = 9
		provinces_to_highlight = {
		} 

			trigger = {
				num_of_provinces_owned_or_owned_by_non_sovereign_subjects_with = {
					region = bahar_region
					value = 20
				}

			}
		effect = {
			bahar_region = {
				limit = {
					country_or_non_sovereign_subject_holds = ROOT
				}
				cede_province = U19
			}
			vassalize = U19
			bahar_region = { add_permanent_claim = U19 }
		}
	}

	F35_bulwari_cultural_supremacy = {#14
		icon = mission_gujarati_textiles
		required_missions = {
			F35_new_eclipse_cult
			F35_for_leuz3
		}
		position = 10
		provinces_to_highlight = {
		} 
			trigger = {
				custom_trigger_tooltip = {
					tooltip = bulwari_cultural_supremacy_tooltip
					hidden_trigger = {#it dont showm properly anyway, so i made tooltip. but it works
						bulwar_superregion = {		
								type = all
							if = {limit = {culture = ilatani}
								owned_by = ROOT religion = bulwari_sun_cult }
							if = {limit = {culture = raghamidesh}
								owned_by = ROOT religion = bulwari_sun_cult }
						}
					}
				}
				dip_power = 100
				ourdia_region = {
					owned_by = ROOT
					type = all
				}
			}
		effect = {
			add_dip_power = -100
			custom_tooltip = bulwari_cultural_supremacy_effect #same as above, this mission was terrible to code
			hidden_effect = {
				bulwar_superregion = {
					limit = {
						culture = ilatani
					}
					change_culture = bahari
					add_province_modifier = {
						name = azkabar_resistance_to_change_culture 
						duration = 120
					}
				}
				bulwar_superregion = {
					limit = {
						culture = raghamidesh
					}
					change_culture = masnsih
					add_province_modifier = {
						name = azkabar_resistance_to_change_culture 
						duration = 120
					}
				}
				ourdia_region = {
					change_culture = bahari
					add_province_modifier = {
						name = azkabar_resistance_to_change_culture 
						duration = 120
					}
				}
			}
			country_event = { id = flavour_azkabar.21 }
		}
	}
	
	F35_supremacy_of_surakes = {#4
		icon = mission_gujarati_textiles
		required_missions = {
			F35_forward_inspection_base
		}
		position = 7
		provinces_to_highlight = {

		} 
			trigger = {
				bulwar_superregion = {
					type = all
					country_or_non_sovereign_subject_holds = ROOT		
				}
				all_subject_country = {
					liberty_desire = 0
					has_opinion = {
						who = ROOT
						value = 200
					}
					trust = {
						who = ROOT
						value = 100
					}
					has_spy_network_from = {
						who = ROOT
						value = 25
					}
				}
			}
		effect = {
			country_event = { id = flavour_azkabar.24 }
		}
	}
}
azkabar_3 = { 
	slot = 3
	generic = no
	ai = yes 
	has_country_shield = yes
	potential = { 
		tag = F35 
		has_country_flag = azkabar_part2
	}
	F35_amman_attalu = {
		icon = mission_gujarati_textiles
		required_missions = {
			F35_eclipse_of_the_garden
		}
		position = 7
		provinces_to_highlight = {

		} 
			trigger = {
				if = {limit ={any_owned_province = { religion = old_bulwari_sun_cult }}
					has_estate_privilege = estate_church_enforced_one_faith
				}
				643 = {has_building = temple}
				631 = {has_building = temple}
				613 = {has_building = temple}
				is_lacking_institutions = no		
			}
		effect = {
			define_advisor = {
				type = theologian
				skill = 1
				cost_multiplier = 0.50
				culture = zanite
				religion = ROOT
			}
			define_advisor = {
					type = inquisitor
					skill = 1
					cost_multiplier = 0.50
					culture = zanite
					religion = ROOT
			}
		}
	}

	F35_necessary_renegotiation = {
		icon = mission_gujarati_textiles
		required_missions = {
			F35_amman_attalu
		}
		position = 8
		provinces_to_highlight = {
		} 

		trigger = {
			2913 = {country_or_non_sovereign_subject_holds = ROOT}
			5668 = {country_or_non_sovereign_subject_holds = ROOT}
			676 = {country_or_non_sovereign_subject_holds = ROOT}
			F41 = {		
				OR = {
					AND = {
						is_subject_of = ROOT
						liberty_desire = 0
						has_opinion = {
							who = ROOT
							value = 200
						}
					}
					AND = {
						all_core_province = {
							owned_by = ROOT
							NOT = {unrest = 0}
							NOT = {nationalism = 1}
							NOT = {local_autonomy = 10}
							religion = bulwari_sun_cult
						}
					}
				}	
			}
			F30 = {
				OR = {
					AND = {
						is_subject_of = ROOT
						liberty_desire = 0
						has_opinion = {
							who = ROOT
							value = 200
						}
					}
					AND = {
						all_core_province = {
							owned_by = ROOT
							NOT = {unrest = 0}
							NOT = {nationalism = 1}
							NOT = {local_autonomy = 10}
							religion = bulwari_sun_cult
						}
					}
				}
			}
		}
		effect = {
			country_event = { id = flavour_azkabar.19 }
		}
	}	

	F35_new_eclipse_cult = {#4
		icon = mission_gujarati_textiles
		required_missions = {
			F35_necessary_renegotiation
			F35_subplant_the_kasra
		}
		position = 9
		provinces_to_highlight = {

		} 
			trigger = {
				has_estate_privilege = estate_church_azkabar_eclipse
				has_estate_privilege = estate_church_enforced_one_faith
				has_estate_privilege = estate_church_one_faith_one_culture
				religious_unity = 1
			}
		effect = {
			country_event = { id = flavour_azkabar.20 }
		}
	}
		
	F35_cleanse_the_garden = {
		icon = mission_gujarati_textiles
		required_missions = {
			F35_devastated_west
			F35_new_eclipse_cult
			F35_forgotten_east
			
		}
		position = 10
		provinces_to_highlight = {
		} 
			trigger = {
				custom_trigger_tooltip = {
					tooltip = cleanse_the_gardeny_tooltip

					hidden_trigger = {#it dont showm properly anyway, so i made tooltip. but it works
						bulwar_superregion = {	
							type = all
							if = {limit = {culture_group = goblin culture_group = gnollish culture_group = harpy} #it worked with one culture group, it should work with 3
							country_or_non_sovereign_subject_holds = ROOT}
						}
					}
				}
			}
		effect = {
			country_event = { id = flavour_azkabar.26}
			bulwar_superregion = {
				limit = {
					culture_group = goblin 
					culture_group = harpy 
					culture_group = gnollish
				}
				add_province_modifier = {# it will be removed in event chain
					name = cleanse_the_garden 
					duration = 300
					
				}	
			}
		}
	}

	F35_garden_purified = {#4
		icon = mission_gujarati_textiles
		required_missions = {
			F35_cleanse_the_garden
			F35_bulwari_cultural_supremacy
		}
		position = 11
		provinces_to_highlight = {
		} 
			trigger = {
				all_owned_province = {
					NOT = {has_province_modifier = cleanse_the_garden}
				}
				bulwar_superregion = {
					type = all
					NOT = { province_id = 526 }
					NOT = { 
						AND = {
							culture_group = harpy
							culture_group = goblin
							culture_group = gnollish
							culture_group = dwarven
						}
					}	
				}
			}
		effect = {
			country_event = { id = flavour_azkabar.23 }
		}
	}

	F35_final_eclipse = {#4
		icon = mission_gujarati_textiles
		required_missions = {
			F35_end_of_foreign_lies
			F35_supremacy_of_surakes
			F35_garden_purified
			F35_network_completed
			F35_black_walls_of_bulwar
		}
		position = 12
		provinces_to_highlight = {
		} 
			trigger = {
				bulwar_superregion = {
					type = all
					owned_by = ROOT
					religion = bulwari_sun_cult
					OR = {
						culture_group = elven
						culture_group = bulwari
					}
				}
				ourdia_region = {
					type = all
					owned_by = ROOT
					religion = bulwari_sun_cult
				}
			}
		effect = {
			country_event = { id = flavour_azkabar.25 }
		}
	}
}
azkabar_4 = { 
	slot = 4
	generic = no
	ai = yes 
	has_country_shield = yes
	potential = { 
		tag = F35 
		has_country_flag = azkabar_part2
	}

	F35_forgotten_east = {
		icon = mission_gujarati_textiles
		required_missions = {
			F35_necessary_renegotiation
		}
		position = 9
		provinces_to_highlight = {
		} 
			trigger = {
				dasmatus_area = { country_or_non_sovereign_subject_holds = ROOT type=all }
				zallirkor_area ={ country_or_non_sovereign_subject_holds = ROOT type=all  }
				4400 = { country_or_non_sovereign_subject_holds = ROOT }
				num_of_provinces_owned_or_owned_by_non_sovereign_subjects_with = {
					value = 20
					region = far_salahad_region
				}		
			}
		effect = {
			far_salahad_region = {
				limit = {
					OR = {
						owned_by = ROOT
						owner = {
							is_subject_of = ROOT
						}
					}
				}
				cede_province = F79
			}
			vassalize = F79
			dasmatus_area = {cede_province = F56}
			zallirkor_area = {cede_province = F56}
			4400 = {cede_province = F56}
			vassalize = F56
		}
	}

	F35_network_completed = {
		icon = mission_gujarati_textiles
		required_missions = {
			F35_secrets_of_the_jailers
		}
		position = 11
		provinces_to_highlight = {
		} 
			trigger = {
				treasury = 2500
				613 = {has_building = mage_tower has_fort_building_trigger = yes}
				565 = {has_building = mage_tower has_fort_building_trigger = yes}
				676 ={has_building = mage_tower has_fort_building_trigger = yes}
				5668 ={has_building = mage_tower has_fort_building_trigger = yes}
				533 ={has_building = mage_tower has_fort_building_trigger = yes}		
			}
		effect = {
			add_country_modifier = {
				name = peace_in_garden
				duration = -1
			}
			613 = {add_province_modifier = { 
				name = bidyatu 
				duration = -1}
			}
			565 = {add_province_modifier = { 
				name = bidyatu 
				duration = -1}
			}
			676 = {add_province_modifier = { 
				name = bidyatu 
				duration = -1}
			}
			5668 = {add_province_modifier = { 
				name = bidyatu 
				duration = -1}
			}
			533 = {add_province_modifier = { 
				name = bidyatu 
				duration = -1}
			}
		}
	}
}

azkabar_5 = { 
	slot = 5
	generic = no
	ai = yes 
	has_country_shield = yes
	potential = { 
		tag = F35 
		has_country_flag = azkabar_part2
	}

	F35_necessary_step_further = {
		icon = mission_gujarati_textiles
		required_missions = {
			F35_eclipse_of_the_garden
			F35_obtain_the_obsidian
		}
		position = 7
		provinces_to_highlight = {
		} 

			trigger = {
				golden_highway_bulwar_proper = {
					type = all
					has_province_modifier = golden_highway
				}
				golden_highway_far_bulwar = {
					type = all
					has_province_modifier = golden_highway
				}
				golden_highway_far_salahad = {
					type = all
					has_province_modifier = golden_highway
				}
			}
		effect = {
			country_event = { id = flavour_azkabar.17 }
		}
	}

	F35_research_the_prison = {
		icon = mission_gujarati_textiles
		required_missions = {
			F35_necessary_step_further
		}
		position = 8
		provinces_to_highlight = {
		}
			trigger = {
				treasury = 300
				estate_loyalty = { estate = estate_mages loyalty = 50 }
				613 = {has_building = mage_tower}
				OR={
						advisor = fortification_expert
						mil_power = 100
				}
			}
		effect = {
			613 = {
				add_province_modifier = {
					name = prison_research
					duration = 1825
				}
			}
		}
	}

	F35_secrets_of_the_jailers = {
		icon = mission_gujarati_textiles
		required_missions = {
			F35_research_the_prison
		}
		position = 10
		provinces_to_highlight = {} 
			trigger = {
				estate_loyalty = { estate = estate_mages loyalty = 60 }
				estate_influence = { estate = estate_mages influence = 60 }
				613 ={
					NOT = {has_province_modifier = prison_research}
				}
				OR ={
					advisor = court_mage
					adm_power = 150
				}
			}
		effect = {	
			if ={limit = {NOT = {advisor = court_mage}}
				add_adm_power = -150
				613 = {
					add_province_modifier = {
						name = bidyatu
						duration = -1
					}
				}
			}
			if ={limit ={ advisor = court_mage }
				613 = {
					add_province_modifier = {
						name = bidyatu
						duration = -1
					}
				}
			}
		}
	}
	
	F35_black_walls_of_bulwar = {
		icon = mission_gujarati_textiles
		required_missions = {
			F35_secrets_of_the_jailers
		}
		position = 11
		provinces_to_highlight = {
		}
			trigger = {
				surakes_bulwari_borders = {
					type = all
						base_manpower = 8
						has_fort_building_trigger = yes
				}
				OR = {
					any_known_country = {
						any_owned_province = { trade_goods = damestear }
						has_opinion = { who = ROOT value = 200 }	
					}
					OR = {
						any_owned_province = { trade_goods = damestear }
						any_subject_country ={any_owned_province = { trade_goods = damestear }}
						}
				}
				custom_trigger_tooltip = {
					tooltip = azkabar_vulcano_owners
					hidden_trigger = {
						OR = {
							4039 = { owner = {has_opinion = { who = ROOT value = 200 }} }
							6605 = { owner = {has_opinion = { who = ROOT value = 200 }} }
							trialmount_area = { owner = {has_opinion = { who = ROOT value = 200 }} }
							270 = { owner = {has_opinion = { who = ROOT value = 200 }} }
							263 = { owner = {has_opinion = { who = ROOT value = 200 }} }
							912 = { owner = {has_opinion = { who = ROOT value = 200 }} }
							311 = { owner = {has_opinion = { who = ROOT value = 200 }} }
							314 = { owner = {has_opinion = { who = ROOT value = 200 }} }
							354 = { owner = {has_opinion = { who = ROOT value = 200 }} }
							356 = { owner = {has_opinion = { who = ROOT value = 200 }} }
						}
					}
				}
			}			
		effect = {
			surakes_bulwari_borders = {
				type = all
				add_province_modifier = {
					name = black_wallls_of_bulwar
					duration = -1
				}
			}					
		}
	}
}