#By leuz

gelkalis_1 = {
	slot = 1
	generic = no
	ai = yes
	has_country_shield = yes
	potential = {
		OR = {
			tag = F26
			and = {
				tag = F52
				was_tag = F26
			}
		}
	} 
	F26_goat_wool_weaving = {
		icon = mission_gujarati_textiles
		required_missions = {
			F26_restore_the_pastures
		}
		position = 3
		provinces_to_highlight = {
			owned_by = ROOT
			trade_goods = wool
			OR = {
				NOT = { base_production = 4 }
				NOT = { has_production_building_trigger = yes }
			}
		} 

		trigger = {
			treasury = 400
			num_of_owned_provinces_with = {
				value = 2
				trade_goods = wool
				base_production = 4
				has_production_building_trigger = yes
			}
		}

		effect = {
			custom_tooltip = gelkalis_goat_wool_weaving_tooltip
			hidden_effect = {
				random_owned_province = {
					limit = {
						trade_goods = wool
						base_production = 4
						has_production_building_trigger = yes
						NOT = { has_building = textile }
					}
					add_building = textile
				}
				random_owned_province = {
					limit = { 
						trade_goods = wool
						base_production = 4
						has_production_building_trigger = yes
						NOT = { has_building = textile }
					}
					add_building = textile
				}
			}
			add_treasury = -400
		}
	}
	F26_elven_tapestry = {
		icon = mission_alliances
		required_missions = {
			F26_goat_wool_weaving
		}
		position = 4
		provinces_to_highlight = { province_id = 665 } 

		trigger = {
			OR = {
				any_ally = {
					primary_culture = sun_elf
					has_opinion = {
						who = ROOT
						value = 120
					}
				}
				any_owned_province = {
					culture = sun_elf
					development = 20
				}
			}
			if = {
				limit = { has_dlc = "Dharma" }
				665 = {
					province_has_center_of_trade_of_level = 2
					owned_by = ROOT 
				}
			}
			else = {
				665 = {
					province_trade_power = 20
					owned_by = ROOT 
				}
			}
			if = {
				limit = { ai = no }
				estate_loyalty = {
					estate = estate_mages
					loyalty = 50
				}
				estate_influence = {
					estate = estate_mages
					influence = 40
				}
			}
		}

		effect = {
			if = {
				limit = {
					has_dlc = "Lions of the North"
				}
				custom_tooltip = zamukaras_gelkalis_bypass_tt
				set_country_flag = zamukaras_gelkalis_bypass_flag
				add_country_modifier = {
					name = zamukaras_gelkar_sarmardu
					duration = -1
				}
			}
			665 = {
				add_elven_minority_size_effect = yes
				add_permanent_province_modifier = {
					name = gelkalis_flying_carpets
					duration = -1
				}
			}
			664 = {
				add_elven_minority_size_effect = yes
			}
			653 = {
				add_elven_minority_size_effect = yes
			}
			669 = {
				add_elven_minority_size_effect = yes
			}
		}
	}
	F26_iron_star_over_the_moon = {
		icon = a_center_of_religion
		required_missions = {
			F26_secure_the_western_flank
		}
		position = 7
		provinces_to_highlight = {
			OR = {
				area = kuz_mountains_area
				area = birsartenslib_area
				area = imuluses_area
			}
			NOT = { country_or_subject_holds = ROOT }
		} 

		trigger = {
			kuz_mountains_area = {
				type = all
				country_or_subject_holds = ROOT
			}
			birsartenslib_area = {
				type = all
				country_or_subject_holds = ROOT
			}

			imuluses_area = {
				type = all
				country_or_subject_holds = ROOT
			}
		}

		effect = {
			kuz_mountains_area = {
				add_province_modifier = {
					name = gelkalis_state_investment
					duration = 7300
				}
			}
		}
	}
	F26_unite_our_people = {
		icon = trade_with_the_natives
		required_missions = {
			F26_iron_star_over_the_moon
		}
		position = 8
		provinces_to_highlight = {
			area = kuz_mountains_area
			OR = {
				NOT = { has_tax_building_trigger = yes }
				NOT = { num_of_times_improved_by_owner = 5 }
				unrest = 1
			}
		} 

		trigger = {
			if = {
				limit = { ai = no }
				kuz_mountains_area = {
					type = all
					AND = {
						owned_by = ROOT
						has_tax_building_trigger = yes
						num_of_times_improved_by_owner = 5
						NOT = { unrest = 1 }
					}
				}
			}
			else = {
				kuz_mountains_area = {
					type = all
					AND = {
						owned_by = ROOT
						has_tax_building_trigger = yes
						NOT = { unrest = 1 }
					}
				}
			}
		}

		effect = {
			every_owned_province = {
				limit = { culture = kuzarami }
				change_culture = gelkar
				add_province_modifier = {
					name = gelkalis_rivalry_ended
					duration = 10950
				}
			}
			define_advisor = {
				type = artist
				skill = 1
				culture = gelkar
				religion = ROOT
				discount = yes
			}
		}
	}
	F26_proto_industrial_textile_production = {
		icon = mission_rb_prospect_for_coal
		required_missions = {
			F26_the_great_haven
		}
		position = 9
		provinces_to_highlight = {
			province_group = gelkalis_core_zone
			OR = {
				trade_goods = wool
				trade_goods = cloth
			}
			OR = {
				NOT = { has_building = textile }
				NOT = { has_production_building_trigger = yes }
			}
		} 

		trigger = {
			if = {
				limit = { ai = no }
				671 = {
					trade_share = {
						country = ROOT
						share = 50
					}
				}
			}
			has_institution = global_trade
			num_of_owned_provinces_with = {
				value = 5
				province_group = gelkalis_core_zone
				has_building = textile
				has_production_building_trigger = yes
			}
		}

		effect = {
			gelkalis_core_zone_textile = {
				add_permanent_province_modifier = {
					name = gelkalis_proto_industrial_waving
					duration = -1
				}
			}
		}
	}
	F26_the_power_of_water = {
		icon = the_fountain_of_youth
		required_missions = {
			F26_proto_industrial_textile_production
		}
		position = 10
		provinces_to_highlight = {
			province_group = gelkalis_core_zone_textile
			OR = {
				NOT = { has_manufactory_trigger = yes }
				NOT = { has_production_building_trigger = yes }
				NOT = { has_building = university }
			}
		} 

		trigger = {
			gelkalis_core_zone_textile = {
				type = all
				has_manufactory_trigger = yes
				has_production_building_trigger = yes
				has_building = university
			}
			if = {
				limit = { has_dlc = "Dharma" }
				654 = {
					province_has_center_of_trade_of_level = 3
					OR = {
						has_building = trade_depot
						has_building = stock_exchange
					}
				}
			}
			else = {
				654 = {
					province_trade_power = 25
					OR = {
						has_building = trade_depot
						has_building = stock_exchange
					}
				}
			}
		}

		effect = {
			gelkalis_core_zone_textile = {
				remove_province_modifier = gelkalis_proto_industrial_waving
				add_permanent_province_modifier = {
					name = gelkalis_industrial_waving
					duration = -1
				}
			}
		}
	}
	F26_the_ashen_terrace = {
		icon = mission_a_million_rice_fields
		required_missions = {
			F26_the_power_of_water
		}
		position = 11
		provinces_to_highlight = { province_id = 672 } 

		trigger = {
			treasury = 2000
			dip_power = 50
			672 = {
				development = 20
				has_courthouse_building_trigger = yes
			}
		}

		effect = {
			add_dip_power = -50
			add_treasury = -2000
			672 = {
				change_trade_goods = grain
				add_building = soldier_households
				remove_province_modifier = gelkalis_industrial_waving
				add_permanent_province_modifier = {
					name = gelkalis_breadbasket_of_the_mountains
					duration = -1
				}
			}
		}
	}
}
gelkalis_2 = {
	slot = 2
	generic = no
	ai = yes
	has_country_shield = yes
	potential = {
		OR = {
			tag = F26
			and = {
				tag = F52
				was_tag = F26
			}
		}
	} 
	F26_restore_the_pastures = {
		icon = mission_rb_conquer_wales
		required_missions = {
			F26_freedom_for_our_brethren
		}
		position = 2
		provinces_to_highlight = { province_id = 668 } 

		trigger = {
			668 = {
				owned_by = ROOT 
				base_production = 3
				has_production_building_trigger = yes
			}
		}

		effect = {
			668 = {
				add_base_manpower = 3
			}
			every_owned_province = {
				limit = { trade_goods = wool }
				add_province_modifier = {
					name = gelkalis_flocks_returned
					duration = 5475
				}
			}
		}
	}
	F26_the_citadels_design = {
		icon = fortify_the_passes
		required_missions = {
			F26_restore_the_pastures
		}
		position = 3
		provinces_to_highlight = { province_id = 665 } 

		trigger = {
			665 = {
				has_fort_building_trigger = yes
			}
			if = {
				limit = { ai = no }
				advisor = fortification_expert
			}
			mil_power = 100
		}

		effect = {
			add_mil_power = -100
			665 = { gelkalis_build_cliff_citadel = yes }
		}
	}
	F26_gelkar_fashion = {
		icon = invest_in_the_provinces
		required_missions = {
			F26_elven_tapestry
		}
		position = 5
		provinces_to_highlight = {
			owned_by = ROOT
			trade_goods = cotton
			OR = {
				local_autonomy = 5
				NOT = { has_production_building_trigger = yes }
			}
		} 

		trigger = {
			if = {
				limit = { ai = no }
				num_of_owned_provinces_with = {
					value = 2
					trade_goods = cotton
					NOT = { local_autonomy = 5 }
					has_production_building_trigger = yes
				}
				diplomatic_reputation = 2
				prestige = 30
				if = {
					limit = { ROOT = { is_free_or_tributary_trigger = yes } }
					calc_true_if = {
						all_known_country = {
							has_opinion = {
								who = ROOT
								value = 150
							}
							alliance_with = ROOT
						}
						amount = 2
					}
				}
				else = {
					calc_true_if = {
						all_known_country = {
							has_opinion = {
								who = ROOT
								value = 150
							}
						}
						amount = 2
					}
				}
			}
			else = {
				num_of_owned_provinces_with = {
					value = 2
					trade_goods = cotton
					has_production_building_trigger = yes
				}
			}
		}

		effect = {
			add_years_of_income = 1
			add_stability = 1
			add_country_modifier = {
				name = gelkalis_fashion
				duration = 5475
			}
		}
	}
	F26_secure_the_western_flank = {
		icon = mission_unite_home_region
		required_missions = {
			F26_organize_the_militias
		}
		position = 6
		provinces_to_highlight = {
			OR = {
				area = ur_monkande_area
				area = azka_evran_area
				area = bahar_szel_uak_area
				area = kuzak_area
			}
			NOT = { country_or_subject_holds = ROOT }
		} 

		trigger = {
			ur_monkande_area = {
				type = all
				country_or_subject_holds = ROOT
			}
			azka_evran_area = {
				type = all
				country_or_subject_holds = ROOT
			}
			bahar_szel_uak_area = {
				type = all
				country_or_subject_holds = ROOT
			}
			kuzak_area = {
				type = all
				country_or_subject_holds = ROOT
			}
		}

		effect = {
			birsartenslib_area = { add_permanent_claim = ROOT }
			imuluses_area = { add_permanent_claim = ROOT }
			kuz_mountains_area = { add_permanent_claim = ROOT }
			fajabahar_area = { add_permanent_claim = ROOT }
			aqatbahar_area = { add_permanent_claim = ROOT }
		}
	}
	F26_the_last_charge = {
		icon = mission_subdue_rajputana
		required_missions = {
			F26_secure_the_western_flank
		}
		position = 7
		provinces_to_highlight = {
			area = aqatbahar_area
			NOT = { country_or_subject_holds = ROOT }
		} 

		trigger = {
			aqatbahar_area = {
				type = all
				country_or_subject_holds = ROOT
			}
		}

		effect = {
			zagnabad_area = { add_permanent_claim = ROOT }
			country_event = { id = flavour_gelkalis.11 }
		}
	}
	F26_the_great_haven = {
		icon = africa_proconsulare
		required_missions = {
			F26_the_last_charge
			F26_jorkand_lake_development_plan
		}
		position = 8
		provinces_to_highlight = {
			OR = { 
				AND = {
					province_id = 536
					OR = {
						NOT = { has_trade_building_trigger = yes }
						NOT = { has_shipyard_building_trigger = yes }
						NOT = { province_has_center_of_trade_of_level = 3 }
					}
				}
				AND = {
					is_capital_of = F23
					NOT = { 
						F23 = { #ovdal tungr
							has_opinion = {
								who = ROOT
								value = 120
							}
						}
					}
				}
				AND = {
					province_id = 526
					NOT = { owned_by = ROOT }
				}
			}				
		} 

		trigger = {
			if = {
				limit = { ai = no }
				OR = {
					F23 = { #ovdal tungr
						has_opinion = {
							who = ROOT
							value = 120
						}
					}
					526 = { owned_by = ROOT } #ovdal tungr
				}
			}
			if = {
				limit = { has_dlc = "Dharma" }
				536 = { #aqatbar
					province_has_center_of_trade_of_level = 3
					has_trade_building_trigger = yes
					has_shipyard_building_trigger = yes
				}
			}
			else = {
				536 = {
					province_trade_power = 25
					has_trade_building_trigger = yes
					has_shipyard_building_trigger = yes
				}
			}
			dip_power = 50
		}

		effect = {
			add_dip_power = -50
			536 = {
				add_dwarven_minority_size_effect = yes
				add_permanent_province_modifier = {
					name = gelkalis_trade_port
					duration = -1
				}
			}
		}
	}
	F26_iron_star_foundaries = {
		icon = industrialized_rhineland
		required_missions = {
			F26_the_great_haven
		}
		position = 9
		provinces_to_highlight = { 
			OR = {
				province_id = 655
				province_id = 678
				province_id = 661
				province_id = 3263
				province_id = 654
				province_id = 650
				province_id = 662
			}
			OR = {
				NOT = { base_production = 10 }
				NOT = { has_production_building_trigger = yes }
				NOT = { has_manufactory_trigger = yes }
			}
		} 

		trigger = {
			655 = {
				base_production = 10
				has_production_building_trigger = yes
				has_manufactory_trigger = yes
			}
			678 = {
				base_production = 10
				has_production_building_trigger = yes
				has_manufactory_trigger = yes
			}
			661 = {
				base_production = 10
				has_production_building_trigger = yes
				has_manufactory_trigger = yes
			}
			3263 = {
				base_production = 10
				has_production_building_trigger = yes
				has_manufactory_trigger = yes
			}
			654 = {
				base_production = 10
				has_production_building_trigger = yes
				has_manufactory_trigger = yes
			}
			650 = {
				base_production = 10
				has_production_building_trigger = yes
				has_manufactory_trigger = yes
			}
			662 = {
				base_production = 10
				has_production_building_trigger = yes
				has_manufactory_trigger = yes
			}
		}

		effect = {
			655 = {
				add_permanent_province_modifier = {
					name = gelkalis_iron_star_industry
					duration = -1
				}
			}
			678 = {
				add_permanent_province_modifier = {
					name = gelkalis_iron_star_industry
					duration = -1
				}
			}
			3263 = {
				add_permanent_province_modifier = {
					name = gelkalis_iron_star_industry
					duration = -1
				}
			}
			661 = {
				add_permanent_province_modifier = {
					name = gelkalis_iron_star_industry
					duration = -1
				}
			}
			654 = {
				add_permanent_province_modifier = {
					name = gelkalis_iron_star_industry
					duration = -1
				}
			}
			650 = {
				add_permanent_province_modifier = {
					name = gelkalis_iron_star_industry
					duration = -1
				}
			}
			662 = {
				add_permanent_province_modifier = {
					name = gelkalis_iron_star_industry
					duration = -1
				}
			}
		}
	}
	F26_shining_topaz = {
		icon = mission_frozen_star
		required_missions = {
			F26_iron_star_foundaries
			F26_into_the_mountain
		}
		position = 10
		provinces_to_highlight = { province_id = 656 } 

		trigger = {
			656 = { #Peruskam
				base_production = 15
				has_production_building_trigger = yes
				has_manufactory_trigger = yes
				has_building = university
				has_courthouse_building_trigger = yes
			}
			if = {
				limit = { ai = no }
				advisor = artist
			}
			has_estate = estate_artificers
			any_owned_province = {
				has_building = university
				has_building = mage_tower
			}
		}

		effect = {
			656 = {
				add_permanent_province_modifier = {
					name = gelkalis_gemstone_of_surakel
					duration = -1
				}
				add_dwarven_minority_size_effect = yes
				add_elven_minority_size_effect = yes
				if = {
					limit = {
						536 = { has_province_modifier = aqatbar_gnome_quarter }
					}
					add_gnomish_minority_size_effect = yes
				}
			}
			mission_reward_artifice_points_3 = yes
		}
	}
	F26_cities_of_the_mountain = {
		icon = imperial_capitals
		required_missions = {
			F26_shining_topaz
			F26_the_power_of_water
		}
		position = 11
		provinces_to_highlight = {
			has_province_modifier = gelkalis_cliff_citadel_2
			owned_by = ROOT
			OR = {
				NOT = { development = 20 }
				NOT = { has_production_building_trigger = yes }
				NOT = { has_courthouse_building_trigger = yes }
				NOT = { has_building = university }
				NOT = { has_manufactory_trigger = yes }
			}
		} 

		trigger = {
			custom_trigger_tooltip = {
				tooltip = gelkalis_cities_of_the_mountain_tooltip
				all_owned_province = {
					OR = {
						NOT = { has_province_modifier = gelkalis_cliff_citadel_2 }
						AND = {
							development = 20
							has_production_building_trigger = yes
							has_manufactory_trigger = yes
							has_building = university
							has_courthouse_building_trigger = yes
						}
					}
				}
			}
		}

		effect = {
			custom_tooltip = gelkalis_cities_of_the_mountain_2_tooltip
			hidden_effect = {
				bulwar_superregion = {
					limit = { has_province_modifier = gelkalis_cliff_citadel_2 }
					remove_province_modifier = gelkalis_cliff_citadel_2
					add_permanent_province_modifier = {
						name = gelkalis_cliff_citadel_3
						duration = -1
					}
				}
			}
			set_country_flag = gelkalis_citadel_lv_3
		}
	}
}
gelkalis_3 = {
	slot = 3
	generic = no
	ai = yes
	has_country_shield = yes
	potential = {
		OR = {
			tag = F26
			and = {
				tag = F52
				was_tag = F26
			}
		}
	} 

	F26_freedom_for_our_brethren = {
		icon = mission_rb_conquer_the_highlands
		required_missions = {
		}
		position = 1
		provinces_to_highlight = {
			OR = {
				province_id = 668
				province_id = 669
				province_id = 671
			}
			NOT = { owned_by = ROOT }
		} 

		trigger = {
			668 = { owned_by = ROOT }
			669 = { owned_by = ROOT }
			671 = { owned_by = ROOT }

		}

		effect = {
			siffiraeri_area = { add_permanent_claim = ROOT }
			kharfiraeri_area = { add_permanent_claim = ROOT }
			nansalen_area = { add_permanent_claim = ROOT }
			add_country_modifier = {
				name = gelkalis_reclaimer_army
				duration = 7300
			}
		}
	}
	F26_mobile_supply_trains = {
		icon = mission_sail_to_the_east_indies
		required_missions = {
			F26_restore_the_pastures
			F26_secure_the_valleys
		}
		position = 3
		provinces_to_highlight = {
			owned_by = ROOT
			trade_goods = livestock
			OR = {
				NOT = { base_manpower = 4 }
				NOT = { has_manpower_building_trigger = yes }
			}
		} 

		trigger = {
			num_of_owned_provinces_with = {
				value = 2
				trade_goods = livestock
				base_manpower = 4
				has_manpower_building_trigger = yes
			}
		}

		effect = {
			add_country_modifier = {
				name = gelkalis_goat_logistic_1
				duration = -1
			}
		}
	}
	F26_fortify_the_pass = {
		icon = mission_portuguese_interference
		required_missions = {
			F26_mobile_supply_trains
			F26_march_to_the_lake
			F26_the_citadels_design
		}
		position = 4
		provinces_to_highlight = {
			OR = {
				province_id = 669
				province_id = 3263
			}
			OR = {
				NOT = { has_fort_building_trigger = yes }
				NOT = { owned_by = ROOT }
			}
		} 

		trigger = {
			669 = {
				has_fort_building_trigger = yes
				owned_by = ROOT 
			}
			3263 = {
				has_fort_building_trigger = yes
				owned_by = ROOT 
			}
		}

		effect = {
			669 = { gelkalis_build_cliff_citadel = yes }
			3263 = { gelkalis_build_cliff_citadel = yes }
		}
	}
	F26_organize_the_militias = {
		icon = mission_swiss_mercenaries_flipped
		required_missions = {
			F26_fortify_the_pass
			F26_resettle_the_valleys
		}
		position = 5
		provinces_to_highlight = {
			province_group = gelkalis_core_zone
			NOT = { owned_by = ROOT }
		} 

		trigger = {
			gelkalis_core_zone = {
 				type = all
				owned_by = ROOT 
			}
			manpower = 10
			mil_power = 100
			if = {
				limit = { ai = no }
				advisor = army_reformer
				if = {
					limit = { has_dlc = "Cradle of Civilization" }
					army_professionalism = 0.1
				}
				else = {
					army_tradition = 20
				}
			}
		}

		effect = {
			gelkalis_core_zone = {
				add_permanent_province_modifier = {
					name = gelkalis_unconquerable_land_1
					duration = -1
				}
			}
			add_mil_power = -100
			ur_monkande_area = { add_permanent_claim = ROOT }
			azka_evran_area = { add_permanent_claim = ROOT }
			bahar_szel_uak_area = { add_permanent_claim = ROOT }
			kuzak_area = { add_permanent_claim = ROOT }
		}
	}
	F26_harpy_weavers = {
		icon = mission_expand_textile_industry
		required_missions = {
			F26_gelkar_fashion
			F26_sheppards_and_harpies
		}
		position = 6
		provinces_to_highlight = {
			owned_by = ROOT
			culture = firanyan_harpy
			OR = {
				local_autonomy = 10
				AND = { 
					has_dlc = "Mandate of Heaven"
					NOT = { is_prosperous = yes }
				}
				AND = { 
					NOT = { has_dlc = "Mandate of Heaven" }
					devastation = 1
				}
			}
		} 

		trigger = {
			if = {
				limit = { ai = no }
				custom_trigger_tooltip = {
					tooltip = gelkalis_harpy_weavers_tooltip
					all_owned_province = {
						OR = {
							NOT = { culture = firanyan_harpy }
							AND = {
								NOT = { local_autonomy = 10 }
								if = {
									limit = { has_dlc = "Mandate of Heaven" }
									is_prosperous = yes
								}
								else = {
									NOT = { devastation = 1 }
								}
							}
						}
					}
				}
			}
			num_of_owned_provinces_with = {
				value = 4
				culture = firanyan_harpy
				has_building = textile
			}
		}

		effect = {
			every_owned_province = {
				limit = { has_harpy_minority_trigger = yes }
				add_harpy_minority_size_effect = yes
				add_base_tax = 1
				add_base_production = 1
				add_base_manpower = 1
			}
			if = {
				limit = {
					has_estate = estate_burghers
				}
				unlock_estate_privilege = {
					estate_privilege = estate_burghers_mountain_expansion
				}
				add_estate_loyalty = {
					estate = estate_burghers
					loyalty = 15
				}
			}
			else = {
				add_dip_power = 100
				hidden_effect = {
					unlock_estate_privilege = {
						estate_privilege = estate_burghers_mountain_expansion
					}
				}
			}
		}
	}
	F26_jorkand_lake_development_plan = {
		icon = develop_konigsberg
		required_missions = {
			F26_harpy_weavers
		}
		position = 7
		provinces_to_highlight = {
			area = firanyalen_area
			OR = {
				NOT = { owned_by = ROOT }
				NOT = { has_production_building_trigger = yes }
				local_autonomy = 1
				unrest = 1
				AND = { 
					has_dlc = "Mandate of Heaven"
					NOT = { is_prosperous = yes }
				}
				AND = { 
					NOT = { has_dlc = "Mandate of Heaven" }
					devastation = 1
				}
			}
		} 

		trigger = {
			if = {
				limit = { ai = no }
				firanyalen_area = {
					type = all
					owned_by = ROOT
					if = {
						limit = { has_dlc = "Mandate of Heaven" }
						is_prosperous = yes
					}
					else = {
						NOT = { devastation = 1 }
					}
					NOT = { local_autonomy = 1 }
					NOT = { unrest = 1 }
					has_production_building_trigger = yes
				}
				advisor = natural_scientist
			}
			else = {
				firanyalen_area = {
					type = all
					owned_by = ROOT
					NOT = { unrest = 1 }
					has_production_building_trigger = yes
				}
			}
		}

		effect = {
			firanyalen_area = {
				add_base_tax = 2
				add_base_production = 2
				add_base_manpower = 2
				add_province_modifier = {
					name = gelkalis_jorkad_lake_eco_area
					duration = 10950
				}
			}
		}
	}
	F26_shield_over_the_plains = {
		icon = mission_conquer_mewar
		required_missions = {
			F26_iron_star_over_the_moon
			F26_the_last_charge
			F26_westward_wall
		}
		position = 8
		provinces_to_highlight = {
			OR = {
				province_id = 661
				province_id = 556
				province_id = 619
				province_id = 666
			}
			OR = {
				NOT = { owned_by = ROOT }
				NOT = { has_fort_building_trigger = yes }
				NOT = { has_manpower_building_trigger = yes }
			}
		} 

		trigger = {
			556 = { #sad kuz
				owned_by = ROOT
				has_fort_building_trigger = yes
				has_manpower_building_trigger = yes
			}
			661 = { #Hytiranyanlen
				owned_by = ROOT
				has_fort_building_trigger = yes
				has_manpower_building_trigger = yes
			}
			619 = { #Vainviria
				owned_by = ROOT
				has_fort_building_trigger = yes
				has_manpower_building_trigger = yes
			}
			666 = { #Ayarallen
				owned_by = ROOT
				has_fort_building_trigger = yes
				has_manpower_building_trigger = yes
			}
		}

		effect = {
			666 = { gelkalis_build_cliff_citadel = yes }
			661 = { gelkalis_build_cliff_citadel = yes }
			619 = { gelkalis_build_cliff_citadel = yes }
			556 = { gelkalis_build_cliff_citadel = yes }
			anzarzax_area = { add_permanent_claim = ROOT }
			kumarkand_area = { add_permanent_claim = ROOT }
			bulwar_area = { add_permanent_claim = ROOT }
			traz_buranun_area = { add_permanent_claim = ROOT }
			north_naza_area = { add_permanent_claim = ROOT }
			east_naza_area = { add_permanent_claim = ROOT }
			south_naza_area = { add_permanent_claim = ROOT }
		}
	}
	F26_into_the_mountain = {
		icon = mission_rb_trinity_college_dublin
		required_missions = {
			F26_shield_over_the_plains
			F26_the_great_haven
		}
		position = 9
		provinces_to_highlight = {
			has_province_modifier = gelkalis_cliff_citadel_1
			OR = {
				NOT = { development = 20 }
				NOT = { has_building = training_fields }
				NOT = { has_forcelimit_building_trigger = yes }
			}
		} 

		trigger = {
			num_of_owned_provinces_with = {
				value = 7
				has_province_modifier = gelkalis_cliff_citadel_1
				development = 20
				has_building = training_fields
				has_forcelimit_building_trigger = yes
			}
			if = {
				limit = { ai = no }
				fortification_expert = 3
			}
		}

		effect = {
			custom_tooltip = gelkalis_into_the_mountain_tooltip
			hidden_effect = {
				bulwar_superregion = {
					limit = { has_province_modifier = gelkalis_cliff_citadel_1 }
					remove_province_modifier = gelkalis_cliff_citadel_1
					add_permanent_province_modifier = {
						name = gelkalis_cliff_citadel_2
						duration = -1
					}
				}
			}
			set_country_flag = gelkalis_citadel_lv_2
		}
	}
	F26_mountain_artillery_regiments = {
		icon = mission_cannons_firing
		required_missions = {
			F26_iron_star_foundaries
		}
		position = 10
		provinces_to_highlight = {
			owned_by = ROOT
			trade_goods = iron
			OR = {
				NOT = { base_production = 5 }
				NOT = { has_building = training_fields }
			}
		} 

		trigger = {
			if = {
				limit = { ai = no }
				num_of_artillery = 20
				monthly_mil = 12
				if = {
					limit = {  has_dlc = "Rule Britannia"  }
					innovativeness = 30
				}
				else = {
					mil_power = 800
				}
			}
			num_of_owned_provinces_with = {
				value = 3
				trade_goods = iron
				base_production = 5
				has_building = training_fields
			}
		}

		effect = {
			remove_country_modifier = gelkalis_goat_logistic_1
			add_country_modifier = {
					name = gelkalis_goat_logistic_2
					duration = -1
			}
		}
	}
	F26_as_swift_as_wind = {
		icon = give_him_back_his_legions
		required_missions = {
			F26_mountain_artillery_regiments
		}
		position = 11
		provinces_to_highlight = {
			owned_by = ROOT
			trade_goods = livestock
		} 

		trigger = {
			development_in_provinces = {
    				trade_goods = livestock
    				value = 100
			}
			if = {
				limit = { ai = no }
				army_organiser = 3
				if = {
					limit = { has_dlc = "Cradle of Civilization" }
					army_professionalism = 0.5
				}
				else = {
					army_tradition = 80
				}
			}
		}

		effect = {
			remove_country_modifier = gelkalis_goat_logistic_2
			add_country_modifier = {
					name = gelkalis_goat_logistic_3
					duration = -1
			}
		}
	}
	F26_the_age_of_steel = {
		icon = mission_rb_build_furnaces
		required_missions = {
			F26_as_swift_as_wind
			F26_cities_of_the_mountain
			F26_eternal_peace
		}
		position = 12
		provinces_to_highlight = {} 

		trigger = {
			if = {
				limit = { ai = no }
				custom_trigger_tooltip = {
					tooltip = gelkalis_the_age_of_steel_tooltip
					NOT = {
						any_known_country = {
							total_development = ROOT 
							capital_scope = { superregion = bulwar_superregion } 
						}
					}
				}
				monthly_income = 500
				has_adm_advisor_3 = yes
				has_mil_advisor_3 = yes
				has_dip_advisor_3 = yes
			}
		}
		effect = {
			country_event = { id = flavour_gelkalis.10 } 
		}
	}
}
gelkalis_4 = {
	slot = 4
	generic = no
	ai = yes
	has_country_shield = yes
	potential = {
		OR = {
			tag = F26
			and = {
				tag = F52
				was_tag = F26
			}
		}
	} 
	F26_secure_the_valleys = {
		icon = law_of_the_pious
		required_missions = {
			F26_freedom_for_our_brethren
		}
		position = 2
		provinces_to_highlight = {
			OR = {
				area = siffiraeri_area
				area = kharfiraeri_area
				area = nansalen_area
			}
			NOT = { owned_by = ROOT }
		} 

		trigger = {
			siffiraeri_area = {
 				type = all
				owned_by = ROOT
			}
			kharfiraeri_area = {
 				type = all
				owned_by = ROOT 
			}
			nansalen_area = {
 				type = all
				owned_by = ROOT 
			}
		}

		effect = {
			misharallen_area = { add_permanent_claim = ROOT }
			firanyalen_area = { add_permanent_claim = ROOT }
			add_country_modifier = {
				name = gelkalis_siege_the_nests
				duration = 7300
			}
			define_advisor = {
				type = fortification_expert
				skill = 1
				culture = gelkar
				religion = ROOT
				discount = yes
			}
		}
	}
	F26_march_to_the_lake = {
		icon = state_of_the_presidi
		required_missions = {
			F26_secure_the_valleys
		}
		position = 3
		provinces_to_highlight = {
			OR = {
				area = misharallen_area
				area = firanyalen_area
			}
			NOT = { owned_by = ROOT } 
		} 

		trigger = {
			misharallen_area = {
 				type = all
				owned_by = ROOT 
			}
			firanyalen_area = {
 				type = all
				owned_by = ROOT 
			}
		}

		effect = {
			add_mil_power = 100
			add_prestige = 30
			define_advisor = {
				type = inquisitor
				skill = 1
				culture = sun_elf
				religion = ROOT
				female = yes
				discount = yes
			}
		}
	}
	F26_resettle_the_valleys = {
		icon = prosper_in_piedmont
		required_missions = {
			F26_march_to_the_lake
		}
		position = 4
		provinces_to_highlight = {} 

		trigger = {
			manpower = 15
			treasury = 300
		}

		effect = {
			add_manpower = -5
			add_treasury = -100
			every_owned_province = {
				limit = { culture = firanyan_harpy }
				add_human_minority_size_effect = yes
			}
			country_event = { id = flavour_gelkalis.20 } #number to change once events are done
		}
	}
	F26_sheppards_and_harpies = {
		icon = mission_harpy_diplomats
		required_missions = {
			F26_resettle_the_valleys
			F26_fortify_the_pass
			F26_the_allforgiving_light
		}
		position = 5
		provinces_to_highlight = {
			culture = firanyan_harpy
			unrest = 1
			owned_by = ROOT
		} 

		trigger = {
			if = {
				limit = { ai = no }
				custom_trigger_tooltip = {
					tooltip = gelkalis_sheppards_and_harpies_2_tooltip
					all_owned_province = {
						OR = {
							NOT = { culture = firanyan_harpy }
							NOT = { unrest = 1 }
						}	
					}
				}
				employed_advisor = {
					culture = firanyan_harpy
				}
			}
			custom_trigger_tooltip = {
				tooltip = gelkalis_sheppards_and_harpies_tooltip
				has_country_flag = gelkalis_won_civil_war
			}
		}

		effect = {
			remove_country_modifier = gelkalis_military_occupation
			every_owned_province = {
				limit = { has_province_modifier = gelkalis_disrupted_eco }
				remove_province_modifier = gelkalis_disrupted_eco
			}
			add_country_modifier = {
				name = gelkalis_pastoral_love
				duration = 10950
			}
			gelkalis_core_zone = {
				add_harpy_minority_size_effect = yes
			}
		}
	}
	F26_terror_from_the_sky = {
		icon = mission_head_on_spike
		required_missions = {
			F26_sheppards_and_harpies
			F26_organize_the_militias
		}
		position = 6
		provinces_to_highlight = {
			OR = {
				AND = {
					owned_by = ROOT
					culture = firanyan_harpy
					OR = {
						NOT = { base_manpower = 6 }
						NOT = { has_manpower_building_trigger = yes }
					}
				}
				AND = {
					province_group = gelkalis_core_zone
					NOT = { owned_by = ROOT }
				}
			}
		} 

		trigger = {
			gelkalis_core_zone = {
 				type = all
				owned_by = ROOT 
			}
			num_of_owned_provinces_with = {
				value = 5
				culture = firanyan_harpy
				has_manpower_building_trigger = yes
				base_manpower = 6
			}
			if = {
				limit = { ai = no }
				if = {
					limit = { has_dlc = "Cradle of Civilization" }
					army_professionalism = 0.15
				}
				else = {
					army_tradition = 30
				}
			}
		}

		effect = {
			gelkalis_core_zone = {
				remove_province_modifier = gelkalis_unconquerable_land_1
				add_permanent_province_modifier = {
					name = gelkalis_unconquerable_land_2
					duration = -1
				}
			}
		}
	}
	F26_westward_wall = {
		icon = fortress_of_belgrade
		required_missions = {
			F26_terror_from_the_sky
			F26_fortify_the_hills
		}
		position = 7
		provinces_to_highlight = {
			OR = {
				province_id = 650
				province_id = 651
			}
			OR = {
				NOT = { owned_by = ROOT }
				NOT = { has_fort_building_trigger = yes }
				NOT = { has_manpower_building_trigger = yes }
			}
		} 

		trigger = {
			650 = { #azkasad
				owned_by = ROOT 
				has_fort_building_trigger = yes
				has_manpower_building_trigger = yes
			}
			651 = { #kuzak
				owned_by = ROOT 
				has_fort_building_trigger = yes
				has_manpower_building_trigger = yes
			}
		}

		effect = {
			650 = { gelkalis_build_cliff_citadel = yes }
			651 = { gelkalis_build_cliff_citadel = yes }
		}
	}
	F26_enchanted_bridges = {
		icon = mission_defeat_jaunpur
		required_missions = {
			F26_westward_wall
		}
		position = 8
		provinces_to_highlight = {
			province_group = gelkalis_core_zone
			NOT = { owned_by = ROOT }
		} 

		trigger = {
			gelkalis_core_zone = {
 				type = all
				owned_by = ROOT 
			}
			if = {
				limit = { ai = no }
				estate_loyalty = {
					estate = estate_mages
					loyalty = 55
				}
			}
			treasury = 2000
			mil_power = 100
		}

		effect = {
			add_treasury = -2000
			add_mil_power = -100
			gelkalis_core_zone = {
				add_permanent_province_modifier = {
					name = gelkalis_enchanted_bridges
					duration = -1
				}
			}
		}
	}
	F26_shield_the_haven = {
		icon = renaissance_city
		required_missions = {
			F26_shield_over_the_plains
		}
		position = 9
		provinces_to_highlight = {
			OR = {
				AND = {
					area = zagnabad_area
					NOT = { owned_by = ROOT }
				}
				AND = {
					OR = {
						province_id = 530
						province_id = 534
						province_id = 539
						province_id = 544
					}
					OR = {
						NOT = { has_fort_building_trigger = yes }
						NOT = { owned_by = ROOT }
					}
				}
			}
		} 

		trigger = {
			zagnabad_area = {
 				type = all
				owned_by = ROOT 
			}
			530 = { #vernat
				owned_by = ROOT 
				has_fort_building_trigger = yes
			}
			534 = { #bazibar
				owned_by = ROOT 
				has_fort_building_trigger = yes
			}
			539 = { #quasnabor
				owned_by = ROOT 
				has_fort_building_trigger = yes
			}
			544 = { #jesdbar
				owned_by = ROOT 
				has_fort_building_trigger = yes
			}
		}

		effect = {
			530 = { gelkalis_build_cliff_citadel = yes }
			534 = { gelkalis_build_cliff_citadel = yes }
			539 = { gelkalis_build_cliff_citadel = yes }
			544 = { gelkalis_build_cliff_citadel = yes }
			bahar_region = {
				add_permanent_claim = ROOT
			}
		}
	}
	F26_unconquerable_people = {
		icon = army_reforms
		required_missions = {
			F26_the_great_wall
			F26_into_the_mountain
		}
		position = 10
		provinces_to_highlight = {} 

		trigger = {
			if = {
				limit = { ai = no }
				army_size = 120
				advisor = commandant
			}
			num_of_owned_provinces_with = {
				value = 20
				has_fort_building_trigger = yes
			}
			num_of_owned_provinces_with = {
				value = 15
				has_building = training_fields
			}
		}

		effect = {
			add_country_modifier = {
				name = gelkalis_unconquerable_people
				duration = -1
			}
			bulwar_proper_region = {
				add_permanent_claim = ROOT
			}
			define_advisor = {
				type = army_organiser
				skill = 3
				culture = gelkar
				religion = ROOT
				discount = yes
			}
		}
	}
	F26_eternal_peace = {
		icon = mission_green_village
		required_missions = {
			F26_unconquerable_people
		}
		position = 11
		provinces_to_highlight = {
			region = harpy_hills_region
			OR = {
				NOT = { owned_by = ROOT }
				AND = { 
					has_dlc = "Mandate of Heaven"
					NOT = { is_prosperous = yes }
				}
				AND = { 
					NOT = { has_dlc = "Mandate of Heaven" }
					devastation = 1
				}
			}
		} 

		trigger = {
			if = {
				limit = { ai = no }
				harpy_hills_region = {
 					type = all
					owned_by = ROOT
					if = {
						limit = { has_dlc = "Mandate of Heaven" }
						custom_trigger_tooltip = {
    							tooltip = is_prosperous_tt
   							is_prosperous = yes
						}
					}
					else = {
						NOT = { devastation = 1 }
					}
				}
			}
			development_in_provinces = {
    				region = harpy_hills_region
    				value = 400
			}
		}

		effect = {
			add_country_modifier = {
				name = gelkalis_eternal_peace
				duration = -1
			}
		}
	}
}
gelkalis_5 = {
	slot = 5
	generic = no
	ai = yes
	has_country_shield = yes
	potential = {
		OR = {
			tag = F26
			and = {
				tag = F52
				was_tag = F26
			}
		}
	} 
	F26_the_allforgiving_light = {
		icon = mission_hands_praying
		required_missions = {
			F26_march_to_the_lake
		}
		position = 4
		provinces_to_highlight = {
			owned_by = ROOT
			culture = firanyan_harpy
			NOT = { has_owner_religion = yes }
		} 

		trigger = {
			custom_trigger_tooltip = {
				tooltip = gelkalis_the_allforgiving_light_tooltip
				all_owned_province = {
					OR = {
						NOT = { culture = firanyan_harpy }
						has_owner_religion = yes
					}
				}
			}
			if = {
				limit = { ai = no }
				accepted_culture = firanyan_harpy
			}
		}

		effect = {
			add_stability = 2
			large_increase_of_harpy_tolerance_effect = yes
			define_advisor = {
				type = army_organiser
				skill = 1
				culture = firanyan_harpy
				religion = ROOT
				female = yes
				discount = yes
			}
		}
	}
	F26_fortify_the_hills = {
		icon = alpine_fortifications
		required_missions = {
			F26_sheppards_and_harpies
		}
		position = 6
		provinces_to_highlight = {
			OR = {
				province_id = 676
				province_id = 674
				province_id = 672
			}
			OR = {
				NOT = { has_fort_building_trigger = yes }
				NOT = { owned_by = ROOT }
			}
		} 

		trigger = {
			676 = {
				owned_by = ROOT 
				has_fort_building_trigger = yes
			}
			674 = {
				owned_by = ROOT 
				has_fort_building_trigger = yes
			}
			672 = {
				owned_by = ROOT 
				has_fort_building_trigger = yes
			}
		}

		effect = {
			676 = { gelkalis_build_cliff_citadel = yes }
			674 = { gelkalis_build_cliff_citadel = yes }
			672 = { gelkalis_build_cliff_citadel = yes }
		}
	}
	F26_eye_of_an_eagle = {
		icon = encroach_on_the_germans
		required_missions = {
			F26_fortify_the_hills
			F26_terror_from_the_sky
		}
		position = 7
		provinces_to_highlight = {
			OR = {
				AND = {
					owned_by = ROOT
					has_elven_minority_trigger = yes
					NOT = {
						AND = {
							has_manpower_building_trigger = yes
							base_manpower = 7
						}
					}
					NOT = {
						ROOT = {
							num_of_owned_provinces_with = {
								value = 3
								has_elven_minority_trigger = yes
								has_manpower_building_trigger = yes
								base_manpower = 7
							}
						}
					}
				}
				AND = {
					province_id = 551
					OR = {
						NOT = { owned_by = ROOT }
						NOT = { has_fort_building_trigger = yes }
						NOT = { has_manpower_building_trigger = yes }
						NOT = { base_manpower = 7 }
					}
				}
				AND = {
					province_group = gelkalis_core_zone
					NOT = { owned_by = ROOT }
				}
			}
		} 

		trigger = {
			gelkalis_core_zone = {
 				type = all
				owned_by = ROOT 
			}
			num_of_owned_provinces_with = {
				value = 3
				has_elven_minority_trigger = yes
				has_manpower_building_trigger = yes
				base_manpower = 7
			}
			551 = {
				owned_by = ROOT
				has_fort_building_trigger = yes
				has_manpower_building_trigger = yes
				base_manpower = 7
			}
		}

		effect = {
			551 = { gelkalis_build_cliff_citadel = yes }
			gelkalis_core_zone = {
				remove_province_modifier = gelkalis_unconquerable_land_2
				add_permanent_province_modifier = {
					name = gelkalis_unconquerable_land_3
					duration = -1
				}
			}
		}
	}
	F26_roar_of_the_mountains = {
		icon = la_marseillaise
		required_missions = {
			F26_eye_of_an_eagle
		}
		position = 8
		provinces_to_highlight = {
			OR = {
				AND = {
					province_id = 660
					NOT = { has_fort_building_trigger = yes }
				}
				AND = {
					province_group = gelkalis_core_zone
					NOT = { owned_by = ROOT }
				}
			}
		} 

		trigger = {
			gelkalis_core_zone = {
 				type = all
				owned_by = ROOT 
			}
			if = {
				limit = { ai = no }
				manpower = 70
				if = {
					limit = { has_dlc = "Cradle of Civilization" }
					army_professionalism = 0.3
				}
				else = {
					army_tradition = 50
				}
			}
			660 = {
				has_fort_building_trigger = yes
			}
		}

		effect = {
			660 = { gelkalis_build_cliff_citadel = yes }
			gelkalis_core_zone = {
				remove_province_modifier = gelkalis_unconquerable_land_3
				add_permanent_province_modifier = {
					name = gelkalis_unconquerable_land_4
					duration = -1
				}
			}
		}
	}
	F26_the_great_wall = {
		icon = mission_horse_siege
		required_missions = {
			F26_roar_of_the_mountains
			F26_enchanted_bridges
		}
		position = 9
		provinces_to_highlight = {
			OR = {
				has_province_modifier = gelkalis_cliff_citadel_1
				has_province_modifier = gelkalis_cliff_citadel_2
				has_province_modifier = gelkalis_cliff_citadel_3
			}
			owned_by = ROOT
			NOT = { has_building = fort_18th }
			NOT = { has_building = fort_17th }
			NOT = { has_building = fort_16th }
		} 

		trigger = {
			harpy_hills_region = {
 				type = all
				owned_by = ROOT 
			}
			custom_trigger_tooltip = {
				tooltip = gelkalis_the_great_wall_tooltip
				all_owned_province = {
					OR = {
						AND = { 
							NOT = { has_province_modifier = gelkalis_cliff_citadel_1 }
							NOT = { has_province_modifier = gelkalis_cliff_citadel_2 }
							NOT = { has_province_modifier = gelkalis_cliff_citadel_3 }
						}
						has_building = fort_16th
						has_building = fort_17th
						has_building = fort_18th

					}
				}
			}
		}
		effect = {
			harpy_hills_region = {
				add_permanent_province_modifier = {
					name = gelkalis_unconquerable_land_4
					duration = -1
				}
			}
		}
	}
}