
F27_gelkalis = {
	slot = 1
	generic = no
	ai = yes
	potential = {
		tag = F27
	}
	has_country_shield = yes
	
	F27_protect_mountains = {
		icon = mission_fortify_rajputana
		required_missions = { }
		position = 1
		
		provinces_to_highlight = {
			province_id = 660
			OR = {
				NOT = { owned_by = ROOT }
				NOT = { is_core = ROOT }
			}
		}
		
		trigger = {
			mil_power = 20
			owns_core_province = 660
		}
		
		effect = {
			660 = { 
				add_building_construction = {
					building = fort_15th 
					speed = 2.0
					cost = 0
				}
			}
			add_mil_power = -20
		}
	}
	
	F27_human_invest = {
		icon = mission_early_game_buildings
		required_missions = { F27_protect_mountains }
		position = 2
		
		provinces_to_highlight = {
			culture = gelkar
			owned_by = ROOT
		}
		
		trigger = {
			development_in_provinces = {
				value = 20
				culture = gelkar
			}
		}
		
		effect = {
			add_accepted_culture = gelkar
		}
	}
	
	F27_heunthume_castle = {
		icon = mission_japanese_fort
		required_missions = { F27_human_invest }
		position = 3
		
		provinces_to_highlight = {
			province_id = 660
			NOT = { has_fort_building_trigger = yes }
		}
		
		trigger = {
			660 = { has_fort_building_trigger = yes }
		}
		
		effect = {
			traz_buranun_area = {
				limit = {
					NOT = { is_core = ROOT }
					NOT = { owned_by = ROOT }
				}
				add_permanent_claim = ROOT
			}
			north_naza_area = {
				limit = {
					NOT = { is_core = ROOT }
					NOT = { owned_by = ROOT }
				}
				add_permanent_claim = ROOT
			}
			kumarkand_area = {
				limit = {
					NOT = { is_core = ROOT }
					NOT = { owned_by = ROOT }
				}
				add_permanent_claim = ROOT
			}
			if = {
				limit = { 
					618 = {
						NOT = { is_core = ROOT }
						NOT = { owned_by = ROOT }
					}
				}
				618 = {
					add_permanent_claim = ROOT
				}
			}
		}
	}	
	
	F27_gelkalis_abduction = {
		icon = mission_conquer_tver
		required_missions = { F27_heunthume_castle }
		position = 4
		
		trigger = {
			has_regency = no
			OR = {
				F26 = {
					overlord = {
						ROOT = {
							has_spy_network_in = {
								who = PREV
								value = 60
							}
						}
					}
				}
				has_spy_network_in = {
					who = F26
					value = 60
				}
				NOT = { exists = F26 }
			}
		}
		
		effect = {
			if = {
				limit = { exists = F26 }
				add_casus_belli = {
					type = cb_vassalize_mission
					months = 300
					target = F26
				}
				add_spy_network_in = {
					who = F26
					value = -60
				}
				F26 = {
					overlord = {
						ROOT = {
							add_spy_network_in = {
								who = PREV
								value = -60
							}
						}
					}
				}
				# define_consort = {
				# 	country_of_origin = F26
				# 	religion = bulwari_sun_cult
				# 	culture = gelkar
				# 	dynasty = "szel-Gelkalis"
				# 	male = yes
				# }
				#F26 = {
				#	kill_heir
				#}
			}
			if = {
				limit = { NOT = { exists = F26 } }
				lawassar_area = {
					limit = {
						NOT = { is_core = ROOT }
						NOT = { owned_by = ROOT }
					}
					add_permanent_claim = ROOT
				}
				gelkalis_area = {
					limit = {
						NOT = { is_core = ROOT }
						NOT = { owned_by = ROOT }
					}
					add_permanent_claim = ROOT
				}
			}
		}
	}
	
	F27_the_goatmen = {
		icon = mission_alliances
		required_missions = { F27_gelkalis_abduction }
		position = 5
		
		provinces_to_highlight = {
			OR = {
				area = gelkalis_area
				area = lawassar_area
			}
			NOT = { country_or_non_sovereign_subject_holds = ROOT }
			NOT = { F26 = { vassal_of = ROOT } }
		}
		
		trigger = {
			OR = {
				F26 = { vassal_of = ROOT }
				AND = {
					gelkalis_area = {
						type = all
						country_or_non_sovereign_subject_holds = ROOT
					}
					lawassar_area = {
						type = all
						country_or_non_sovereign_subject_holds = ROOT
					}
				}
			}
		}
		
		effect = {
			if = {
				limit = { F26 = { vassal_of = ROOT } }
				remove_historical_rival = F26
				create_march = F26
				F26 = {
					add_liberty_desire = -30
					remove_historical_rival = F27
				}
			}
			imuluses_area = {
				limit = {
					NOT = { is_core = ROOT }
					NOT = { owned_by = ROOT }
				}
				add_permanent_claim = ROOT
			}
			kuz_mountains_area = {
				limit = {
					NOT = { is_core = ROOT }
					NOT = { owned_by = ROOT }
				}
				add_permanent_claim = ROOT
			}
			birsartenslib_area = {
				limit = {
					NOT = { is_core = ROOT }
					NOT = { owned_by = ROOT }
				}
				add_permanent_claim = ROOT
			}
		}
	}
	
	F27_harpy_hills_dominance = {
		icon = mission_unite_home_region
		required_missions = { F27_the_goatmen }
		position = 6
		
		provinces_to_highlight = {
			region = harpy_hills_region
			NOT = { country_or_non_sovereign_subject_holds = ROOT }
		}
		
		trigger = {
			harpy_hills_region = {
				type = all
				country_or_non_sovereign_subject_holds = ROOT
			}
		}
		
		effect = {
			harpy_hills_region = {
				add_base_manpower = 1
			}
			add_prestige = 25
		}
	}
	
	F27_replace_gnolls_with_harpies = {
		icon = mission_rb_take_gibraltar
		required_missions = { F27_take_humans_from_the_gnolls }
		position = 7
		
		provinces_to_highlight = {
			OR = {
				province_id = 691
				area = grixekyr_area
				area = garpix_tluukt_area
				area = jixobix_area
			}
			NOT = { country_or_non_sovereign_subject_holds = ROOT }
		}
		
		trigger = {
			jixobix_area = {
				type = all
				country_or_non_sovereign_subject_holds = ROOT
			}
			grixekyr_area = {
				type = all
				country_or_non_sovereign_subject_holds = ROOT
			}
			garpix_tluukt_area = {
				type = all
				country_or_non_sovereign_subject_holds = ROOT
			}
			691 = {
				country_or_non_sovereign_subject_holds = ROOT
			}
		}
		
		effect = {
			jixobix_area = {
				change_culture = firanyan_harpy
				change_religion = ROOT
			}
			grixekyr_area = {
				change_culture = firanyan_harpy
				change_religion = ROOT
			}
			garpix_tluukt_area = {
				change_culture = firanyan_harpy
				change_religion = ROOT
			}
			591 = {
				change_culture = firanyan_harpy
				change_religion = ROOT
			}
		}
	}
}

F27_southern_expansion = {
	slot = 2
	generic = no
	ai = yes
	potential = {
		tag = F27
	}
	has_country_shield = yes
	
	F27_a_new_hunt = {
		icon = mission_alone_in_the_forest
		required_missions = { }
		position = 1
		
		provinces_to_highlight = {
			OR = {
				area = arsydpydru_area
				area = ghul_area
			}
			NOT = { country_or_non_sovereign_subject_holds = ROOT }
			has_discovered = ROOT
		}
		
		trigger = {
			arsydpydru_area = {
				type = all
				country_or_non_sovereign_subject_holds = ROOT
			}
			ghul_area = {
				type = all
				country_or_non_sovereign_subject_holds = ROOT
			}
		}
		
		effect = {
			if = {
				limit = { 
					3063 = {
						NOT = { is_core = ROOT }
						NOT = { owned_by = ROOT }
					}
				}
				3063 = {
					add_permanent_claim = ROOT
				}
			}
			
			if = {
				limit = { 
					3049 = {
						NOT = { is_core = ROOT }
						NOT = { owned_by = ROOT }
					}
				}
				3049 = {
					add_permanent_claim = ROOT
				}
			}
		}
	}
	
	F27_verdant_links = {
		icon = mission_forest_shrine
		required_missions = { F27_a_new_hunt }
		position = 2
		
		provinces_to_highlight = {
			OR = {
				province_id = 3063
				province_id = 3049
			}
			NOT = { country_or_non_sovereign_subject_holds = ROOT }
			has_discovered = ROOT
		}
		
		trigger = {
			owns_or_non_sovereign_subject_of = 3063
			owns_or_non_sovereign_subject_of = 3049
		}
		
		effect = {
			prehnryn_area = {
				limit = {
					NOT = { is_core = ROOT }
					NOT = { owned_by = ROOT }
				}
				add_permanent_claim = ROOT
			}
			clirypriah_area = {
				limit = {
					NOT = { is_core = ROOT }
					NOT = { owned_by = ROOT }
				}
				add_permanent_claim = ROOT
			}
		}
	}
	
	F27_deepwoods_roost = {
		icon = mission_rb_conquer_wales
		required_missions = { F27_verdant_links }
		position = 3
		
		provinces_to_highlight = {
			OR = {
				province_id = 3018
				province_id = 3020
				province_id = 3021
				province_id = 3019
				province_id = 3022
			}
			NOT = { country_or_non_sovereign_subject_holds = ROOT }
			has_discovered = ROOT
		}
		
		trigger = {
			owns_or_non_sovereign_subject_of = 3018
			owns_or_non_sovereign_subject_of = 3020
			owns_or_non_sovereign_subject_of = 3021
			owns_or_non_sovereign_subject_of = 3019
			owns_or_non_sovereign_subject_of = 3022
		}
		
		effect = {
			3020 = {
				change_culture = firanyan_harpy
				change_religion = ROOT
				add_province_triggered_modifier = harpy_roost
				add_province_modifier = {
					name = harpy_roost_under_construction
					duration = 365
				}
			}
		}
	}
	
	F27_steal_varamhars_vassals = {
		icon = mission_persian_soldiers
		required_missions = { F27_heunthume_castle }
		position = 4
		
		provinces_to_highlight = {
			OR = {
				province_id = 618
				area = north_naza_area
				area = kumarkand_area
				area = traz_buranun_area
			}
			NOT = {
				country_or_non_sovereign_subject_holds = ROOT
			}
		}
		
		trigger = {
			618 = {
				country_or_non_sovereign_subject_holds = ROOT
			}
			north_naza_area = {
				type = all
				country_or_non_sovereign_subject_holds = ROOT
			}
			kumarkand_area = {
				type = all
				country_or_non_sovereign_subject_holds = ROOT
			}
			traz_buranun_area = {
				type = all
				country_or_non_sovereign_subject_holds = ROOT
			}
		}
		
		effect = {
			east_naza_area = {
				limit = {
					NOT = { is_core = ROOT }
					NOT = { owned_by = ROOT }
				}
				add_permanent_claim = ROOT
			}
			south_naza_area = {
				limit = {
					NOT = { is_core = ROOT }
					NOT = { owned_by = ROOT }
				}
				add_permanent_claim = ROOT
			}
			avamezan_area = {
				limit = {
					NOT = { is_core = ROOT }
					NOT = { owned_by = ROOT }
				}
				add_permanent_claim = ROOT
			}
			sareyand_area = {
				limit = {
					NOT = { is_core = ROOT }
					NOT = { owned_by = ROOT }
				}
				add_permanent_claim = ROOT
			}	
			
			if = {
				limit = { 
					611 = {
						NOT = { is_core = ROOT }
						NOT = { owned_by = ROOT }
					}
				}
				611 = {
					add_permanent_claim = ROOT
				}
			}
			
			if = {
				limit = { 
					604 = {
						NOT = { is_core = ROOT }
						NOT = { owned_by = ROOT }
					}
				}
				604 = {
					add_permanent_claim = ROOT
				}
			}
		}
	}
	
	F27_destroy_sareyand = {
		icon = mission_burning_separation
		required_missions = { F27_steal_varamhars_vassals }
		position = 5
		
		provinces_to_highlight = {
			OR = {
				area = south_naza_area
				area = east_naza_area
				area = traz_buranun_area
				area = avamezan_area
				area = sareyand_area
			}
			NOT = {
				country_or_non_sovereign_subject_holds = ROOT
			}
		}
		
		trigger = {
			south_naza_area = {
				type = all
				country_or_non_sovereign_subject_holds = ROOT
			}
			traz_buranun_area = {
				type = all
				country_or_non_sovereign_subject_holds = ROOT
			}
			east_naza_area = {
				type = all
				country_or_non_sovereign_subject_holds = ROOT
			}
			avamezan_area = {
				type = all
				country_or_non_sovereign_subject_holds = ROOT
			}
			sareyand_area = {
				type = all
				country_or_non_sovereign_subject_holds = ROOT
			}
		}
		
		effect = {
			add_casus_belli = {
				type = cb_vassalize_mission
				months = 300
				target = F39
			}
			add_casus_belli = {
				type = cb_vassalize_mission
				months = 300
				target = F36
			}
			add_casus_belli = {
				type = cb_vassalize_mission
				months = 300
				target = F31
			}
			bulwar_area = {
				limit = {
					NOT = { is_core = ROOT }
					NOT = { owned_by = ROOT }
				}
				add_permanent_claim = ROOT
			}
			harklum_area = {
				limit = {
					NOT = { is_core = ROOT }
					NOT = { owned_by = ROOT }
				}
				add_permanent_claim = ROOT
			}
			eduz_vacyn_area = {
				limit = {
					NOT = { is_core = ROOT }
					NOT = { owned_by = ROOT }
				}
				add_permanent_claim = ROOT
			}
			if = {
				limit = { 
					635 = {
						NOT = { is_core = ROOT }
						NOT = { owned_by = ROOT }
					}
				}
				635 = {
					add_permanent_claim = ROOT
				}
			}
		}
	}
	
	F27_take_humans_from_the_gnolls = {
		icon = mission_desert_city
		required_missions = { F27_destroy_sareyand }
		position = 6
		
		provinces_to_highlight = {
			OR = {
				province_id = 601
				province_id = 602
				area = harklum_area
				area = eduz_vacyn_area
			}
			NOT = {
				country_or_non_sovereign_subject_holds = ROOT
			}
		}
		
		trigger = {
			NOT = {
				F31 = {
					is_subject_of_type = tributary_state_anb
				}
			}
			NOT = {
				F36 = {
					is_subject_of_type = tributary_state_anb
				}
			}
			NOT = {
				F39 = {
					is_subject_of_type = tributary_state_anb
				}
			}
			eduz_vacyn_area = {
				type = all
				country_or_non_sovereign_subject_holds = ROOT
			}
			harklum_area = {
				type = all
				country_or_non_sovereign_subject_holds = ROOT
			}
			601 = {
				country_or_non_sovereign_subject_holds = ROOT
			}
			602 = {
				country_or_non_sovereign_subject_holds = ROOT
			}
		}
		
		effect = {
			add_country_modifier = {
				name = "obedient_subjects"
				duration = 9125 #25 years
			}
			upper_suran_area = {
				limit = {
					NOT = { is_core = ROOT }
					NOT = { owned_by = ROOT }
				}
				add_permanent_claim = ROOT
			}
			panuses_area = {
				limit = {
					NOT = { is_core = ROOT }
					NOT = { owned_by = ROOT }
				}
				add_permanent_claim = ROOT
			}
			grixek_area = {
				limit = {
					NOT = { is_core = ROOT }
					NOT = { owned_by = ROOT }
				}
				add_permanent_claim = ROOT
			}
			jikarzax_area = {
				limit = {
					NOT = { is_core = ROOT }
					NOT = { owned_by = ROOT }
				}
				add_permanent_claim = ROOT
			}
			jixobix_area = {
				limit = {
					NOT = { is_core = ROOT }
					NOT = { owned_by = ROOT }
				}
				add_permanent_claim = ROOT
			}
			garpix_tluukt_area = {
				limit = {
					NOT = { is_core = ROOT }
					NOT = { owned_by = ROOT }
				}
				add_permanent_claim = ROOT
			}
			grixekyr_area = {
				limit = {
					NOT = { is_core = ROOT }
					NOT = { owned_by = ROOT }
				}
				add_permanent_claim = ROOT
			}
			xhurgrum_area = {
				limit = {
					NOT = { is_core = ROOT }
					NOT = { owned_by = ROOT }
				}
				add_permanent_claim = ROOT
			}
		}
	}
	
	F27_siadunan_harpy_meeting = {
		icon = mission_monarch_diplomacy
		required_missions = { F27_take_humans_from_the_gnolls }
		position = 7
		
		provinces_to_highlight = {
			OR = {
				area = upper_suran_area
				area = panuses_area
				area = jikarzax_area
				area = grixek_area
			}
			NOT = {
				country_or_non_sovereign_subject_holds = ROOT
			}
		}
		
		trigger = {
			upper_suran_area = {
				type = all
				country_or_non_sovereign_subject_holds = ROOT
			}
			panuses_area = {
				type = all
				country_or_non_sovereign_subject_holds = ROOT
			}
			grixek_area = {
				type = all
				country_or_non_sovereign_subject_holds = ROOT
			}
			jikarzax_area = {
				type = all
				country_or_non_sovereign_subject_holds = ROOT
			}
		}   
		
		effect = {
			vassalize = F48
			vassalize = F50
			vassalize = F49
			custom_tooltip = ayarallen_siadunan_claims_tooltip
			africa = {
				limit = {
					NOT = { is_core = ROOT }
					NOT = { owned_by = ROOT }
					culture = siadunan_harpy
				}
				add_permanent_claim = ROOT
			}
		}
	}
	
	F27_true_matriarchs_call = {
		icon = mission_female_throne
		required_missions = { F27_siadunan_harpy_meeting }
		position = 8
		
		provinces_to_highlight = {
			OR = {
				culture = firanyan_harpy
				culture = siadunan_harpy
			}
			NOT = {
				country_or_non_sovereign_subject_holds = ROOT
			}
		}
		
		trigger = {
			owns_all_provinces = {
				OR = {
					culture = firanyan_harpy
					culture = siadunan_harpy
				}
			}
		}   
		
		effect = {
			add_country_modifier = {
				name = "matriarchs_call"
				duration = -1
			}
			custom_tooltip = ayarallen_claims_on_all_harpies_tooltip
			every_province = {
				limit = {
					NOT = { is_core = ROOT }
					NOT = { owned_by = ROOT }
					culture_group = harpy
				}
				add_permanent_claim = ROOT
			}
		}
	}
}

F27_tech_and_reform = {
	slot = 3
	generic = no
	ai = yes
	potential = {
		tag = F27
	}
	has_country_shield = yes
	
	F27_prepare_the_flocks = {
		icon = mission_build_up_to_force_limit
		required_missions = { }
		position = 1
		
		trigger = {
			army_size_percentage = 0.9
		}
		
		effect = {
			kuzak_area = {
				limit = {
					NOT = { is_core = ROOT }
					NOT = { owned_by = ROOT }
				}
				add_permanent_claim = ROOT
			}
			ur_monkande_area = {
				limit = {
					NOT = { is_core = ROOT }
					NOT = { owned_by = ROOT }
				}
				add_permanent_claim = ROOT
			}
			bahar_szel_uak_area = {
				limit = {
					NOT = { is_core = ROOT }
					NOT = { owned_by = ROOT }
				}
				add_permanent_claim = ROOT
			}
		}
	}
	
	F27_attack_dartaxagerdim = {
		icon = mission_pf_soldier
		required_missions = { F27_prepare_the_flocks }
		position = 2
		
		provinces_to_highlight = {
			OR = {
				province_id = 658
				province_id = 657
				province_id = 651
				province_id = 545
				province_id = 550
				province_id = 547
			}
			NOT = {
				country_or_non_sovereign_subject_holds = ROOT
			}
		}
		
		trigger = {
			658 = {
				country_or_non_sovereign_subject_holds = ROOT
			}
			657 = {
				country_or_non_sovereign_subject_holds = ROOT
			}
			651 = {
				country_or_non_sovereign_subject_holds = ROOT
			}
			545 = {
				country_or_non_sovereign_subject_holds = ROOT
			}
			550 = {
				country_or_non_sovereign_subject_holds = ROOT
			}
			547 = {
				country_or_non_sovereign_subject_holds = ROOT
			}
		}
		
		effect = {
			add_country_modifier = {
				name = ayarallen_institution_spread
				duration = 7300
			}
		}
	}
	
	F27_the_odd_hunt_mission = {
		icon = mission_trade_in_gold_coast
		required_missions = { F27_attack_dartaxagerdim }
		position = 3
		
		trigger = {
			has_institution = feudalism
		}
		
		effect = {
			add_country_modifier = {
				name = ayarallen_tech_cost
				duration = 7300
			}
		}
	}
	
	F27_great_library_of_aqatbar = {
		icon = mission_early_modern_university
		required_missions = { F27_the_odd_hunt_mission F27_conquer_azka_evran }
		position = 4
		
		provinces_to_highlight = {
			province_id = 536
			OR = {
				NOT = { owned_by = ROOT }
				NOT = { is_core = ROOT }
			}
		}
		
		trigger = {
			has_institution = renaissance
			owns_core_province = 536
		}
		
		effect = {
			change_innovativeness = 10
			if = {
				limit = { NOT = { has_dlc = "Rule Britannia" } }
				add_adm_power = 100
				add_dip_power = 100
				add_mil_power = 100
			}
		}
	}
	
	F27_western_colonialism = {
		icon = mission_dominate_the_mediterranean
		required_missions = { F27_great_library_of_aqatbar F27_westernmost_bulwari }
		position = 6
		
		provinces_to_highlight = {
			province_id = 516
			OR = {
				NOT = { owned_by = ROOT }
				NOT = { is_core = ROOT }
			}
		}
		
		trigger = {
			has_institution = new_world_i
			owns_core_province = 516
		}
		
		effect = {
			add_adm_power = 50
			add_dip_power = 50
			add_mil_power = 50
		}
	}
	
	F27_reform_government = {
		icon = mission_rb_the_education_acts
		required_missions = { F27_western_colonialism }
		position = 7
		
		trigger = {
			NOT = {
				government = tribal
			}
		}
		
		effect = {
			add_country_modifier = {
				name = ayarallen_new_government
				duration = -1
			}
		}
	}
}

F27_western_conquest = {
	slot = 4
	generic = no
	ai = yes
	potential = {
		tag = F27
	}
	has_country_shield = yes
	
	F27_strike_the_goblins = {
		icon = mission_rb_unite_the_clans
		required_missions = { F27_prepare_the_flocks }
		position = 2
		
		provinces_to_highlight = {
			OR = {
				province_id = 649
				province_id = 652
				province_id = 654
			}
			NOT = {
				country_or_non_sovereign_subject_holds = ROOT
			}
		}
		
		trigger = {
			652 = {
				country_or_non_sovereign_subject_holds = ROOT
			}
			654= {
				country_or_non_sovereign_subject_holds = ROOT
			}
			649 = {
				country_or_non_sovereign_subject_holds = ROOT
			}
		}
		
		effect = {
			add_country_modifier = {
				name = ayarallen_manpower_recovery
				duration = 3650
			}
			azka_evran_area = {
				limit = {
					NOT = { is_core = ROOT }
					NOT = { owned_by = ROOT }
				}
				add_permanent_claim = ROOT
			}
		}
	}
	
	F27_conquer_azka_evran = {
		icon = mission_conquer_algiers
		required_missions = { F27_strike_the_goblins }
		position = 3
		
		provinces_to_highlight = {
			area = azka_evran_area
			NOT = {
				country_or_non_sovereign_subject_holds = ROOT
			}
		}
		
		trigger = {			
			azka_evran_area = {
				type = all
				country_or_non_sovereign_subject_holds = ROOT
			}
		} 
		
		effect = {
			aqatbahar_area = {
				limit = {
					NOT = { is_core = ROOT }
					NOT = { owned_by = ROOT }
				}
				add_permanent_claim = ROOT
			}
			fajabahar_area = {
				limit = {
					NOT = { is_core = ROOT }
					NOT = { owned_by = ROOT }
				}
				add_permanent_claim = ROOT
			}
			zagnabad_area = {
				limit = {
					NOT = { is_core = ROOT }
					NOT = { owned_by = ROOT }
				}
				add_permanent_claim = ROOT
			}
		}
	}
	
	F27_conquer_aqatbahar = {
		icon = mission_conquer_alexandria
		required_missions = { F27_conquer_azka_evran }
		position = 4
		
		provinces_to_highlight = {
			OR = {
				area = zagnabad_area
				area = aqatbahar_area
				area = fajabahar_area
			}
			NOT = {
				country_or_non_sovereign_subject_holds = ROOT
			}
		}
		
		trigger = {
			aqatbahar_area = {
				type = all
				country_or_non_sovereign_subject_holds = ROOT
			}
			zagnabad_area = {
				type = all
				country_or_non_sovereign_subject_holds = ROOT
			}
			fajabahar_area = {
				type = all
				country_or_non_sovereign_subject_holds = ROOT
			}
		}
		
		effect = {
			medbahar_area = {
				limit = {
					NOT = { is_core = ROOT }
					NOT = { owned_by = ROOT }
				}
				add_permanent_claim = ROOT
			}	
			reuyel_area = {
				limit = {
					NOT = { is_core = ROOT }
					NOT = { owned_by = ROOT }
				}
				add_permanent_claim = ROOT
			}
		}
	}
	
	F27_westernmost_bulwari = {
		icon = mission_into_persia_1
		required_missions = { F27_conquer_aqatbahar }
		position = 5
		
		provinces_to_highlight = {
			OR = {
				area = medbahar_area
				area = reuyel_area
			}
			NOT = {
				country_or_non_sovereign_subject_holds = ROOT
			}
		}
		
		trigger = {
			medbahar_area = {
				type = all
				country_or_non_sovereign_subject_holds = ROOT
			}
			reuyel_area = {
				type = all
				country_or_non_sovereign_subject_holds = ROOT
			}
		}
		
		effect = {
			add_country_modifier = {
				name = "army_enthusiasm"
				duration = 9125 #25 years
			}
			crathanor_area = {
				limit = {
					NOT = { is_core = ROOT }
					NOT = { owned_by = ROOT }
				}
				add_permanent_claim = ROOT
			}
		}
	}
	
	F27_strange_new_people = {
		icon = mission_invade_island
		required_missions = { F27_westernmost_bulwari }
		position = 6
		
		provinces_to_highlight = {
			area = crathanor_area
			NOT = {
				country_or_non_sovereign_subject_holds = ROOT
			}
		}
		
		trigger = {			
			crathanor_area = {
				type = all
				country_or_non_sovereign_subject_holds = ROOT
			}
		}
		
		effect = {
			add_country_modifier = {
				name = "naval_enthusiasm_mission"
				duration = 9125 #25 years
			}
		}
	}
}

F27_hermit_harpies = {
	slot = 5
	generic = no
	ai = yes
	potential = {
		tag = F27
	}
	has_country_shield = yes
	
	F27_defend_firanya_lake = {
		icon = mission_arabian_fort
		required_missions = { }
		position = 1
		
		provinces_to_highlight = {
			OR = {
				province_id = 676
				province_id = 672
			}
			OR = {
				NOT = { owned_by = ROOT }
				NOT = { has_fort_building_trigger = yes }
			}
		}
		
		trigger = {
			676 = {
				owned_by = ROOT
				has_fort_building_trigger = yes
			}
			672 = {
				owned_by = ROOT
				has_fort_building_trigger = yes
			}
		}
		
		effect = {
			676 = {
				add_permanent_province_modifier = {
					name = ayarallen_garrison_growth
					duration = -1
				}
			}
			672 = {
				add_permanent_province_modifier = {
					name = ayarallen_garrison_growth
					duration = -1
				}
			}
		}
	}
	
	F27_wall_off_the_pass = {
		icon = mission_great_wall
		required_missions = { F27_defend_firanya_lake }
		position = 2
		
		provinces_to_highlight = {
			province_id = 672
			OR = {
				NOT = { owned_by = ROOT }
				NOT = {
					has_building = fort_16th
					has_building = fort_17th
					has_building = fort_18th
					has_building = fort_magic
				}
			}
		}
		
		trigger = {
			672 = {
				owned_by = ROOT
				OR = {
					has_building = fort_16th
					has_building = fort_17th
					has_building = fort_18th
					has_building = fort_magic
				}
			}
		}	 
		
		effect = {
			672 = {
				add_permanent_province_modifier = {
					name = ayarallen_wall_defensiveness
					duration = -1
				}
			}
		}
	}
	
	F27_firanya_lake_forest_farms = {
		icon = mission_rice_field
		required_missions = { }
		position = 3
		
		provinces_to_highlight = {
			OR = {
				province_id = 675
				province_id = 677
			}
			OR = {
				NOT = { owned_by = ROOT }
				NOT = { has_production_building_trigger = yes }
			}
		}
		
		trigger = {
			treasury = 100
			675 = {
				owned_by = ROOT
				has_production_building_trigger = yes
			}
			677 = {
				owned_by = ROOT
				has_production_building_trigger = yes
			}
		}
		
		effect = {
			add_treasury = -100
			firanyalen_area = {
				add_province_modifier = {
					name = firanya_lake_farms
					duration = -1
				}
			}
		}
	}
	
	F27_build_up_firanyalen = {
		icon = mission_growth_of_surat
		required_missions = { F27_firanya_lake_forest_farms }
		position = 4
		
		provinces_to_highlight = {
			province_id = 676
			OR = {
				NOT = { owned_by = ROOT }
				NOT = { has_production_building_trigger = yes }
				NOT = { has_tax_building_trigger = yes }
				NOT = { development = 15 }
			}
		}
		
		trigger = {
			676 = {
				owned_by = ROOT
				has_production_building_trigger = yes	
				has_tax_building_trigger = yes
				development = 15
			}
		}
		
		effect = {
			676 = {
				add_permanent_province_modifier = {
					name = origin_of_the_harpies
					duration = -1
				}
				add_province_modifier = {
					name = "growth_of_capital"
					duration = 9125 #25 years
				}
			}
		}
	}
	
	F27_harpy_brothel = {
		icon = mission_ottoman_harem
		required_missions = { F27_build_up_firanyalen }
		position = 5
		
		provinces_to_highlight = {
			province_id = 672
			OR = {
				NOT = { owned_by = ROOT }
				NOT = { has_trade_building_trigger = yes }
			}
		}
		
		trigger = {
			672 = {
				owned_by = ROOT
				has_trade_building_trigger = yes
			}
			OR = {
				has_country_flag = semi_monstrous
				has_country_flag = no_longer_monstrous
				NOT = { has_country_modifier = monstrous_nation }
			}
		}
		
		effect = {
			custom_tooltip = ayarallen_reduced_monstrous_tooltip
			decrease_monstrous_10 = yes
			672 = { center_of_trade = 1 }
			every_neighbor_country = {
				add_opinion = {
					who = ROOT
					modifier = ayarallen_reduced_hunts
				}
			}
		}
	}
	
	F27_minority_collection = {
		icon = mission_ottoman_harem
		required_missions = { }
		position = 6
		
		provinces_to_highlight = {
			is_capital_of = ROOT
			OR = {
				NOT = { has_elven_minority_trigger = yes }
				NOT = { has_goblin_minority_trigger = yes }
				NOT = { has_human_minority_trigger = yes }
				NOT = { has_orcish_minority_trigger = yes }
			}
		}
		
		trigger = {
			capital_scope = {
				has_elven_minority_trigger = yes
				has_goblin_minority_trigger = yes
				has_human_minority_trigger = yes
				has_orcish_minority_trigger = yes
			}
		}
		
		effect = {
			add_country_modifier = {
				name = ayarallen_manpower_increase
				duration = -1
			}
			capital_scope = {
				add_base_tax = 2
				add_base_production = 2
				add_base_manpower = 2
				area = {
					limit = { owned_by = ROOT }
					add_province_modifier = {
						name = "growth_of_capital"
						duration = 9125 #25 years
					}
				}
			}
		}
	}
}
