
##############################################################
##   Do Not Change Shit if you don't know what you're doing ##
##      Things that might appears weird at a first glance   ##
##              are probably here for a reason.             ##
##                     Thanks, Hehodas                      ##
##############################################################

LAKE_1 = {
	slot = 1
	generic = no
	ai = yes
	has_country_shield = yes
	
	potential = {
		has_country_modifier = lake_federation_member
	}
	
	LAKE_develop_the_capital = {
		icon = mission_hanseatic_city
		
		position = 1
		
		trigger = {
			statesman = 2
			custom_trigger_tooltip = {
				tooltip = no_federation_crisis_tooltip
				NOT = { has_disaster = lake_federation_crisis }
			}
			adm_power = 50
			dip_power = 50
			mil_power = 50
			is_year = 1455
		}
		
		effect = {
			add_prestige = 10
			add_adm_power = -50
			add_dip_power = -50
			add_mil_power = -50
			capital_scope = {
				add_base_tax = 1
				add_base_manpower = 1
				add_base_production = 1
				add_next_institution_embracement = 25
			}
		}
	}
	
	LAKE_high_trade_income = {
		icon = mission_trade_company_region_abroad
		
		position = 2
		
		trigger = {
			trade_income_percentage = 0.4
			custom_trigger_tooltip = {
				tooltip = no_federation_crisis_tooltip
				NOT = { has_disaster = lake_federation_crisis }
			}
		}
		
		effect = {
			add_prestige = 5
			add_country_modifier = {
				name = lake_trade
				duration = 10950
			}
		}
	}
	
	LAKE_defend_our_capital = {
		icon = mission_magnificent_castle
		
		position = 3
		
		trigger = {
			mil_power = 50
			treasury = 100
			custom_trigger_tooltip = {
				tooltip = no_federation_crisis_tooltip
				NOT = { has_disaster = lake_federation_crisis }
			}
		}
		
		effect = {
			add_mil_power = -50
			if = {
				limit = { capital_scope = { fort_level = 2 } }
				capital_scope = { add_base_manpower = 3 }
			}
			else = {
				capital_scope = { 
					add_building_construction = {
						building = fort_15th
						speed = 0.5
						cost = 0.5
					}
				}
			}
			capital_scope = {
				add_permanent_province_modifier = {
					name = lake_capital_defenses
					duration = 18250
				}
			}
		}
	}
	
	LAKE_colony_on_the_continent = {
		icon = mission_invade_island
		
		position = 4
		
		trigger = {
			any_owned_province = {
				is_city = no
				superregion = forbidden_lands_superregion
			}
			custom_trigger_tooltip = {
				tooltip = no_federation_crisis_tooltip
				NOT = { has_disaster = lake_federation_crisis }
			}
		}
		
		effect = {
			random_owned_province = {
				limit = {
					is_city = no
					superregion = forbidden_lands_superregion
				}
				add_base_tax = 1
				add_base_manpower = 1
				add_base_production = 1
				add_province_modifier = {
					name = lake_colonial_center
					duration = 36500
				}
			}
		}
	}
	
	LAKE_same_head = {
		icon = establish_oktoberfest
		
		position = 7
		
		required_missions = {
			LAKE_one_island
		}
		
		trigger = {
			NOT = { has_country_modifier = lake_integration_effort }
			dip_power = 100
			if = {
				limit = { primary_culture = metsamic }
				any_known_country = {
					has_opinion = {
						who = ROOT
						value = 100
					}
					OR = {
						primary_culture = zabatlari
						primary_culture = khamgunai
					}
				}
			}
			else_if = {
				limit = { primary_culture = zabatlari }
				any_known_country = {
					has_opinion = {
						who = ROOT
						value = 100
					}
					OR = {
						primary_culture = metsamic
						primary_culture = khamgunai
					}
				}
			}
			else = {
				any_known_country = {
					has_opinion = {
						who = ROOT
						value = 100
					}
					OR = {
						primary_culture = zabatlari
						primary_culture = metsamic
					}
				}
			}
			custom_trigger_tooltip = {
				tooltip = no_federation_crisis_tooltip
				NOT = { has_disaster = lake_federation_crisis }
			}
		}
		
		effect = {
			add_dip_power = -100
			add_country_modifier = {
				name = lake_integration_effort
				duration = 1825
			}
		}
	}
	
	LAKE_accept_our_brethen = {
		icon = personal_diplomacy
		
		position = 8
		
		required_missions = {
			LAKE_same_head
		}
		
		trigger = {
			NOT = { has_country_modifier = lake_integration_effort }
			stability = 0
			dip_power = 50
			adm_power = 50
			custom_trigger_tooltip = {
				tooltip = no_federation_crisis_tooltip
				NOT = { has_disaster = lake_federation_crisis }
			}
		}
		
		effect = {
			add_adm_power = -50
			add_dip_power = -50
			add_prestige = 5
			if = {
				limit = { NOT = { accepted_culture = zabatlari } }
				add_accepted_culture = zabatlari
			}
			else_if = {
				limit = { NOT = { accepted_culture = metsamic } }
				add_accepted_culture = metsamic
			}
			else_if = {
				limit = { NOT = { accepted_culture = khamgunai } }
				add_accepted_culture = khamgunai
			}
			else = { add_stability_or_adm_power = yes }
		}
	}
	
	LAKE_open_our_cabinet = {
		icon = restore_the_hospitallers
		
		position = 9
		
		required_missions = {
			LAKE_accept_our_brethen
			LAKE_accept_our_brother
		}
		
		trigger = {
			accepted_culture = metsamic
			accepted_culture = khamgunai
			accepted_culture = zabatlari
			government = republic
			OR = {
				diplomatic_reputation = 1
				dip_power = 50
			}
			adm_power = 100
			treasury = 25
			if = {
				limit = { ai = no }
				NOT = { num_of_loans = 1 }
			}
			custom_trigger_tooltip = {
				tooltip = no_federation_crisis_tooltip
				NOT = { has_disaster = lake_federation_crisis }
			}
		}
		
		effect = {
			add_treasury = -25
			add_adm_power = -100
			if = {
				limit = { NOT = { diplomatic_reputation = 1 } }
				add_dip_power = -50
			}
			add_country_modifier = {
				name = lake_open_cabinet
				duration = -1
			}
		}
	}
	
	LAKE_ideas_melting_pot = {
		icon = medici_bank_ledgers
		
		position = 10
		
		required_missions = {
			LAKE_open_our_cabinet
		}
		
		trigger = {
			if = {
				limit = { has_global_flag = lake_ideas_melting_pot }
				custom_trigger_tooltip = {
					tooltip = federation_already_taken_tooltip
					always = yes
				}
			}
			else = {
				OR = {
					AND = {
						diplomatic_reputation = 2
						dip_power = 150
					}
					dip_power = 250
				}
				adm_power = 150
				custom_trigger_tooltip = {
					tooltip = no_federation_crisis_tooltip
					NOT = { has_disaster = lake_federation_crisis }
				}
			}
		}
		
		effect = {
			if = {
				limit = { has_global_flag = lake_ideas_melting_pot }
				custom_tooltip = federation_already_taken_tooltip
			}
			else = {
				add_prestige = 10
				add_adm_power = -150
				if = {
					limit = { diplomatic_reputation = 2 }
					add_dip_power = -150
				}
				else = {
					add_dip_power = -250
				}
				hidden_effect = { set_global_flag = lake_ideas_melting_pot }
				every_country = {
					limit = { has_country_modifier = lake_federation_member }
					country_event = { id = lake.44 }
					hidden_effect = { swap_non_generic_missions = yes }
				}
				lake_federation_gain_5_points = yes
			}
		}
	}
	
	LAKE_educate_the_masses = {
		icon = mission_develop_alhambra
		
		position = 12
		
		required_missions = {
			LAKE_law_and_order
		}
		
		trigger = {
			OR = {
				innovativeness = 15
				is_year = 1500
			}
			adm_power = 200
			custom_trigger_tooltip = {
				tooltip = no_federation_crisis_tooltip
				NOT = { has_disaster = lake_federation_crisis }
			}
		}
		
		effect = {
			add_adm_power = -200
			add_country_modifier = {
				name = lake_educate_the_masses
				duration = 1825
			}
		}
	}
	
	LAKE_linguistic_academy = {
		icon = mission_rb_college_of_justice
		
		position = 13
		
		required_missions = {
			LAKE_educate_the_masses
		}
		
		trigger = {
			if = {
				limit = { has_global_flag = lake_linguistic_academy }
				custom_trigger_tooltip = {
					tooltip = federation_already_taken_tooltip
					always = yes
				}
			}
			else = {
				adm_power = 250
				dip_power = 250
				NOT = { has_country_modifier = lake_educate_the_masses }
				custom_trigger_tooltip = {
					tooltip = no_federation_crisis_tooltip
					NOT = { has_disaster = lake_federation_crisis }
				}
			}
		}
		
		effect = {
			if = {
				limit = { has_global_flag = lake_linguistic_academy }
				custom_tooltip = federation_already_taken_tooltip
			}
			else = {
				add_prestige = 10
				add_adm_power = -250
				add_dip_power = -250
				hidden_effect = { set_global_flag = lake_linguistic_academy }
				every_country = {
					limit = { has_country_modifier = lake_federation_member }
					country_event = { id = lake.1 }
					hidden_effect = { swap_non_generic_missions = yes }
				}
				lake_federation_gain_5_points = yes
			}
		}
	}

	LAKE_mage_grey_1 = { #Gather public opinion

		position = 14
		icon = mission_lit_reform_magdeburg_laws

		required_missions = {
			LAKE_linguistic_academy
		}

		trigger = {
			dip_power = 100
			treasury = 50
		}

		effect = {
			add_dip_power = -100
			add_treasury = -50
			add_country_modifier = {
				name = lake_mage_grey_1_cooldown
				duration = 1825
			}
		}
	}

	LAKE_mage_blue_1 = { #Sway public opinion

		position = 15
		icon = mission_swedish_military_advise

		required_missions = {
			LAKE_mage_grey_1
		}

		trigger = {
			if = {
				limit = { has_global_flag = lake_mage_b_1 }
				custom_trigger_tooltip = {
					tooltip = federation_already_taken_tooltip
					always = yes
				}
			}
			else = {
				OR = {
					AND = {
						advisor = diplomat
						adm_power = 150
						dip_power = 150
					}
					AND = {
						adm_power = 200
						dip_power = 200
					}
				}
				NOT = {
					has_country_modifier = lake_mage_grey_1_cooldown
				}
			}
		}

		effect = {
			if = {
				limit = { has_global_flag = lake_mage_b_1 }
				custom_tooltip = federation_already_taken_tooltip
			}
			else = {
				if = {
					limit = { advisor = diplomat }
					add_adm_power = -150
					add_dip_power = -150
				}
				else = {
					add_adm_power = -200
					add_dip_power = -200
				}
				hidden_effect = {
					set_global_flag = lake_mage_b_1
					set_global_flag = lake_mage_final_cd
					country_event = {
						id = lake.511
						days = 60
					}
				}
				every_country = {
					limit = { has_country_modifier = lake_federation_member }
					country_event = { id = lake.501 }
					hidden_effect = { swap_non_generic_missions = yes }
				}
			}
		}
	}
	
	LAKE_the_islander_declaration = {
		icon = mission_diplomacy_missive
		
		position = 17
		
		required_missions = {
			LAKE_a_federation_of_peoples
		}
		
		trigger = {
			if = {
				limit = { has_global_flag = lake_islander_declaration }
				custom_trigger_tooltip = {
					tooltip = federation_already_taken_tooltip
					always = yes
				}
			}
			else = {
				adm_power = 300
				dip_power = 300
				custom_trigger_tooltip = {
					tooltip = no_federation_crisis_tooltip
					NOT = { has_disaster = lake_federation_crisis }
				}
			}
		}
		
		effect = {
			if = {
				limit = { has_global_flag = lake_islander_declaration }
				custom_tooltip = federation_already_taken_tooltip
			}
			else = {
				add_prestige = 10
				add_adm_power = -300
				add_dip_power = -300
				hidden_effect = { set_global_flag = lake_islander_declaration }
				every_country = {
					limit = { has_country_modifier = lake_federation_member }
					country_event = { id = lake.2 }
					hidden_effect = { swap_non_generic_missions = yes }
				}
				lake_federation_gain_10_points = yes
			}
		}
	}
	
	LAKE_clothing_for_everyone = {
		icon = mission_rb_control_electors
		
		position = 18
		
		required_missions = {
			LAKE_city_artisanat
		}
		
		trigger = {
			if = {
				limit = { has_global_flag = lake_clothing_for_everyone }
				custom_trigger_tooltip = {
					tooltip = federation_already_taken_tooltip
					always = yes
				}
			}
			else = {
				adm_power = 300
				dip_power = 200
				custom_trigger_tooltip = {
					tooltip = no_federation_crisis_tooltip
					NOT = { has_disaster = lake_federation_crisis }
				}
			}
		}
		
		effect = {
			if = {
				limit = { has_global_flag = lake_clothing_for_everyone }
				custom_tooltip = federation_already_taken_tooltip
			}
			else = {
				add_prestige = 10
				add_adm_power = -300
				add_dip_power = -200
				hidden_effect = { set_global_flag = lake_clothing_for_everyone }
				every_country = {
					limit = { has_country_modifier = lake_federation_member }
					country_event = { id = lake.3 }
					hidden_effect = { swap_non_generic_missions = yes }
				}
				lake_federation_gain_10_points = yes
			}
		}
	}
	
	LAKE_root_fashion = {
		icon = mission_female_throne
		
		position = 19
		
		required_missions = {
			LAKE_clothing_for_everyone
		}
		
		trigger = {
			if = {
				limit = { has_global_flag = lake_fashion_made }
				custom_trigger_tooltip = {
					tooltip = federation_already_taken_tooltip
					always = yes
				}
			}
			else = {
				any_owned_province = {
					OR = {
						trade_goods = cloth
						trade_goods = silk
					}
					development = 20
				}
				treasury = 100
				adm_power = 50
				dip_power = 50
				custom_trigger_tooltip = {
					tooltip = no_federation_crisis_tooltip
					NOT = { has_disaster = lake_federation_crisis }
				}
			}
		}
		
		effect = {
			if = {
				limit = { has_global_flag = lake_fashion_made }
				custom_tooltip = federation_already_taken_tooltip
			}
			else = {
				add_treasury = -100
				add_adm_power = -50
				add_dip_power = -50
				hidden_effect = { set_global_flag = lake_fashion_made }
				random_owned_province = {
					limit = {
						OR = {
							trade_goods = cloth
							trade_goods = silk
						}
					}
					add_permanent_province_modifier = {
						name = lake_fashion
						duration = -1
					}
				}
			}
		}
	}
}


LAKE_1_2 = {
	slot = 1
	generic = no
	ai = yes
	has_country_shield = yes
	
	potential = {
		has_country_modifier = lake_federation_member
		has_global_flag = lake_a_united_federation
	}
	
	LAKE_citizen_definition = {
		icon = mission_buddhist_monk_praying
		position = 21
		
		required_missions = {
			LAKE_a_federation_at_our_image
		}
		
		trigger = {
			custom_trigger_tooltip = {
				tooltip = no_federation_crisis_tooltip
				NOT = { has_disaster = lake_federation_crisis }
			}
			NOT = { has_country_modifier = lake_writing_constitution }
			adm_power = 75
			dip_power = 75
			mil_power = 75
			is_lake_federation_leader = yes
		}
		
		effect = {
			add_adm_power = -75
			add_mil_power = -75
			add_dip_power = -75
			add_country_modifier = {
				name = lake_writing_constitution
				duration = 730
			}
			lake_federation_gain_2_points = yes
			country_event = { id = lake.31 }
		}
	}
	
	LAKE_landlords = {
		icon = mission_early_modern_university
		position = 23
		
		required_missions = {
			LAKE_place_of_the_banks
		}
		
		trigger = {
			custom_trigger_tooltip = {
				tooltip = no_federation_crisis_tooltip
				NOT = { has_disaster = lake_federation_crisis }
			}
			NOT = { has_country_modifier = lake_writing_constitution }
			adm_power = 75
			dip_power = 75
			mil_power = 75
			is_lake_federation_leader = yes
		}
		
		effect = {
			add_adm_power = -75
			add_mil_power = -75
			add_dip_power = -75
			add_country_modifier = {
				name = lake_writing_constitution
				duration = 730
			}
			lake_federation_gain_2_points = yes
			country_event = { id = lake.32 }
		}
	}
	
	LAKE_the_national_army = {
		icon = mission_have_two_subjects
		position = 25
		
		required_missions = {
			LAKE_the_guilds
		}
		
		trigger = {
			custom_trigger_tooltip = {
				tooltip = no_federation_crisis_tooltip
				NOT = { has_disaster = lake_federation_crisis }
			}
			NOT = { has_country_modifier = lake_writing_constitution }
			adm_power = 75
			dip_power = 75
			mil_power = 75
			is_lake_federation_leader = yes
		}
		
		effect = {
			add_adm_power = -75
			add_mil_power = -75
			add_dip_power = -75
			add_country_modifier = {
				name = lake_writing_constitution
				duration = 730
			}
			lake_federation_gain_2_points = yes
			country_event = { id = lake.34 }
		}
	}
	
	LAKE_outward_diplomacy = {
		icon = mission_approach_throne
		position = 27
		
		required_missions = {
			LAKE_role_of_the_navy
		}
		
		trigger = {
			custom_trigger_tooltip = {
				tooltip = no_federation_crisis_tooltip
				NOT = { has_disaster = lake_federation_crisis }
			}
			NOT = { has_country_modifier = lake_writing_constitution }
			adm_power = 75
			dip_power = 75
			mil_power = 75
			is_lake_federation_leader = yes
		}
		
		effect = {
			add_adm_power = -75
			add_mil_power = -75
			add_dip_power = -75
			add_country_modifier = {
				name = lake_writing_constitution
				duration = 730
			}
			lake_federation_gain_2_points = yes
			country_event = { id = lake.35 }
		}
	}
	
	LAKE_the_constitution = {
		icon = mission_rb_monopolize_the_channel
		position = 29
		
		required_missions = {
			LAKE_fate_of_the_conquered
		}
		
		trigger = {
			custom_trigger_tooltip = {
				tooltip = no_federation_crisis_tooltip
				NOT = { has_disaster = lake_federation_crisis }
			}
			NOT = { has_country_modifier = lake_writing_constitution }
			if = {
				limit = { ai = no }
				stability = 3
			}
			adm_power = 150
			dip_power = 150
			mil_power = 150
			is_lake_federation_leader = yes
		}
		
		effect = {
			add_adm_power = -150
			add_mil_power = -150
			add_dip_power = -150
			lake_federation_gain_10_points = yes
			country_event = { id = lake.38 }
			hidden_effect = {
				every_country = {
					limit = { has_country_modifier = lake_federation_member }
					hidden_effect = { swap_non_generic_missions = yes }
				}
			}
		}
	}
}



LAKE_2 = {
	slot = 2
	generic = no
	ai = yes
	has_country_shield = yes
	
	potential = {
		has_country_modifier = lake_federation_member
	}
	
	LAKE_draft_agricultural_reform = {
		icon = mission_rb_import_potatoes
		
		position = 2
		
		required_missions = {
			LAKE_federation_diplomatic_corps
		}
		
		trigger = {
			treasury = 25
			adm_power = 150
			custom_trigger_tooltip = {
				tooltip = no_federation_crisis_tooltip
				NOT = { has_disaster = lake_federation_crisis }
			}
			federation_politically_engaged = yes
		}
		
		effect = {
			add_treasury = -25
			add_adm_power = -150
			add_country_modifier = {
				name = lake_draft_agricultural_reform
				duration = 1825
			}
		}
	}
	
	LAKE_educate_the_farmer = {
		icon = mission_rb_conquer_wales
		
		position = 3
		
		required_missions = {
			LAKE_draft_agricultural_reform
		}
		
		trigger = {
			OR = {
				AND = {
					innovativeness = 10
					adm_power = 75
				}
				adm_power = 150
			}
			custom_trigger_tooltip = {
				tooltip = no_federation_crisis_tooltip
				NOT = { has_disaster = lake_federation_crisis }
			}
			federation_politically_engaged = yes
		}
		
		effect = {
			if = {
				limit = { innovativeness = 10 }
				add_adm_power = -75
			}
			else = {
				add_adm_power = -150
			}
			add_country_modifier = {
				name = lake_educate_the_farmer
				duration = 1825
			}
		}
	}
	
	LAKE_agricultural_reform = {
		icon = mission_rb_conquer_the_isles
		
		position = 4
		
		required_missions = {
			LAKE_educate_the_farmer
		}
		
		trigger = {
			if = {
				limit = { has_global_flag = lake_agricultural_reform }
				custom_trigger_tooltip = {
					tooltip = federation_already_taken_tooltip
					always = yes
				}
			}
			else = {
				adm_power = 150
				dip_power = 150
				custom_trigger_tooltip = {
					tooltip = no_federation_crisis_tooltip
					NOT = { has_disaster = lake_federation_crisis }
				}
				federation_politically_engaged = yes
			}
		}
		
		effect = {
			if = {
				limit = { has_global_flag = lake_agricultural_reform }
				custom_tooltip = federation_already_taken_tooltip
			}
			else = {
				add_adm_power = -150
				add_dip_power = -150
				hidden_effect = { set_global_flag = lake_agricultural_reform }
				every_country = {
					limit = { has_country_modifier = lake_federation_member }
					country_event = { id = lake.4 }
					hidden_effect = { swap_non_generic_missions = yes }
				}
				lake_federation_gain_5_points = yes
			}
		}
	}
	
	LAKE_preservation_act = {
		icon = renaissance_city
		
		position = 5
		
		required_missions = {
			LAKE_agricultural_reform
		}
		
		trigger = {
			if = {
				limit = { has_global_flag = lake_preservation_act }
				custom_trigger_tooltip = {
					tooltip = federation_already_taken_tooltip
					always = yes
				}
			}
			else = {
				treasury = 50
				NOT = { num_of_loans = 1 }
				custom_trigger_tooltip = {
					tooltip = no_federation_crisis_tooltip
					NOT = { has_disaster = lake_federation_crisis }
				}
			}
		}
		
		effect = {
			if = {
				limit = { has_global_flag = lake_preservation_act }
				custom_tooltip = federation_already_taken_tooltip
			}
			else = {
				add_treasury = -50
				hidden_effect = { set_global_flag = lake_preservation_act }
				every_country = {
					limit = { has_country_modifier = lake_federation_member }
					country_event = { id = lake.5 }
					hidden_effect = { swap_non_generic_missions = yes }
				}
				lake_federation_gain_5_points = yes
			}
		}
	}
	
	LAKE_one_island = {
		icon = fortify_malta
		
		position = 6
		
		required_missions = {
			LAKE_a_cordial_federation
		}
		
		trigger = {
			OR = {
				AND = {
					advisor = statesman
					adm_power = 100
				}
				adm_power = 200
			}
			custom_trigger_tooltip = {
				tooltip = no_federation_crisis_tooltip
				NOT = { has_disaster = lake_federation_crisis }
			}
		}
		
		effect = {
			if = {
				limit = { advisor = statesman }
				add_adm_power = -100
			}
			else = { add_adm_power = -200 }
			add_country_modifier = {
				name = lake_integration_effort
				duration = 3650
			}
		}
	}
	
	LAKE_same_heart = {
		icon = friends_in_high_places
		
		position = 7
		
		required_missions = {
			LAKE_one_island
		}
		
		trigger = {
			NOT = { has_country_modifier = lake_integration_effort }
			dip_power = 100
			if = {
				limit = { primary_culture = metsamic }
				any_known_country = {
					has_opinion = {
						who = ROOT
						value = 100
					}
					OR = {
						primary_culture = zabatlari
						primary_culture = khamgunai
					}
				}
			}
			else_if = {
				limit = { primary_culture = zabatlari }
				any_known_country = {
					has_opinion = {
						who = ROOT
						value = 100
					}
					OR = {
						primary_culture = metsamic
						primary_culture = khamgunai
					}
				}
			}
			else = {
				any_known_country = {
					has_opinion = {
						who = ROOT
						value = 100
					}
					OR = {
						primary_culture = zabatlari
						primary_culture = metsamic
					}
				}
			}
			custom_trigger_tooltip = {
				tooltip = no_federation_crisis_tooltip
				NOT = { has_disaster = lake_federation_crisis }
			}
		}
		
		effect = {
			add_dip_power = -100
			add_country_modifier = {
				name = lake_integration_effort
				duration = 1825
			}
		}
	}
	
	LAKE_accept_our_brother = {
		icon = develop_naples
		
		position = 8
		
		required_missions = {
			LAKE_same_heart
		}
		
		trigger = {
			NOT = { has_country_modifier = lake_integration_effort }
			stability = 0
			dip_power = 50
			adm_power = 50
			custom_trigger_tooltip = {
				tooltip = no_federation_crisis_tooltip
				NOT = { has_disaster = lake_federation_crisis }
			}
		}
		
		effect = {
			add_adm_power = -50
			add_dip_power = -50
			add_prestige = 5
			if = {
				limit = { NOT = { accepted_culture = metsamic } }
				add_accepted_culture = metsamic
			}
			else_if = {
				limit = { NOT = { accepted_culture = zabatlari } }
				add_accepted_culture = zabatlari
			}
			else_if = {
				limit = { NOT = { accepted_culture = khamgunai } }
				add_accepted_culture = khamgunai
			}
			else = { add_stability_or_adm_power = yes }
		}
	}
	
	LAKE_organize_exhibition = {
		icon = interest_of_holland
		
		position = 9
		
		required_missions = {
			LAKE_wandering_band
		}
		
		trigger = {
			treasury = 30
			adm_power = 100
			dip_power = 100
			is_at_war = no
			custom_trigger_tooltip = {
				tooltip = no_federation_crisis_tooltip
				NOT = { has_disaster = lake_federation_crisis }
			}
		}
		
		effect = {
			add_treasury = -30
			add_adm_power = -100
			add_dip_power = -100
			capital_scope = {
				area = {
					limit = { owned_by = ROOT }
					add_province_modifier = {
						name = lake_exhibition
						duration = 3650
					}
				}
			}
		}
	}
	
	LAKE_a_lawful_federation = {
		icon = state_of_the_presidi
		
		position = 10
		
		required_missions = {
			LAKE_organize_exhibition
		}
		
		trigger = {
			is_at_war = no
			if = {
				limit = { ai = no }
				stability = 2
			}
			else = {
				stability = 1
			}
			is_vassal = no
			custom_trigger_tooltip = {
				tooltip = no_federation_crisis_tooltip
				NOT = { has_disaster = lake_federation_crisis }
			}
		}
		
		effect = {
			add_prestige = 5
		}
	}
	
	
	
	LAKE_law_and_order = {
		icon = mission_beheading
		
		position = 11
		
		required_missions = {
			LAKE_a_lawful_federation
		}
		
		trigger = {
			OR = {
				advisor = statesman
				treasury = 50
			}
			custom_trigger_tooltip = {
				tooltip = no_federation_crisis_tooltip
				NOT = { has_disaster = lake_federation_crisis }
			}
		}
		
		effect = {
			if = {
				limit = { advisor = statesman }
			}
			else = {
				add_treasury = -50
			}
			add_country_modifier = {
				name = lake_our_civil_code
				duration = 1825
			}
		}
	}
	
	LAKE_make_our_demands = {
		icon = mission_dominate_home_trade_node
		
		position = 12
		
		required_missions = {
			LAKE_law_and_order
		}
		
		trigger = {
			OR = {
				AND = {
					advisor = statesman
					dip_power = 75
				}
				dip_power = 150
			}
			NOT = { has_country_modifier = lake_our_civil_code }
			custom_trigger_tooltip = {
				tooltip = no_federation_crisis_tooltip
				NOT = { has_disaster = lake_federation_crisis }
			}
		}
		
		effect = {
			if = {
				limit = { advisor = statesman }
				add_dip_power = -75
			}
			else = {
				add_dip_power = -150
			}
			add_country_modifier = {
				name = lake_our_civil_code_taken_into_account
				duration = 1825
			}
		}
	}
	
	LAKE_the_lake_judiciary_system = {
		icon = mission_market_place_with_asian_traders
		
		position = 13
		
		required_missions = {
			LAKE_make_our_demands
		}
		
		trigger = {
			if = {
				limit = { has_global_flag = lake_judiciary_system }
				custom_trigger_tooltip = {
					tooltip = federation_already_taken_tooltip
					always = yes
				}
			}
			else = {
				OR = {
					AND = {
						advisor = statesman
						dip_power = 100
						adm_power = 100
					}
					AND = {
						dip_power = 150
						adm_power = 150
					}
				}
				NOT = { has_country_modifier = lake_our_civil_code_taken_into_account }
				custom_trigger_tooltip = {
					tooltip = no_federation_crisis_tooltip
					NOT = { has_disaster = lake_federation_crisis }
				}
			}
		}
		
		effect = {
			if = {
				limit = { has_global_flag = lake_judiciary_system }
				custom_tooltip = federation_already_taken_tooltip
			}
			else_if = {
				limit = { advisor = statesman }
				add_dip_power = -100
				add_adm_power = -100
				hidden_effect = { set_global_flag = lake_judiciary_system }
				every_country = {
					limit = { has_country_modifier = lake_federation_member }
					country_event = { id = lake.6 }
					hidden_effect = { swap_non_generic_missions = yes }
				}
				lake_federation_gain_5_points = yes
			}
			else = {
				add_dip_power = -150
				add_adm_power = -150
				hidden_effect = { set_global_flag = lake_judiciary_system }
				every_country = {
					limit = { has_country_modifier = lake_federation_member }
					country_event = { id = lake.6 }
					hidden_effect = { swap_non_generic_missions = yes }
				}
				lake_federation_gain_5_points = yes
			}	
		}
	}

	LAKE_mage_grey_2 = { #Lawmaker's choice

		position = 14
		icon = join_the_reformation

		required_missions = {
			LAKE_linguistic_academy
			LAKE_the_lake_judiciary_system
			LAKE_every_man_a_landlord
		}

		trigger = {
			OR = {
				adm_power = 150
				AND = {
					adm_power = 75
					advisor = statesman
				}
			}
		}

		effect = {
			if = {
				limit = {
					advisor = statesman
				}
				add_adm_power = -75
			}
			else = {
				add_adm_power = -150
			}
			add_country_modifier = {
				name = lake_mage_grey_2_cooldown
				duration = 1825
			}
		}
	}

	LAKE_mage_blue_2 = { #Draft legislation
		
		position = 15
		icon = invade_poland

		required_missions = {
			LAKE_mage_grey_2
		}

		trigger = {
			if = {
				limit = { has_global_flag = lake_mage_b_2 }
				custom_trigger_tooltip = {
					tooltip = federation_already_taken_tooltip
					always = yes
				}
			}
			else = {
				OR = {
					adm_power = 300
					AND = {
						adm_power = 200
						advisor = statesman
					}
				}
				NOT = {
					has_country_modifier = lake_mage_grey_2_cooldown
				}
			}
		}

		effect = {
			if = {
				limit = { has_global_flag = lake_mage_b_2 }
				custom_tooltip = federation_already_taken_tooltip
			}
			else = {
				if = {
					limit = {
						advisor = statesman
					}
					add_adm_power = -200
				}
				else = {
					add_adm_power = -300
				}
				hidden_effect = {
					set_global_flag = lake_mage_b_2
					set_global_flag = lake_mage_final_cd
					country_event = {
						id = lake.511
						days = 60
					}
				}
				every_country = {
					limit = { has_country_modifier = lake_federation_member }
					country_event = { id = lake.502 }
					hidden_effect = { swap_non_generic_missions = yes }
				}
			}
		}
	}
	
	LAKE_a_federation_of_peoples = {
		icon = mission_discussion_arch
		
		position = 16
		
		required_missions = {
			LAKE_mage_blue_1
			LAKE_mage_blue_2
			LAKE_mage_blue_3
		}
		
		trigger = {
			is_subject = no
			is_at_war = no
			if = {
				limit = { has_global_flag = lake_mage_b_4 }
				custom_trigger_tooltip = {
					tooltip = federation_already_taken_tooltip
					always = yes
				}
			}
			# adm_tech = 12
			else = {
				if = {
					limit = { ai = no }
					stability = 2
				}
				else = {
					stability = 1
				}
				custom_trigger_tooltip = {
					tooltip = no_lake_mage_final_tooltip
					NOT = { has_global_flag = lake_mage_final_cd }
				}
				custom_trigger_tooltip = {
					tooltip = no_federation_crisis_tooltip
					NOT = { has_disaster = lake_federation_crisis }
				}
			}
		}
		
		effect = {
			add_prestige = 10
			if = {
				limit = { has_global_flag = lake_mage_b_4 }
				custom_tooltip = federation_already_taken_tooltip
			}
			else = {
				hidden_effect = { set_global_flag = lake_mage_b_4 }
				every_country = {
					limit = { has_country_modifier = lake_federation_member }
					country_event = { id = lake.504 }
					hidden_effect = {
						swap_non_generic_missions = yes
						set_global_flag = federation_crisis_magew
						country_event = {
							id = fed_magew.1
							days = 300
						}
					}
				}
			}
		}
	}
	
	LAKE_city_artisanat = {
		icon = mission_rb_central_belt_coal_mining
		
		position = 17
		
		required_missions = {
			LAKE_a_federation_of_peoples
		}
		
		trigger = {
			OR = {
				AND = {
					advisor = artist
					treasury = 100
				}
				treasury = 250
			}
		}
		
		effect = {
			if = {
				limit = { advisor = artist }
				add_treasury = -100
			}
			else = { add_treasury = -250 }
			capital_scope = {
				add_permanent_province_modifier = {
					name = lake_artisanat
					duration = -1
				}
			}
		}
	}
	
	LAKE_federation_artisan = {
		icon = mission_state_manufactories
		
		position = 18
		
		required_missions = {
			LAKE_city_artisanat
		}
		
		trigger = {
			if = {
				limit = { has_global_flag = lake_federation_artisan }
				custom_trigger_tooltip = {
					tooltip = federation_already_taken_tooltip
					always = yes
				}
			}
			else = {
				adm_power = 250
				dip_power = 200
				custom_trigger_tooltip = {
					tooltip = no_federation_crisis_tooltip
					NOT = { has_disaster = lake_federation_crisis }
				}
			}
		}
		
		effect = {
			if = {
				limit = { has_global_flag = lake_federation_artisan }
				custom_tooltip = federation_already_taken_tooltip
			}
			else = {
				add_adm_power = -250
				add_dip_power = -200
				hidden_effect = { set_global_flag = lake_federation_artisan }
				every_country = {
					limit = { has_country_modifier = lake_federation_member }
					country_event = { id = lake.7 }
					hidden_effect = { swap_non_generic_missions = yes }
				}
				lake_federation_gain_5_points = yes
			}
		}
	}
}

LAKE_2_2 = {
	slot = 2
	generic = no
	ai = yes
	has_country_shield = yes
	
	potential = {
		has_country_modifier = lake_federation_member
		has_global_flag = lake_a_united_federation
	}
	
	LAKE_a_federation_at_our_image = {
		icon = mission_persian_soldiers
		position = 20
		
		required_missions = {
			LAKE_a_united_federation
		}
		
		trigger = {
			custom_trigger_tooltip = {
				tooltip = no_federation_crisis_tooltip
				NOT = { has_disaster = lake_federation_crisis }
			}
			if = {
				limit = { ai = no }
				stability = 3
			}
			is_lake_federation_leader = yes
		}
		
		effect = {
			add_country_modifier = {
				name = lake_writing_constitution
				duration = 365
			}
			add_prestige = 20
			hidden_effect = {
				set_variable = {
					which = lakeTrade
					value = 0
				}
				set_variable = {
					which = lakeMilitary
					value = 0
				}
				set_variable = {
					which = lakeIndustrial
					value = 0
				}
			}
		}
	}
	
	LAKE_place_of_the_banks = {
		icon = mission_unite_the_princes
		position = 22
		
		required_missions = {
			LAKE_citizen_definition
		}
		
		trigger = {
			custom_trigger_tooltip = {
				tooltip = no_federation_crisis_tooltip
				NOT = { has_disaster = lake_federation_crisis }
			}
			NOT = { has_country_modifier = lake_writing_constitution }
			adm_power = 75
			dip_power = 75
			mil_power = 75
			is_lake_federation_leader = yes
		}
		
		effect = {
			add_adm_power = -75
			add_mil_power = -75
			add_dip_power = -75
			add_country_modifier = {
				name = lake_writing_constitution
				duration = 730
			}
			lake_federation_gain_2_points = yes
			country_event = { id = lake.30 }
		}
	}
	
	LAKE_the_guilds = {
		icon = mission_conquer_novgorod
		position = 24
		
		required_missions = {
			LAKE_landlords
		}
		
		trigger = {
			custom_trigger_tooltip = {
				tooltip = no_federation_crisis_tooltip
				NOT = { has_disaster = lake_federation_crisis }
			}
			NOT = { has_country_modifier = lake_writing_constitution }
			adm_power = 75
			dip_power = 75
			mil_power = 75
			is_lake_federation_leader = yes
		}
		
		effect = {
			add_adm_power = -75
			add_mil_power = -75
			add_dip_power = -75
			add_country_modifier = {
				name = lake_writing_constitution
				duration = 730
			}
			lake_federation_gain_2_points = yes
			country_event = { id = lake.33 }
		}
	}
	
	LAKE_role_of_the_navy = {
		icon = mission_rb_grow_the_channel
		position = 26
		
		required_missions = {
			LAKE_the_national_army
		}
		
		trigger = {
			custom_trigger_tooltip = {
				tooltip = no_federation_crisis_tooltip
				NOT = { has_disaster = lake_federation_crisis }
			}
			NOT = { has_country_modifier = lake_writing_constitution }
			adm_power = 75
			dip_power = 75
			mil_power = 75
			is_lake_federation_leader = yes
		}
		
		effect = {
			add_adm_power = -75
			add_mil_power = -75
			add_dip_power = -75
			add_country_modifier = {
				name = lake_writing_constitution
				duration = 730
			}
			lake_federation_gain_2_points = yes
			country_event = { id = lake.36 }
		}
	}
	
	LAKE_fate_of_the_conquered = {
		icon = mission_captured
		position = 28
		
		required_missions = {
			LAKE_outward_diplomacy
		}
		
		trigger = {
			custom_trigger_tooltip = {
				tooltip = no_federation_crisis_tooltip
				NOT = { has_disaster = lake_federation_crisis }
			}
			NOT = { has_country_modifier = lake_writing_constitution }
			adm_power = 75
			dip_power = 75
			mil_power = 75
			is_lake_federation_leader = yes
		}
		
		effect = {
			add_adm_power = -75
			add_mil_power = -75
			add_dip_power = -75
			add_country_modifier = {
				name = lake_writing_constitution
				duration = 730
			}
			lake_federation_gain_2_points = yes
			country_event = { id = lake.37 }
		}
	}
}

LAKE_3 = {
	slot = 3
	generic = no
	ai = yes
	has_country_shield = yes
	
	potential = {
		has_country_modifier = lake_federation_member
	}
	
	LAKE_federation_diplomatic_corps = {
		icon = mission_monarch_diplomacy
		
		position = 1
		
		trigger = {
			dip_power = 50
			treasury = 50
			custom_trigger_tooltip = {
				tooltip = no_federation_crisis_tooltip
				NOT = { has_disaster = lake_federation_crisis }
			}
		}
		
		effect = {
			add_treasury = -50
			add_dip_power = -50
			add_country_modifier = {
				name = lake_diplomatic_corps
				duration = -1
			}
		}
	}
	
	LAKE_the_fish_seminaries = {
		
		position = 2
		icon = mission_rb_cod_wars
		
		required_missions = {
			LAKE_federation_diplomatic_corps
		}
		
		trigger = {
			dip_power = 150
			custom_trigger_tooltip = {
				tooltip = no_federation_crisis_tooltip
				NOT = { has_disaster = lake_federation_crisis }
			}
			federation_politically_engaged = yes
		}
		
		effect = {
			add_dip_power = -150
			add_country_modifier = {
				name = lake_fish_seminaries
				duration = 1825
			}
		}
	}
	
	LAKE_draft_fishing_act = {
		
		position = 3
		icon = mission_rb_conquer_the_isles
		
		required_missions = {
			LAKE_the_fish_seminaries
		}
		
		trigger = {
			OR = {
				AND = {
					fish = 1
					dip_power = 75
				}
				dip_power = 150
			}
			custom_trigger_tooltip = {
				tooltip = no_federation_crisis_tooltip
				NOT = { has_disaster = lake_federation_crisis }
			}
			federation_politically_engaged = yes
		}
		
		effect = {
			if = {
				limit = { fish = 1 }
				add_dip_power = -75
			}
			else = {
				add_dip_power = -150
			}
			add_country_modifier = {
				name = lake_fish_seminaries
				duration = 1825
			}
		}
	}
	
	LAKE_implement_regulation = {
		
		position = 4
		icon = mission_rb_conquer_brittany
		
		required_missions = {
			LAKE_draft_fishing_act
		}
		
		trigger = {
			if = {
				limit = { has_global_flag = lake_implement_regulation }
				custom_trigger_tooltip = {
					tooltip = federation_already_taken_tooltip
					always = yes
				}
			}
			else = {
				adm_power = 150
				dip_power = 150
				custom_trigger_tooltip = {
					tooltip = no_federation_crisis_tooltip
					NOT = { has_disaster = lake_federation_crisis }
				}
				federation_politically_engaged = yes
			}
		}
		
		effect = {
			if = {
				limit = { has_global_flag = lake_implement_regulation }
				custom_tooltip = federation_already_taken_tooltip
			}
			else = {
				add_adm_power = -150
				add_dip_power = -150
				hidden_effect = { set_global_flag = lake_implement_regulation }
				every_country = {
					limit = { has_country_modifier = lake_federation_member }
					country_event = { id = lake.8 }
					hidden_effect = { swap_non_generic_missions = yes }
				}
				lake_federation_gain_5_points = yes
			}
		}
	}
	
	LAKE_a_cordial_federation = {
		
		position = 5
		icon = tuscan_birthright
		
		required_missions = {
			LAKE_implement_regulation
			LAKE_agricultural_reform
			LAKE_free_trade
		}
		
		trigger = {
			is_at_war = no
			is_subject = no
			# adm_tech = 8
			if = {
				limit = { ai = no }
				stability = 2
			}
			else = {
				stability = 1
			}
			custom_trigger_tooltip = {
				tooltip = no_federation_crisis_tooltip
				NOT = { has_disaster = lake_federation_crisis }
			}
		}
		
		effect = {
			add_stability_or_adm_power = yes
		}
	}
	
	LAKE_of_art_and_poetry = {
		
		position = 6
		icon = issue_general_reglement
		
		required_missions = {
			LAKE_a_cordial_federation
		}
		
		trigger = {
			OR = {
				AND = {
					advisor = artist
					adm_power = 100
				}
				adm_power = 200
			}
			is_at_war = no
			custom_trigger_tooltip = {
				tooltip = no_federation_crisis_tooltip
				NOT = { has_disaster = lake_federation_crisis }
			}
		}
		
		effect = {
			if = {
				limit = { advisor = artist }
				add_adm_power = -100
			}
			else = { add_adm_power = -200 }
			add_country_modifier = {
				name = lake_financing_art
				duration = 1825
			}
		}
	}
	
	LAKE_the_storytellers = {
		
		position = 7
		icon = regents_contracts
		
		required_missions = {
			LAKE_of_art_and_poetry
		}
		
		trigger = {
			NOT = { has_country_modifier = lake_financing_art }
			OR = {
				AND = {
					advisor = theologian
					adm_power = 100
				}
				adm_power = 200
			}
			custom_trigger_tooltip = {
				tooltip = no_federation_crisis_tooltip
				NOT = { has_disaster = lake_federation_crisis }
			}
		}
		
		effect = {
			if = {
				limit = { advisor = theologian }
				add_adm_power = -100
			}
			else = { add_adm_power = -200 }
			add_prestige = 10
			add_splendor = 100
		}
	}
	
	LAKE_wandering_band = {
		
		position = 8
		icon = settle_north_america
		
		required_missions = {
			LAKE_the_storytellers
		}
		
		trigger = {
			if = {
				limit = { has_global_flag = lake_wandering_band }
				custom_trigger_tooltip = {
					tooltip = federation_already_taken_tooltip
					always = yes
				}
			}
			else = {
				adm_power = 100
				dip_power = 100
				if = {
					limit = { ai = no }
					treasury = 100
					NOT = { num_of_loans = 1 }
				}
				else = {
					treasury = 50
				}
				custom_trigger_tooltip = {
					tooltip = no_federation_crisis_tooltip
					NOT = { has_disaster = lake_federation_crisis }
				}
			}
		}
		
		effect = {
			if = {
				limit = { has_global_flag = lake_wandering_band }
				custom_tooltip = federation_already_taken_tooltip
			}
			else = {
				add_adm_power = -200
				add_dip_power = -200
				if = {
					limit = { ai = no }
					add_treasury = -100
				}
				else = {
					add_treasury = -50
				}
				hidden_effect = { set_global_flag = lake_wandering_band }
				country_event = { id = lake.45 }
				lake_federation_gain_5_points = yes
				hidden_effect = {
					every_country = {
						limit = { has_country_modifier = lake_federation_member }
						hidden_effect = { swap_non_generic_missions = yes }
					}
				}
			}
		}
	}
	
	LAKE_build_the_federation_museum = {
		
		position = 9
		icon = chater_the_voc
		
		required_missions = {
			LAKE_wandering_band
		}
		
		trigger = {
			treasury = 25
			adm_power = 100
			custom_trigger_tooltip = {
				tooltip = federation_museum_build_tooltip
				NOT = { has_global_flag = federation_museum_build }
			}
		}
		
		effect = {
			add_adm_power = -100
			add_treasury = -25
			custom_tooltip = build_the_museum_tooltip
			hidden_effect = { set_country_flag = building_museum }
			hidden_effect = {
				set_variable = {
					which = museumInvestment
					value = 0
				}
			}
		}
	}
	
	LAKE_the_federation_museum = {
		
		position = 10
		icon = conquer_malacca
		
		required_missions = {
			LAKE_build_the_federation_museum
		}
		
		trigger = {
			if = {
				limit = { has_global_flag = federation_museum_build }
				custom_trigger_tooltip = {
					tooltip = federation_already_taken_tooltip
					always = yes
				}
			}
			else = {
				if = {
					limit = {
						NOT = { has_global_flag = federation_museum_build }
					}
					custom_trigger_tooltip = {
						tooltip = museum_completion_tooltip
						REB = { check_variable = { museumInvestment = 100 } }
					}
					custom_trigger_tooltip = {
						tooltip = lakeInvestmentMuseum_tooltip
						all_known_country = {
							NOT = {
								check_variable = {
									which = museumInvestment
									which = PREV
								}
							}
						}
					}
				}
				custom_trigger_tooltip = {
					tooltip = federation_museum_build_tooltip
					NOT = { has_global_flag = federation_museum_build }
				}
				custom_trigger_tooltip = {
					tooltip = no_federation_crisis_tooltip
					NOT = { has_disaster = lake_federation_crisis }
				}
			}
		}
		
		effect = {
			if = {
				limit = { has_global_flag = federation_museum_build }
				custom_tooltip = federation_already_taken_tooltip
			}
			else = {
				add_prestige = 20
				lake_federation_gain_10_points = yes
				capital_scope = {
					add_permanent_province_modifier = {
						name = federation_museum
						duration = -1
					}
				}
				hidden_effect = {
					every_known_country = {
						limit = { has_country_flag = building_museum }
						clr_country_flag = building_museum
					}
					clr_country_flag = building_museum
					set_global_flag = federation_museum_build
				}
				hidden_effect = {
					every_country = {
						limit = { has_country_modifier = lake_federation_member }
						hidden_effect = { swap_non_generic_missions = yes }
					}
				}
			}
		}
	}
	
	LAKE_home_for_everyone = {
		
		position = 11
		icon = mission_pf_map_table
		required_missions = {
			LAKE_a_lawful_federation
		}
		
		trigger = {
			OR = {
				AND = {
					advisor = statesman
					adm_power = 50
				}
				adm_power = 100
			}
			custom_trigger_tooltip = {
				tooltip = no_federation_crisis_tooltip
				NOT = { has_disaster = lake_federation_crisis }
			}
		}
		
		effect = {
			if = {
				limit = { advisor = statesman }
				add_adm_power = -50
			}
			else = { add_adm_power = -100 }
			add_country_modifier = {
				name = lake_home_for_everyone
				duration = 9125
			}
		}
	}
	
	LAKE_finance_census = {
		
		position = 12
		icon = mission_sail_to_the_east_indies
		
		required_missions = {
			LAKE_home_for_everyone
		}
		
		trigger = {
			OR = {
				AND = {
					treasury = 75
					adm_power = 150
				}
				AND = {
					advisor = master_of_mint
					adm_power = 100
					treasury = 50
				}
			}
			custom_trigger_tooltip = {
				tooltip = no_federation_crisis_tooltip
				NOT = { has_disaster = lake_federation_crisis }
			}
		}
		
		effect = {
			if = {
				limit = { advisor = master_of_mint }
				add_adm_power = -100
				add_treasury = -50
			}
			else = { 
				add_adm_power = -150
				add_treasury = -75
			}
			add_country_modifier = {
				name = lake_doing_census
				duration = 1825
			}
		}
	}
	
	LAKE_every_man_a_landlord = {
		
		position = 13
		icon = mission_expel_the_moriscos
		
		required_missions = {
			LAKE_finance_census
		}
		
		trigger = {
			if = {
				limit = { has_global_flag = lake_every_man_a_landlord }
				custom_trigger_tooltip = {
					tooltip = federation_already_taken_tooltip
					always = yes
				}
			}
			else = {
				adm_power = 150
				dip_power = 150
				treasury = 100
				NOT = { has_country_modifier = lake_doing_census }
				custom_trigger_tooltip = {
					tooltip = no_federation_crisis_tooltip
					NOT = { has_disaster = lake_federation_crisis }
				}
			}
		}
		
		effect = {
			if = {
				limit = { has_global_flag = lake_every_man_a_landlord }
				custom_tooltip = federation_already_taken_tooltip
			}
			else = {
				add_adm_power = -150
				add_dip_power = -150
				add_treasury = -100
				hidden_effect = { set_global_flag = lake_every_man_a_landlord }
				every_country = {
					limit = { has_country_modifier = lake_federation_member }
					country_event = { id = lake.9 }
					hidden_effect = { swap_non_generic_missions = yes }
				}
				lake_federation_gain_5_points = yes
			}
		}
	}

	LAKE_mage_grey_3 = { #Learn about mages

		position = 14
		icon = mission_book_of_royal_degrees

		required_missions = {
			LAKE_every_man_a_landlord
		}

		trigger = {
			adm_power = 50
			dip_power = 50
			mil_power = 50
		}

		effect = {
			add_adm_power = -50
			add_dip_power = -50
			add_mil_power = -50
			add_country_modifier = {
				name = lake_mage_grey_3_cooldown
				duration = 1825
			}
		}
	}

	LAKE_mage_blue_3 = { #The stance of the army

		position = 15
		icon = professional_army
		required_missions = {
			LAKE_mage_grey_3
			LAKE_federation_observer
		}

		trigger = {
			if = {
				limit = { has_global_flag = lake_mage_b_3 }
				custom_trigger_tooltip = {
					tooltip = federation_already_taken_tooltip
					always = yes
				}
			}
			else = {
				dip_power = 100
				OR = {
					mil_power = 200
					AND = {
						mil_power = 100
						advisor = army_organiser
					}
				}
				NOT = {
					has_country_modifier = lake_mage_grey_3_cooldown
				}
			}
		}

		effect = {
			if = {
				limit = { has_global_flag = lake_mage_b_3 }
				custom_tooltip = federation_already_taken_tooltip
			}
			else = {
				add_dip_power = -100
				if = {
					limit = { advisor = army_organiser }
					add_mil_power = -100
				}
				else = {
					add_mil_power = -200
				}
				hidden_effect = {
					set_global_flag = lake_mage_b_3
					set_global_flag = lake_mage_final_cd
					country_event = {
						id = lake.511
						days = 60
					}
				}
				every_country = {
					limit = { has_country_modifier = lake_federation_member }
					country_event = { id = lake.503 }
					hidden_effect = { swap_non_generic_missions = yes }
				}
			}
		}
	}
	
	LAKE_a_growing_administration = {
		
		position = 17
		icon = mission_industria_sedera
		
		required_missions = {
			LAKE_a_federation_of_peoples
		}
		
		trigger = {
			OR = {
				adm = 5
				adm_power = 150
			}
			custom_trigger_tooltip = {
				tooltip = no_federation_crisis_tooltip
				NOT = { has_disaster = lake_federation_crisis }
			}
		}
		
		effect = {
			if = {
				limit = { NOT = { adm = 5 } }
				add_adm_power = -150
			}
			add_country_modifier = {
				name = lake_growing_administration
				duration = 18250
			}
		}
	}
	
	LAKE_the_federation_needs = {
		
		position = 18
		icon = mission_dominate_genoa
		
		required_missions = {
			LAKE_a_growing_administration
		}
		
		trigger = {
			if = {
				limit = { has_global_flag = lake_the_federation_needs }
				custom_trigger_tooltip = {
					tooltip = federation_already_taken_tooltip
					always = yes
				}
			}
			else = {
				OR = {
					dip_power = 200
					AND = {
						advisor = statesman
						paper = 1
					}
				}
				treasury = 50
				custom_trigger_tooltip = {
					tooltip = no_federation_crisis_tooltip
					NOT = { has_disaster = lake_federation_crisis }
				}
			}
		}
		
		effect = {
			if = {
				limit = { has_global_flag = lake_the_federation_needs }
				custom_tooltip = federation_already_taken_tooltip
			}
			else_if = {
				limit = {
					advisor = statesman
					paper = 1
				}
				add_treasury = 50
				hidden_effect = { set_global_flag = lake_the_federation_needs }
				every_country = {
					limit = { has_country_modifier = lake_federation_member }
					country_event = { id = lake.10 }
					hidden_effect = { swap_non_generic_missions = yes }
				}
				lake_federation_gain_5_points = yes
			}
			else = {
				add_dip_power = -200
				add_years_of_income = -1
				hidden_effect = { set_global_flag = lake_the_federation_needs }
				every_country = {
					limit = { has_country_modifier = lake_federation_member }
					country_event = { id = lake.10 }
					hidden_effect = { swap_non_generic_missions = yes }
				}
				lake_federation_gain_5_points = yes
			}
		}
	}
	
	LAKE_a_united_federation = {
		
		position = 19
		icon = mission_city_prosperity
		
		required_missions = {
			LAKE_the_federation_needs
			LAKE_federation_artisan
			LAKE_meritocratic_army
		}
		
		trigger = {
			if = {
				limit = { has_global_flag = lake_a_united_federation }
				custom_trigger_tooltip = {
					tooltip = federation_already_taken_tooltip
					always = yes
				}
			}
			else = {
				is_at_war = no
				OR = {
					prestige = 50
					AND = {
						dip_power = 300
						prestige = 25
					}
				}
				# adm_tech = 18
				custom_trigger_tooltip = {
					tooltip = no_federation_crisis_tooltip
					NOT = { has_disaster = lake_federation_crisis }
				}
			}
		}
		
		effect = {
			if = {
				limit = { has_global_flag = lake_a_united_federation }
				custom_tooltip = federation_already_taken_tooltip
			}
			else = {
				if = {
					limit = { NOT = { prestige = 50 } }
					add_dip_power = -300
				}
				add_prestige = 10
				hidden_effect = { set_global_flag = lake_a_united_federation }
				every_country = {
					limit = { has_country_modifier = lake_federation_member }
					country_event = { id = lake.11 }
					hidden_effect = { swap_non_generic_missions = yes }
				}
				lake_federation_gain_5_points = yes
			}
			custom_tooltip = lake_a_united_federation_tooltip
			hidden_effect = { set_country_flag = lake_a_united_federation }
		}
	}
}


LAKE_3_2 = {
	slot = 3
	generic = no
	ai = yes
	has_country_shield = yes
	
	potential = {
		has_country_modifier = lake_federation_member
		has_global_flag = lake_a_united_federation
	}
	
	LAKE_grant_navy_commissions = {
		icon = mission_control_venice
		position = 21
		
		required_missions = {
			LAKE_our_place_in_the_federation
		}
		
		trigger = {
			custom_trigger_tooltip = {
				tooltip = no_federation_crisis_tooltip
				NOT = { has_disaster = lake_federation_crisis }
			}
			if = {
				limit = { ai = no }
				diplomat = 3
			}
			custom_trigger_tooltip = { tooltip = not_federation_leader_tooltip NOT = { is_lake_federation_leader = yes } }
			dip_power = 150
			NOT = { has_country_modifier = federation_intrigue }
		}
		
		effect = {
			add_dip_power = -150
			lake_federation_gain_5_points = yes
			add_country_modifier = {
				name = federation_intrigue
				duration = 730
			}
			add_country_modifier = {
				name = navy_commissions
				duration = 3650
			}
		}
	}
	
	LAKE_support_in_the_military = {
		icon = mission_protect_albania
		position = 22
		
		required_missions = {
			LAKE_grant_navy_commissions
		}
		
		trigger = {
			custom_trigger_tooltip = {
				tooltip = no_federation_crisis_tooltip
				NOT = { has_disaster = lake_federation_crisis }
			}
			if = {
				limit = { ai = no }
				diplomat = 3
			}
			custom_trigger_tooltip = { tooltip = not_federation_leader_tooltip NOT = { is_lake_federation_leader = yes } }
			mil_power = 150
			manpower_percentage = 0.50
			NOT = { has_country_modifier = federation_intrigue }
		}
		
		effect = {
			add_mil_power = -150
			lake_federation_gain_5_points = yes
			add_country_modifier = {
				name = federation_intrigue
				duration = 730
			}
			add_yearly_manpower = -2
		}
	}
}


LAKE_4 = {
	slot = 4
	generic = no
	ai = yes
	has_country_shield = yes
	
	potential = {
		has_country_modifier = lake_federation_member
	}
	
	LAKE_trade_agreement = {
		
		position = 2
		icon = mission_occupy_alexandria
		
		required_missions = {
			LAKE_federation_diplomatic_corps
		}
		
		trigger = {
			OR = {
				AND = {
					dip_power = 75
					adm_power = 75
				}
				AND = {
					dip_power = 50
					adm_power = 50
					advisor = trader
				}
			}
			custom_trigger_tooltip = {
				tooltip = no_federation_crisis_tooltip
				NOT = { has_disaster = lake_federation_crisis }
			}
			federation_politically_engaged = yes
		}
		
		effect = {
			if = {
				limit = { advisor = trader }
				add_adm_power = -50
				add_dip_power = -50
			}
			else = {
				add_adm_power = -75
				add_dip_power = -75
			}
			add_country_modifier = {
				name = lake_arranging_trade_agreement
				duration = 1825
			}
		}
	}
	
	LAKE_internal_market = {
		
		position = 3
		icon = mission_caribbean_cn
		
		required_missions = {
			LAKE_trade_agreement
		}
		
		trigger = {
			OR = {
				AND = {
					dip_power = 75
					adm_power = 75
				}
				AND = {
					dip_power = 50
					adm_power = 50
					advisor = trader
				}
			}
			custom_trigger_tooltip = {
				tooltip = no_federation_crisis_tooltip
				NOT = { has_disaster = lake_federation_crisis }
			}
			federation_politically_engaged = yes
		}
		
		effect = {
			if = {
				limit = { advisor = trader }
				add_adm_power = -50
				add_dip_power = -50
			}
			else = {
				add_adm_power = -75
				add_dip_power = -75
			}
			add_country_modifier = {
				name = lake_arranging_trade_agreement
				duration = 1825
			}
		}
	}
	
	LAKE_free_trade = {
		
		position = 4
		icon = mission_mediterranean_islands
		
		required_missions = {
			LAKE_internal_market
		}
		
		trigger = {
			if = {
				limit = { has_global_flag = lake_free_trade }
				custom_trigger_tooltip = {
					tooltip = federation_already_taken_tooltip
					always = yes
				}
			}
			else = {
				OR = {
					AND = {
						OR = {
							advisor = trader
							dip = 5
						}
						dip_power = 150
					}
					dip_power = 200
				}
				custom_trigger_tooltip = {
					tooltip = no_federation_crisis_tooltip
					NOT = { has_disaster = lake_federation_crisis }
				}
				federation_politically_engaged = yes
			}
		}
		
		effect = {
			if = {
				limit = { has_global_flag = lake_free_trade }
				custom_tooltip = federation_already_taken_tooltip
			}
			else_if = {
				limit = { OR = { advisor = trader dip = 5 } }
				add_dip_power = -150
				add_prestige = 15
				hidden_effect = { set_global_flag = lake_free_trade }
				every_country = {
					limit = { has_country_modifier = lake_federation_member }
					country_event = { id = lake.12 }
					hidden_effect = { swap_non_generic_missions = yes }
				}
				lake_federation_gain_10_points = yes
			}
			else = {
				add_dip_power = -200
				add_prestige = 10
				hidden_effect = { set_global_flag = lake_free_trade }
				every_country = {
					limit = { has_country_modifier = lake_federation_member }
					country_event = { id = lake.12 }
					hidden_effect = { swap_non_generic_missions = yes }
				}
				lake_federation_gain_10_points = yes
			}
		}
	}
	
	LAKE_the_centaur_menace = {
		
		position = 5
		icon = mission_conquer_air
		
		required_missions = {
			LAKE_colonial_office
		}
		
		trigger = {
			adm_power = 75
			mil_power = 75
			# mil_tech = 9
			custom_trigger_tooltip = {
				tooltip = no_federation_crisis_tooltip
				NOT = { has_disaster = lake_federation_crisis }
			}
		}
		
		effect = {
			add_adm_power = -75
			add_mil_power = -75
			add_country_modifier = {
				name = lake_the_centaur_menace
				duration = 1825
			}
		}
	}
	
	LAKE_the_place_of_everyone = {
		
		position = 6
		icon = befriend_ethiopia
		
		required_missions = {
			LAKE_the_centaur_menace
		}
		
		trigger = {
			if = {
				limit = { has_global_flag = lake_the_place_of_everyone }
				custom_trigger_tooltip = {
					tooltip = federation_already_taken_tooltip
					always = yes
				}
			}
			else = {
				OR = {
					AND = {
						OR = {
							advisor = army_organiser
							mil = 5
						}
						mil_power = 150
						NOT = { has_country_modifier = lake_the_centaur_menace }
					}
					AND = {
						mil_power = 250
						NOT = { has_country_modifier = lake_the_centaur_menace }
					}
				}
				custom_trigger_tooltip = {
					tooltip = no_federation_crisis_tooltip
					NOT = { has_disaster = lake_federation_crisis }
				}
			}
		}
		
		effect = {
			if = {
				limit = { has_global_flag = lake_the_place_of_everyone }
				custom_tooltip = federation_already_taken_tooltip
			}
			else_if = {
				limit = { OR = { advisor = army_organiser mil = 5 } }
				add_mil_power = -150
				add_prestige = 15
				hidden_effect = { set_global_flag = lake_the_place_of_everyone }
				every_country = {
					limit = { has_country_modifier = lake_federation_member }
					country_event = { id = lake.13 }
					hidden_effect = { swap_non_generic_missions = yes }
				}
				lake_federation_gain_10_points = yes
			}
			else = {
				add_mil_power = -250
				add_prestige = 10
				hidden_effect = { set_global_flag = lake_the_place_of_everyone }
				every_country = {
					limit = { has_country_modifier = lake_federation_member }
					country_event = { id = lake.13 }
					hidden_effect = { swap_non_generic_missions = yes }
				}
				lake_federation_gain_10_points = yes
			}
		}
	}
	
	LAKE_coordinate_defense_force = {
		
		position = 7
		icon = mission_armor_choice
		
		required_missions = {
			LAKE_the_place_of_everyone
		}
		
		trigger = {
			OR = {
				mil_power = 150
				AND = {
					advisor = quartermaster
					mil_power = 75
				}
			}
			custom_trigger_tooltip = {
				tooltip = federation_fighter_tooltip
				has_country_modifier = federation_fighter
			}
			custom_trigger_tooltip = {
				tooltip = no_federation_crisis_tooltip
				NOT = { has_disaster = lake_federation_crisis }
			}
		}
		
		effect = {
			if = {
				limit = { advisor = quartermaster }
				add_mil_power = -75
			}
			else = { add_mil_power = -150 }
			if = {
				limit = {
					capital_scope = {
						NOT = { has_manpower_building_trigger = yes }
						num_free_building_slots = 1
					}
				}
				capital_scope = {
					add_building_construction = {
						building = barracks
						speed = 1
						cost = 0
					}
				}
			}
			else = {
				capital_scope = { add_base_manpower = 3 }
			}
		}
	}
	
	LAKE_federation_conscript = {
		
		position = 8
		icon = swiss_mercenaries
		
		required_missions = {
			LAKE_coordinate_defense_force
		}
		
		trigger = {
			OR = {
				mil_power = 150
				AND = {
					advisor = quartermaster
					mil_power = 75
				}
			}
			treasury = 25
			custom_trigger_tooltip = {
				tooltip = no_federation_crisis_tooltip
				NOT = { has_disaster = lake_federation_crisis }
			}
		}
		
		effect = {
			if = {
				limit = { advisor = quartermaster }
				add_mil_power = -75
			}
			else = { add_mil_power = -150 }
			add_treasury = -25
			add_country_modifier = {
				name = federation_fighter_conscription
				duration = -1
			}
		}
	}
	
	LAKE_federation_soldier_first = {
		
		position = 9
		icon = mission_dominate_home_trade_node
		
		required_missions = {
			LAKE_federation_conscript
		}
		
		trigger = {
			if = {
				limit = { has_global_flag = lake_federation_soldier_first }
				custom_trigger_tooltip = {
					tooltip = federation_already_taken_tooltip
					always = yes
				}
			}
			else = {
				adm_power = 100
				mil_power = 200
				treasury = 50
				custom_trigger_tooltip = {
					tooltip = no_federation_crisis_tooltip
					NOT = { has_disaster = lake_federation_crisis }
				}
			}
		}
		
		effect = {
			if = {
				limit = { has_global_flag = lake_federation_soldier_first }
				custom_tooltip = federation_already_taken_tooltip
			}
			else = {
				add_adm_power = -100
				add_mil_power = -200
				add_treasury = -50
				hidden_effect = { set_global_flag = lake_federation_soldier_first }
				every_country = {
					limit = { has_country_modifier = lake_federation_member }
					country_event = { id = lake.14 }
					hidden_effect = { swap_non_generic_missions = yes }
				}
				lake_federation_gain_5_points = yes
			}
		}
	}
	
	LAKE_the_root_military_reform = {
		
		position = 10
		icon = mission_landsknecht_soldier
		
		required_missions = {
			LAKE_federation_soldier_first
		}
		
		trigger = {
			if = {
				limit = { has_global_flag = lake_military_reform }
				custom_trigger_tooltip = {
					tooltip = federation_already_taken_tooltip
					always = yes
				}
			}
			else = {
				OR = {
					mil_power = 300
					AND = {
						advisor = army_reformer
						mil_power = 200
					}
				}
				treasury = 50
				is_year = 1500
				custom_trigger_tooltip = {
					tooltip = no_federation_crisis_tooltip
					NOT = { has_disaster = lake_federation_crisis }
				}
			}
		}
		
		effect = {
			if = {
				limit = { has_global_flag = lake_military_reform }
				custom_tooltip = federation_already_taken_tooltip
			}
			else_if = {
				limit = { advisor = army_reformer }
				add_mil_power = -200
				add_treasury = -50
				hidden_effect = { set_global_flag = lake_military_reform }
				every_country = {
					limit = { has_country_modifier = lake_federation_member }
					country_event = { id = lake.15 }
					hidden_effect = { swap_non_generic_missions = yes }
				}
				lake_federation_gain_5_points = yes
			}
			else = {
				add_mil_power = -300
				add_treasury = -50
				hidden_effect = { set_global_flag = lake_military_reform }
				every_country = {
					limit = { has_country_modifier = lake_federation_member }
					country_event = { id = lake.15 }
					hidden_effect = { swap_non_generic_missions = yes }
				}
				lake_federation_gain_5_points = yes
			}
		}
	}
	
	LAKE_sea_laws = {
		
		position = 11
		icon = support_the_bulk_trades
		
		required_missions = {
			LAKE_a_lawful_federation
		}
		
		trigger = {
			NOT = { has_country_modifier = lake_legislative_work }
			OR = {
				AND = {
					advisor = trader
					dip_power = 50
				}
				dip_power = 100
			}
			custom_trigger_tooltip = {
				tooltip = no_federation_crisis_tooltip
				NOT = { has_disaster = lake_federation_crisis }
			}
		}
		
		effect = {
			if = {
				limit = { advisor = trader }
				add_dip_power = -50
			}
			else = {
				add_dip_power = -100
			}
			lake_legislative_work_effect = yes
		}
	}
	
	LAKE_maritime_exploitation_zone = {
		
		position = 12
		icon = the_glorious_revolution
		
		required_missions = {
			LAKE_sea_laws
		}
		
		trigger = {
			NOT = { has_country_modifier = lake_legislative_work }
			is_at_war = no
			treasury = 75
			custom_trigger_tooltip = {
				tooltip = no_federation_crisis_tooltip
				NOT = { has_disaster = lake_federation_crisis }
			}
		}
		
		effect = {
			lake_legislative_work_effect = yes
			add_treasury = -75
		}
	}
	
	LAKE_anti_piracy_act = {
		
		position = 13
		icon = mission_fleet_arrival
		
		required_missions = {
			LAKE_maritime_exploitation_zone
		}
		
		trigger = {
			if = {
				limit = { has_global_flag = lake_anti_piracy_act }
				custom_trigger_tooltip = {
					tooltip = federation_already_taken_tooltip
					always = yes
				}
			}
			else = {
				OR = {
					mil_power = 300
					AND = {
						advisor = navigator
						mil_power = 200
					}
				}
				NOT = { has_country_modifier = lake_legislative_work }
				custom_trigger_tooltip = {
					tooltip = no_federation_crisis_tooltip
					NOT = { has_disaster = lake_federation_crisis }
				}
			}
		}
		
		effect = {
			if = {
				limit = { has_global_flag = lake_anti_piracy_act }
				custom_tooltip = federation_already_taken_tooltip
			}
			else_if = {
				limit = { advisor = navigator }
				add_mil_power = -200
				hidden_effect = { set_global_flag = lake_anti_piracy_act }
				every_country = {
					limit = { has_country_modifier = lake_federation_member }
					country_event = { id = lake.47 }
					hidden_effect = { swap_non_generic_missions = yes }
				}
				lake_federation_gain_5_points = yes
			}
			else = {
				add_mil_power = -300
				hidden_effect = { set_global_flag = lake_anti_piracy_act }
				every_country = {
					limit = { has_country_modifier = lake_federation_member }
					country_event = { id = lake.47 }
					hidden_effect = { swap_non_generic_missions = yes }
				}
				lake_federation_gain_5_points = yes
			}
		}
	}
	
	LAKE_federation_observer = {
		
		position = 14
		icon = mission_dual_diplomacy
		
		required_missions = {
			LAKE_anti_piracy_act
			LAKE_caravan_act
		}
		
		trigger = {
			NOT = { has_country_modifier = lake_legislative_work }
			dip_power = 100
			adm_power = 100
			custom_trigger_tooltip = {
				tooltip = no_federation_crisis_tooltip
				NOT = { has_disaster = lake_federation_crisis }
			}
		}
		
		effect = {
			add_dip_power = -100
			add_adm_power = -100
			lake_federation_gain_2_points = yes
			add_country_modifier = {
				name = lake_federation_observer
				duration = -1
			}
		}
	}
	
	LAKE_meritocratic_army = {
		
		position = 18
		icon = mission_dominate_home_trade_node
		
		required_missions = {
			LAKE_a_growing_administration
		}
		
		trigger = {
			OR = {
				mil_power = 200
				AND = {
					advisor = commandant
					mil_power = 150
				}
			}
			custom_trigger_tooltip = {
				tooltip = no_federation_crisis_tooltip
				NOT = { has_disaster = lake_federation_crisis }
			}
		}
		
		effect = {
			if = {
				limit = { advisor = commandant }
				add_mil_power = -150
			}
			else = {
				add_mil_power = -200
			}
			add_army_professionalism = 0.05
			add_army_tradition = -10
			add_country_modifier = {
				name = lake_professionalism
				duration = 3650
			}
		}
	}
}


LAKE_4_2 = {
	slot = 4
	generic = no
	ai = yes
	has_country_shield = yes
	
	potential = {
		has_country_modifier = lake_federation_member
		has_global_flag = lake_a_united_federation
	}
	
	LAKE_our_place_in_the_federation = {
		icon = mission_cope_with_refugees
		position = 20
		
		required_missions = {
			LAKE_a_united_federation
		}
		
		trigger = {
			custom_trigger_tooltip = {
				tooltip = no_federation_crisis_tooltip
				NOT = { has_disaster = lake_federation_crisis }
			}
			if = {
				limit = { ai = no }
				stability = 3
			}
			custom_trigger_tooltip = { tooltip = not_federation_leader_tooltip NOT = { is_lake_federation_leader = yes } }
		}
		
		effect = {
			define_advisor = {
				type = diplomat
				skill = 3
				discount = yes
			}
		}
	}
	
	LAKE_bribe_our_way_to_the_top = {
		icon = mission_reclaim_morocco
		position = 21
		
		required_missions = {
			LAKE_our_place_in_the_federation
		}
		
		trigger = {
			custom_trigger_tooltip = {
				tooltip = no_federation_crisis_tooltip
				NOT = { has_disaster = lake_federation_crisis }
			}
			if = {
				limit = { ai = no }
				diplomat = 3
			}
			else = {
				dip_power = 250
			}
			custom_trigger_tooltip = { tooltip = not_federation_leader_tooltip NOT = { is_lake_federation_leader = yes } }
			NOT = { corruption = 5 }
			NOT = { has_country_modifier = federation_intrigue }
		}
		
		effect = {
			if = {
				limit = { ai = yes }
				add_dip_power = -250
			}
			add_corruption = 5
			lake_federation_gain_5_points = yes
			add_country_modifier = {
				name = federation_intrigue
				duration = 730
			}
		}
	}
	
	LAKE_invest_in_our_neighbor = {
		icon = mission_restore_trade_superiority
		position = 22
		
		required_missions = {
			LAKE_bribe_our_way_to_the_top
		}
		
		trigger = {
			custom_trigger_tooltip = {
				tooltip = no_federation_crisis_tooltip
				NOT = { has_disaster = lake_federation_crisis }
			}
			if = {
				limit = { ai = no }
				diplomat = 3
			}
			custom_trigger_tooltip = { tooltip = not_federation_leader_tooltip NOT = { is_lake_federation_leader = yes } }
			adm_power = 50
			dip_power = 150
			any_neighbor_country = {
				has_country_modifier = lake_federation_member
			}
			NOT = { has_country_modifier = federation_intrigue }
		}
		
		effect = {
			add_dip_power = -150
			add_adm_power = -50
			capital_scope = {
				add_base_tax = -1
				add_base_production = -1
				add_base_manpower = -1
			}
			random_neighbor_country = {
				limit = { has_country_modifier = lake_federation_member }
				capital_scope = {
					add_base_tax = 1
					add_base_production = 1
					add_base_manpower = 1
				}
			}
			lake_federation_gain_5_points = yes
			add_country_modifier = {
				name = federation_intrigue
				duration = 730
			}
		}
	}
	
	LAKE_swear_federation_loyalty = {
		icon = mission_swear_fealty_knight
		position = 23
		
		required_missions = {
			LAKE_invest_in_our_neighbor
			LAKE_support_in_the_military
			LAKE_civil_services
		}
		
		trigger = {
			custom_trigger_tooltip = {
				tooltip = no_federation_crisis_tooltip
				NOT = { has_disaster = lake_federation_crisis }
			}
			if = {
				limit = { ai = no }
				diplomat = 3
			}
			custom_trigger_tooltip = { tooltip = not_federation_leader_tooltip NOT = { is_lake_federation_leader = yes } }
			dip_power = 300
			NOT = { has_country_modifier = federation_intrigue }
		}
		
		effect = {
			add_dip_power = -300
			lake_federation_gain_10_points = yes
			federation_increase_cohesion_all = yes
		}
	}
}

LAKE_5 = {
	slot = 5
	generic = no
	ai = yes
	has_country_shield = yes
	
	potential = {
		has_country_modifier = lake_federation_member
	}
	
	LAKE_build_the_assembly_house = {
		
		position = 1
		icon = public_works
		
		trigger = {
			years_of_income = 0.5
			adm_power = 100
			custom_trigger_tooltip = {
				tooltip = federation_assembly_house_build_tooltip
				NOT = { has_global_flag = federation_assembly_house_build }
			}
		}
		
		effect = {
			if = {
				limit = { ai = no }
				add_adm_power = -100
			}
			add_years_of_income = -0.5
			custom_tooltip = build_the_assembly_house_tooltip
			hidden_effect = { set_country_flag = building_assembly_house }
			hidden_effect = {
				set_variable = {
					which = lakeInvestment
					value = 0
				}
				if = {
					limit = {
						REB = {
							NOT = {
								check_variable = {
									which = lakeAssemblyHouse
									value = 0
								}
							}
						}
					}
					REB = {
						set_variable = {
							which = lakeAssemblyHouse
							value = 0
						}
					}
				}
			}
		}
	}
	
	LAKE_open_it = {
		
		position = 2
		icon = mission_big_house
		
		required_missions = {
			LAKE_build_the_assembly_house
		}
		
		trigger = {
			if = {
				limit = { has_global_flag = federation_assembly_house_build }
				custom_trigger_tooltip = {
					tooltip = federation_already_taken_tooltip
					always = yes
				}
			}
			else = {
				if = {
					limit = {
						NOT = { has_global_flag = federation_assembly_house_build }
					}
					custom_trigger_tooltip = {
						tooltip = assembly_house_completion_tooltip
						REB = { check_variable = { lakeAssemblyHouse = 100 } }
					}
					custom_trigger_tooltip = {
						tooltip = lakeInvestment_tooltip
						all_known_country = {
							NOT = {
								check_variable = {
									which = lakeInvestment
									which = PREV
								}
							}
						}
					}
				}
				custom_trigger_tooltip = {
					tooltip = federation_assembly_house_build_tooltip
					NOT = { has_global_flag = federation_assembly_house_build }
				}
				custom_trigger_tooltip = {
					tooltip = no_federation_crisis_tooltip
					NOT = { has_disaster = lake_federation_crisis }
				}
			}
		}
		
		effect = {
			if = {
				limit = { has_global_flag = federation_assembly_house_build }
				custom_tooltip = federation_already_taken_tooltip
			}
			else = {
				add_prestige = 20
				lake_federation_gain_10_points = yes
				capital_scope = {
					add_permanent_province_modifier = {
						name = federation_assembly_house
						duration = -1
					}
				}
				hidden_effect = {
					hidden_effect = { swap_non_generic_missions = yes }
					every_known_country = {
						limit = { has_country_flag = building_assembly_house }
						clr_country_flag = building_assembly_house
					}
					every_known_country = {
						limit = { has_country_modifier = lake_federation_member }
						set_variable = {
							which = FederationPolitics
							value = 1
						}
						hidden_effect = { swap_non_generic_missions = yes }
					}
					set_variable = {
						which = FederationPolitics
						value = 1
					}
					clr_country_flag = building_assembly_house
					set_global_flag = federation_assembly_house_build
				}
			}
		}
	}
	
	LAKE_the_mainland_question = {
		
		position = 3
		icon = mission_chinese_general_riding
		
		trigger = {
			if = {
				limit = { has_global_flag = lake_the_mainland_question }
				custom_trigger_tooltip = {
					tooltip = federation_already_taken_tooltip
					always = yes
				}
			}
			else = {
				OR = {
					AND = {
						has_idea_group = expansion_ideas
						expansion_ideas = 1
					}
					AND = {
						adm_power = 150
						dip_power = 150
						is_year = 1460
					}
				}
				custom_trigger_tooltip = {
					tooltip = no_federation_crisis_tooltip
					NOT = { has_disaster = lake_federation_crisis }
				}
			}
		}
		
		effect = {
			if = {
				limit = { has_global_flag = lake_the_mainland_question }
				custom_tooltip = federation_already_taken_tooltip
			}
			else_if = {
				limit = { expansion_ideas = 1 }
				hidden_effect = { set_global_flag = lake_the_mainland_question }
				every_country = {
					limit = { has_country_modifier = lake_federation_member }
					country_event = { id = lake.16 }
					hidden_effect = { swap_non_generic_missions = yes }
				}
				lake_federation_gain_5_points = yes
			}
			else = {
				add_adm_power = -150
				add_dip_power = -150
				hidden_effect = { set_global_flag = lake_the_mainland_question }
				every_country = {
					limit = { has_country_modifier = lake_federation_member }
					country_event = { id = lake.16 }
					hidden_effect = { swap_non_generic_missions = yes }
				}
				lake_federation_gain_5_points = yes
			}
		}
	}
	
	LAKE_colonial_office = {
		
		position = 4
		icon = mission_settlers_north_america
		
		required_missions = {
			LAKE_the_mainland_question
		}
		
		trigger = {
			dip_power = 150
			is_year = 1465
			custom_trigger_tooltip = {
				tooltip = no_federation_crisis_tooltip
				NOT = { has_disaster = lake_federation_crisis }
			}
		}
		
		effect = {
			if = {
				limit = { has_country_modifier = federation_mainland_operation }
				add_country_modifier = {
					name = lake_colonial_office
					duration = 18250
				}
			}
			else = {
				custom_tooltip = no_mainland_operation_tooltip
				add_mercantilism = 5
			}
			add_dip_power = -150
		}
	}
	
	LAKE_mainland_territory = {
		
		position = 5
		icon = mission_arabian_fort
		
		required_missions = {
			LAKE_colonial_office
		}
		
		trigger = {
			num_of_owned_provinces_with = {
				value = 5
				NOT = { region = south_yarikhoi_region }
				NOT = { region = north_yarikhoi_region }
				is_city = yes
			}
			custom_trigger_tooltip = {
				tooltip = no_federation_crisis_tooltip
				NOT = { has_disaster = lake_federation_crisis }
			}
		}
		
		effect = {
			add_prestige = 5
			lake_federation_gain_2_points = yes
		}
	}
	
	LAKE_establish_mainland_trade = {
		
		position = 6
		icon = mission_sea_battles
		
		required_missions = {
			LAKE_mainland_territory
		}
		
		trigger = {
			num_of_owned_provinces_with = {
				value = 10
				NOT = { region = south_yarikhoi_region }
				NOT = { region = north_yarikhoi_region }
				is_city = yes
			}
			custom_trigger_tooltip = {
				tooltip = no_federation_crisis_tooltip
				NOT = { has_disaster = lake_federation_crisis }
			}
		}
		
		effect = {
			add_prestige = 5
			add_country_modifier = {
				name = lake_mainland_trade_established
				duration = 36500
			}
			lake_federation_gain_2_points = yes
		}
	}
	
	LAKE_financing_the_fight = {
		
		position = 7
		icon = dominant_economy
		
		required_missions = {
			LAKE_the_place_of_everyone
		}
		
		trigger = {
			dip_power = 150
			treasury = 50
			is_at_war = no
			custom_trigger_tooltip = {
				tooltip = federation_subventionner_tooltip
				has_country_modifier = federation_subventionner
			}
			custom_trigger_tooltip = {
				tooltip = no_federation_crisis_tooltip
				NOT = { has_disaster = lake_federation_crisis }
			}
		}
		
		effect = {
			add_dip_power = -150
			add_treasury = -50
			add_country_modifier = {
				name = lake_setup_local_bank
				duration = 3650
			}
		}
	}
	
	LAKE_local_bank_system = {
		
		position = 8
		icon = imperial_capitals
		
		required_missions = {
			LAKE_financing_the_fight
		}
		
		trigger = {
			treasury = 50
			adm_power = 50
			NOT = { has_country_modifier = lake_setup_local_bank }
			custom_trigger_tooltip = {
				tooltip = no_federation_crisis_tooltip
				NOT = { has_disaster = lake_federation_crisis }
			}
		}
		
		effect = {
			add_treasury = -50
			add_adm_power = -50
			capital_scope = {
				add_permanent_province_modifier = {
					name = lake_local_bank
					duration = -1
				}
			}
		}
	}
	
	LAKE_creating_a_central_bank = {
		
		position = 9
		icon = unite_the_league
		
		required_missions = {
			LAKE_local_bank_system
		}
		
		trigger = {
			adm_power = 100
			dip_power = 100
			custom_trigger_tooltip = {
				tooltip = no_federation_crisis_tooltip
				NOT = { has_disaster = lake_federation_crisis }
			}
		}
		
		effect = {
			add_dip_power = -100
			add_adm_power = -100
			custom_tooltip = creating_central_bank_tooltip
			hidden_effect = { set_country_flag = creating_central_bank }
		}
	}
	
	LAKE_open_the_central_bank = {
		
		position = 10
		icon = interest_of_holland
		
		required_missions = {
			LAKE_creating_a_central_bank
		}
		
		trigger = {
			if = {
				limit = { has_global_flag = federation_central_bank_build }
				custom_trigger_tooltip = {
					tooltip = federation_already_taken_tooltip
					always = yes
				}
			}
			else = {
				capital_scope = { has_province_modifier = lake_local_bank }
				if = {
					limit = { NOT = { has_global_flag = federation_central_bank_build } }
					custom_trigger_tooltip = {
						tooltip = central_bank_completion_tooltip
						REB = { check_variable = { lakeCentralBank = 100 } }
					}
					custom_trigger_tooltip = {
						tooltip = lakeInvestmentBank_tooltip
						all_known_country = {
							NOT = {
								check_variable = {
									which = lakeInvestmentBank
									which = PREV
								}
							}
						}
					}
				}
				custom_trigger_tooltip = {
					tooltip = federation_central_bank_build_tooltip
					NOT = { has_global_flag = federation_central_bank_build }
				}
				custom_trigger_tooltip = {
					tooltip = no_federation_crisis_tooltip
					NOT = { has_disaster = lake_federation_crisis }
				}
			}
		}
		
		effect = {
			if = {
				limit = { has_global_flag = federation_central_bank_build }
				custom_tooltip = federation_already_taken_tooltip
			}
			else = {
				add_prestige = 20
				capital_scope = {
					add_permanent_province_modifier = {
						name = federation_central_bank
						duration = -1
					}
					remove_province_modifier = lake_local_bank
				}
				lake_federation_gain_10_points = yes
				hidden_effect = {
					every_country = {
						limit = { has_country_modifier = lake_federation_member }
						clr_country_flag = creating_central_bank
						hidden_effect = { swap_non_generic_missions = yes }
					}
					set_global_flag = federation_central_bank_build
				}
				hidden_effect = {
					set_variable = {
						which = lakeInvestmentBank
						value = 0
					}
					if = {
						limit = {
							REB = {
								NOT = {
									check_variable = {
										which = lakeCentralBank
										value = 0
									}
								}
							}
						}
						REB = {
							set_variable = {
								which = lakeCentralBank
								value = 0
							}
						}
					}
				}
			}
		}
	}
	
	LAKE_island_laws = {
		
		position = 11
		icon = geneva_conventions
		
		required_missions = {
			LAKE_a_lawful_federation
		}
		
		trigger = {
			NOT = { has_country_modifier = lake_legislative_work }
			OR = {
				AND = {
					advisor = fortification_expert
					adm_power = 50
				}
				adm_power = 100
			}
			dip_power = 100
			custom_trigger_tooltip = {
				tooltip = no_federation_crisis_tooltip
				NOT = { has_disaster = lake_federation_crisis }
			}
		}
		
		effect = {
			if = {
				limit = { advisor = fortification_expert }
				add_adm_power = -50
			}
			else = {
				add_adm_power = -100
			}
			add_dip_power = -100
			lake_legislative_work_effect = yes
		}
	}
	
	LAKE_inter_cities_trade_route = {
		
		position = 12
		icon = secure_the_sava
		
		required_missions = {
			LAKE_island_laws
		}
		
		trigger = {
			NOT = { has_country_modifier = lake_legislative_work }
			manpower = 3
			adm_power = 150
			mil_power = 50
			custom_trigger_tooltip = {
				tooltip = no_federation_crisis_tooltip
				NOT = { has_disaster = lake_federation_crisis }
			}
		}
		
		effect = {
			lake_legislative_work_effect = yes
			add_manpower = -3
			add_adm_power = -150
			add_mil_power = -50
			capital_scope = {
				add_permanent_province_modifier = {
					name = lake_safe_heaven
					duration = 36500
				}
			}
		}
	}
	
	LAKE_caravan_act = {
		
		position = 13
		icon = mission_reconquer_ceuta
		
		required_missions = {
			LAKE_inter_cities_trade_route
		}
		
		trigger = {
			if = {
				limit = { has_global_flag = lake_caravan_act }
				custom_trigger_tooltip = {
					tooltip = federation_already_taken_tooltip
					always = yes
				}
			}
			else = {
				NOT = { has_country_modifier = lake_legislative_work }
				OR = {
					AND = {
						has_idea_group = trade_ideas
						trade_ideas = 1
					}
					dip_power = 200
				}
				mil_power = 150
				custom_trigger_tooltip = {
					tooltip = no_federation_crisis_tooltip
					NOT = { has_disaster = lake_federation_crisis }
				}
			}
		}
		
		effect = {
			if = {
				limit = { has_global_flag = lake_caravan_act }
				custom_tooltip = federation_already_taken_tooltip
			}
			else_if = {
				limit = { trade_ideas = 1 }
				add_mil_power = -150
				hidden_effect = { set_global_flag = lake_caravan_act }
				every_country = {
					limit = { has_country_modifier = lake_federation_member }
					country_event = { id = lake.48 }
					hidden_effect = { swap_non_generic_missions = yes }
				}
				lake_federation_gain_5_points = yes
			}
			else = {
				add_dip_power = -200
				add_mil_power = -150
				hidden_effect = { set_global_flag = lake_caravan_act }
				every_country = {
					limit = { has_country_modifier = lake_federation_member }
					country_event = { id = lake.48 }
					hidden_effect = { swap_non_generic_missions = yes }
				}
				lake_federation_gain_5_points = yes
			}
		}
	}

	LAKE_further_capital_improvement = {
		
		position = 14
		icon = mission_guilds_of_barcelona
		
		required_missions = {
			LAKE_caravan_act
		}
		
		trigger = {
			treasury = 100
			adm_power = 75
			dip_power = 75
			mil_power = 75
			custom_trigger_tooltip = {
				tooltip = no_federation_crisis_tooltip
				NOT = { has_disaster = lake_federation_crisis }
			}
		}
		
		effect = {
			add_treasury = -100
			add_adm_power = -75
			add_dip_power = -75
			add_mil_power = -75
			capital_scope = {
				add_base_tax = 1
				add_base_manpower = 1
				add_base_production = 1
				add_next_institution_embracement = 25
			}
		}
	}
}

LAKE_5_2 = {
	slot = 5
	generic = no
	ai = yes
	has_country_shield = yes
	
	potential = {
		has_country_modifier = lake_federation_member
		has_global_flag = lake_a_united_federation
	}
	
	LAKE_look_for_population_support = {
		icon = mission_indian_stateman
		position = 21
		
		required_missions = {
			LAKE_our_place_in_the_federation
		}
		
		trigger = {
			custom_trigger_tooltip = {
				tooltip = no_federation_crisis_tooltip
				NOT = { has_disaster = lake_federation_crisis }
			}
			if = {
				limit = { ai = no }
				diplomat = 3
				stability = 3
			}
			else = {
				stability = 1
			}
			custom_trigger_tooltip = { tooltip = not_federation_leader_tooltip NOT = { is_lake_federation_leader = yes } }
			adm_power = 150
			NOT = { has_country_modifier = federation_intrigue }
		}
		
		effect = {
			add_adm_power = -150
			reduce_stability_or_adm_power = yes
			lake_federation_gain_5_points = yes
			add_country_modifier = {
				name = federation_intrigue
				duration = 730
			}
		}
	}
	
	LAKE_civil_services = {
		icon = mission_scholar_officials
		position = 22
		
		required_missions = {
			LAKE_look_for_population_support
		}
		
		trigger = {
			custom_trigger_tooltip = {
				tooltip = no_federation_crisis_tooltip
				NOT = { has_disaster = lake_federation_crisis }
			}
			if = {
				limit = { ai = no }
				diplomat = 3
			}
			custom_trigger_tooltip = { tooltip = not_federation_leader_tooltip NOT = { is_lake_federation_leader = yes } }
			adm_power = 150
			dip_power = 150
			NOT = { has_country_modifier = federation_intrigue }
		}
		
		effect = {
			add_adm_power = -150
			add_dip_power = -150
			lake_federation_gain_5_points = yes
			add_country_modifier = {
				name = federation_intrigue
				duration = 730
			}
		}
	}
}
