#Made by Unmortalguy

miremaw_two = {
	slot = 2
	generic = no
	ai = yes
	potential = {
		OR = {
			tag = J32
			tag = J48
		}
	}
	has_country_shield = yes
	
	miremaw_fernmunchers = {
		icon = mission_globlin
		required_missions = { }
		position = 1
		
		provinces_to_highlight = {
			province_id = 4123
			NOT = { development = 16 }
		}
		
		trigger = {
			4123 = { development = 16 }
			has_country_modifier = racial_focus_goblin
			NOT = {
				OR = {
					has_country_modifier = racial_pop_goblin_purge
					has_country_modifier = racial_pop_goblin_expulsion
				}
			}
		}
		
		effect = {
			capital_scope = {
				add_institution_embracement = {
					which = feudalism
					value = 30
				}
			}
			define_conquistador = {
				fire = 1
				shock = 3
				manuever = 4
				siege = 0
				name = "Gezz Poisonblade"
			}
			small_increase_of_goblin_tolerance_effect = yes
		}
	}
	
	miremaw_mapping_mire = {
	icon = mission_unite_home_region
		required_missions = { miremaw_fernmunchers }
		position = 2

		provinces_to_highlight = {
			region = serpents_vale_region
			NOT = { has_discovered = ROOT }
		}
		
		trigger = {
			serpents_vale_region = {
				type = all
				has_discovered = ROOT
			}
		}
		
		effect = {
			serpents_vale_region = { add_permanent_claim = ROOT }
			add_prestige = 10
			add_country_modifier = { 
				name = miremaw_settlements_scouted_mod
				duration = 12775 # 35 years
			}

		}
	}
	
	miremaw_swamp_beasts = {
		icon = mission_rb_conquer_wales
		required_missions = { miremaw_mapping_mire }
		position = 3
		
		provinces_to_highlight = {
			area = assembly_terrace_area
			OR = {
				NOT = { owned_by = ROOT }
				NOT = { is_core = ROOT }
				NOT = { development = 6 }
			}
		}
		
		trigger = {
			assembly_terrace_area = {
				type = all
				owned_by = ROOT
				is_core = ROOT
				development = 6
			}
		}
		
		effect = {
			assembly_terrace_area = {
				limit = { NOT = { trade_goods = gold } }
				add_province_modifier = {
					name = miremaw_great_swamp_beasts
					duration = -1
				}
				change_trade_goods = livestock
			}
			#TODO Add doom reduction here
		}
	}
	
	
	
	miremaw_northern_neighbours = {
		icon = mission_beyond_the_urals
		required_missions = { miremaw_united_swamp }
		position = 5
		
		provinces_to_highlight = {
			if = {
				limit = {
					OR = {
						Z18 = { exists = yes }
						Z50 = { exists = yes }
					}
				}
				OR = {
					owned_by = Z18
					owned_by = Z50
				}
			}
			else = {
				region = northern_pass_region
				NOT = { owned_by = ROOT }
			}	
		}
		
		trigger = {
				if = {
					limit = {
						OR = {
							hidden_respite_area = {
								OR = {
									owned_by = Z18
									owned_by = Z50
								}
							}
							the_copperwood_area = {
								OR = {
									owned_by = Z18
									owned_by = Z50
								}
							}
							upper_logr_area = {
								OR = {
									owned_by = Z18
									owned_by = Z50
								}
							}
						}
					}
					OR = {
						Z18 = {
							is_neighbor_of = ROOT
							has_been_insulted_by_root = yes
						}
						Z50 = {
							is_neighbor_of = ROOT
							has_been_insulted_by_root = yes
						}
					}
				}

				else =  {	
					calc_true_if = {
						amount = 3
						northern_pass_region = {
							owned_by = ROOT
							is_core = ROOT
						}
					}
				}
			
		}
		
		effect = {
			if = {
				limit = { 
					NOT = {
						OR = {
							hidden_respite_area = {
								OR = {
									owned_by = Z18
									owned_by = Z50
								}
							}
							the_copperwood_area = {
								OR = {
									owned_by = Z18
									owned_by = Z50
								}
							}
							upper_logr_area = {
								OR = {
									owned_by = Z18
									owned_by = Z50
								}
							}
						}
					}
				}
				country_event = { id = flavor_miremaw.2 }
			}
			else = { country_event = { id = flavor_miremaw.3 } }
		}
	}	
	
	miremaw_conquering_pass = {
		icon = mission_alone_in_the_wood
		required_missions = { miremaw_northern_neighbours }
		position = 6

		provinces_to_highlight = {
			OR = {
				area = hidden_respite_area
				area = the_copperwood_area
				area = upper_logr_area
			}
			NOT = { owned_by = ROOT }
		}

		trigger = {
			hidden_respite_area = {
				type = all
				owned_by = ROOT
			}
			the_copperwood_area = {
				type = all
				owned_by = ROOT
			}
			upper_logr_area = {
				type = all
				owned_by = ROOT
			}
			if = {
				limit = {
					OR = {
						calc_true_if = {
							amount = 5
							northern_pass_region = {
								OR = {
									is_core = Z18
									is_core = Z50
								}
							}
						}
					}
				}
				all_owned_province = {
					calc_true_if = {
						amount = 5
						OR = {
							is_core = Z18
							is_core = Z50
						}
					}
				}
			}
		}

		effect = {
			add_army_tradition = 25
			add_war_exhaustion = -1
			add_power_projection = {
				type = mission_rewards_power_projection
				amount = 15
			}
		}
	}

	miremaw_distant_cousins = {
		icon = mission_frost_troll
		required_missions = { miremaw_conquering_pass }
		position = 7

		provinces_to_highlight = {
			OR = {
				area = hjyrtsikki_area
				area = middle_logr_area
			}
			NOT = { owned_by = ROOT }
		}

		trigger = {
			hjyrtsikki_area = {
				type = all
				owned_by = ROOT
			}
			middle_logr_area = {
				type = all
				owned_by = ROOT
			}
			has_country_modifier = racial_focus_troll
		}

		effect = { country_event = { id = flavor_miremaw.4 } }
	}
}

miremaw_three = {
	slot = 3
	generic = no
	ai = yes
	potential = {
		OR = {
			tag = J32
			tag = J48
		}
	}
	has_country_shield = yes
	
	miremaw_tribal_consolidation = {
		icon = mission_restore_rule_over_mysore
		required_missions = { }
		position = 1
		
		trigger = {
			estate_loyalty = {
				estate = estate_monstrous_tribes
				loyalty = 60
			}
			estate_influence = {
				estate = estate_monstrous_tribes
				influence = 70
			}
			army_size = 12
		}
		
		effect = {
			add_country_modifier = {
				name = miremaw_tribal_consolidation_mod
				duration = 18250 #50 years
			}
		}
	}
	
	miremaw_old_capital = {
		icon = mission_renovate_kannauj
		required_missions = {
			miremaw_tribal_consolidation 
			miremaw_mapping_mire
		}
		position = 3
		
		provinces_to_highlight = { province_id = 4145 }
		
		trigger = {
			4145 = {
				is_core = ROOT
				owned_by = ROOT
				development = 10
				has_fort_building_trigger = yes
			}
		}
		
		effect = {
			country_event = { id = flavor_miremaw.1 }
		}
	}
	
	miremaw_united_swamp = {
		icon = mission_che_the_cave_country
		required_missions = {
			miremaw_swamp_beasts
			miremaw_old_capital
			miremaw_grand_feast
		}
		position = 4
		
		provinces_to_highlight = {
			region = serpents_vale_region
			NOT = { owned_by = ROOT }
			NOT = { is_core = ROOT }
	    }
		
		trigger = {
			serpents_vale_region = {
				type = all
				owned_by = ROOT
				is_core = ROOT
			}
			calc_true_if = {
				all_owned_province = {
					has_tax_building_trigger = yes
					region = serpents_vale_region
				}
				amount = 2
			}
			any_owned_province = {
				has_manpower_building_trigger = yes
				region = serpents_vale_region
			}
			any_owned_province = {
				has_production_building_trigger = yes
				region = serpents_vale_region
			}
			
		}
		
		effect = {
			serpents_vale_region = {
				limit = { NOT = { has_terrain = dwarven_road } }
				add_province_modifier = {
					name = miremaw_swamp_stewards
					duration = -1
				}
			}
			assembly_terrace_area = { add_prosperity = 10 }
			royal_terrace_area = { add_prosperity = 10 }
			castle_hill_area = { add_prosperity = 10 }
			common_terrace_area = { add_prosperity = 10 }
		}
	}
	
	miremaw_swamp_agriculture = {
		icon = mission_che_botanical_exports
		required_missions = { miremaw_united_swamp }
		position = 6

		provinces_to_highlight = {
			region = serpents_vale_region
			NOT = { has_terrain = dwarven_road }
			AND = {
				NOT = { base_production = 4 }
				NOT = { has_production_building_trigger = yes }
			}
		}
		
		trigger = {
			serpents_vale_region = {
				type = all
				OR = {
					has_terrain = dwarven_road
					AND = {
						base_production = 4
						OR = {
							trade_goods = gold
							has_production_building_trigger = yes
						}
					}
				}
			}
		}
		
		effect = {
			serpents_vale_region = {
				limit = { NOT = { has_terrain = dwarven_road } }
				add_province_modifier = {
					name = miremaw_swamp_agriculture_mod
					duration = -1
				}
			}
			#TODO doom stuff
		}
	}
	
	miremaw_eastern_kingdom = {
		icon = mission_plc_golden_liberty
		required_missions = {
			miremaw_distant_cousins
			miremaw_swamp_agriculture
			miremaw_cave_ferns
		}
		position = 8
		
		trigger = {
			is_at_war = no
			#TODO religious reforms amount = 3
			tributary_state_anb =  3
			all_subject_country = { NOT = { liberty_desire = 50 } }
		}
		
		effect = {
			4145 = {
				remove_province_modifier = miremaw_broken_kings_runestone
				add_province_modifier = {
					name = miremaw_restored_kings_runestone
					duration = -1
				}
			}
			change_tag = J48
			swap_non_generic_missions = yes
			change_government = monarchy
			add_government_reform = ogre_kingdom
		}
	}
}


miremaw_four = {
	slot = 4
	generic = no
	ai = yes
	potential = {
		OR = {
			tag = J32
			tag = J48
		}
	}
	has_country_shield = yes
	
	miremaw_ogre_fortifications = {
		icon = per_establish_western_defenses
		required_missions = { }
		position = 1

		provinces_to_highlight = { province_id = 4129 }
		
		trigger = {
			treasury = 50
			4129 = {
				is_core = ROOT
				owned_by = ROOT
			}
		}
		
		effect = {
			add_treasury = -50
			capital_scope = {
				add_building_construction = {
					building = fort_15th
					speed = 1
					cost = 0
				}
			}  	
		}
	}
	
	miremaw_khebur_ktar = {
		icon = mission_konkani_pirates
		required_missions = {
			miremaw_ogre_fortifications 
			miremaw_tribal_consolidation
		}
		position = 2
		
		trigger = {
			H72 = { is_neighbor_of = ROOT }
			army_size_percentage = 0.9
			if = {
				limit = { has_dlc = "Mandate of Heaven" }
				capital_scope = { has_state_edict = edict_defensive_edict }
			}
		}
		
		effect = {
			capital_scope = {
				add_province_modifier = {
					name = miremaw_khebur_ktar_mod
					duration = -1
				}
			}
			define_advisor = {
				type = commandant
				skill = 1
				cost_multiplier = 0.5
			}
		}
	}
	
	miremaw_grand_feast = {
		icon = mission_feast
		required_missions = { miremaw_khebur_ktar }
		position = 3
		
		provinces_to_highlight = {
			area = amldihr_area
			NOT = { owned_by = ROOT }
			NOT = { is_core = ROOT }
		}
		
		trigger = {
			amldihr_area = {
				type = all
				owned_by = ROOT
				is_core = ROOT
			}
		}
		
		effect = {
			country_event = { id = flavor_miremaw.5 }
		}
	}
	
	miremaw_subjugate_depths = {
		icon = mission_underground_cave
		required_missions = { miremaw_grand_feast }
		position = 4
		
		trigger = {
			army_size = 30
			manpower_percentage = 0.5
		}
		
		effect = {
			custom_tooltip = miremaw_subjugate_tt
			hidden_effect = {
				add_country_modifier = {
					name = miremaw_subjugate_depths_reward
					duration = 36500
					hidden = yes
				}
			}
		}	
	}
	
	miremaw_riches_of_mountains = {
		icon = mission_have_two_subjects
		required_missions = { miremaw_subjugate_depths }
		position = 5
		
		provinces_to_highlight = {
			province_group = hold_province
			NOT = { owned_by = ROOT }
		}
		trigger = {
			#TODO religious reform passed
			tributary_state_anb = 3
			any_subject_country = { any_owned_province = { province_group = hold_province } }
		}
		
		effect = { miremaw_count_subjects_effect = yes }
	}

	miremaw_cave_ferns = {
		icon = mission_globlin
		required_missions = {
			miremaw_riches_of_mountains
			miremaw_miners_of_mountains
		}
		position = 7

		provinces_to_highlight = {
			area = amldihr_area
			NOT = { province_id = 4119 }
			NOT = { development = 10 }
		}

		trigger = {
			high_tolerance_goblin_race_trigger = yes
			any_subject_country = {
				AND = {
					culture_group = goblin
					NOT = { liberty_desire = 50 }
				}
			}
			amldihr_area = {
				type = all
				OR = {
					NOT = { province_id = 4119 }
					development = 10
				}
			}
		}

		effect = {
			4122 = { change_culture = cave_goblin }
			4128 = { change_culture = cave_goblin }
			4149 = { change_culture = cave_goblin }
			add_accepted_culture = cave_goblin
		}
	}
}

miremaw_five = {
	slot = 5
	generic = no
	ai = yes
	potential = {
		OR = {
			tag = J32
			tag = J48
		}
	}
	has_country_shield = yes

	miremaw_miners_of_mountains = {
		icon = mission_dwarf_close_up
		required_missions = { miremaw_riches_of_mountains }
		position = 6

		provinces_to_highlight = { province_id = 4119 } #Amldihr (Amartaathall)

		trigger = {
			any_subject_country = {
				AND = {
					culture_group = dwarven
					NOT = { liberty_desire = 50 }
				}
			}
			4119 = { hold_condition = { Repaired = yes } }
			#TODO 2 religious reforms passed
			
		}

		effect = { country_event = { id = flavor_miremaw.6 } }
	}


	miremaw_precious_minerals = {
		icon = mission_african_gold
		required_missions = { miremaw_miners_of_mountains }
		position = 7

		provinces_to_highlight = {
			AND = {
				OR = {
					trade_goods = gold
					trade_goods = mithril
				}
				NOT = { owned_by = ROOT }
				NOT = { owned_by_subject_of = ROOT }
			}
		}

		trigger = {
			num_of_provinces_owned_or_owned_by_subjects_with = {
				OR = {
					trade_goods = gold
					trade_goods = mithril
				}
				value = 4
			}
		}

		effect = {
			add_country_modifier = {
				name = miremaw_influx_of_wealth
				duration = 9125 # 25 years
			}
			define_advisor = {
				type = natural_scientist
				skill = 2
				cost_multiplier = 0.5
			}
			if = {
				limit = { NOT = { has_country_flag = miremaw_ate_dwarves } }
				small_increase_of_dwarven_tolerance_effect = yes
			}			
		}
	}
}

vrilbesh_one = {
	slot = 1
	generic = no
	ai = yes
	potential = { tag = J48 }
	has_country_shield = yes
	
	miremaw_settling_pass = {
		icon = mission_alone_in_the_forest_2
		required_missions = { miremaw_hegemon_of_pass }
		position = 10
		
		provinces_to_highlight = {
			province_id = 4182 #Sashkras
			OR = {
				NOT = { development = 10 }
				NOT = { num_of_buildings_in_province = 3 }
				NOT = { has_fort_building_trigger = yes }
				NOT = { province_has_center_of_trade_of_level = 2 }
			}
		}

		trigger = {
			4182 = {
				development = 10
				num_of_buildings_in_province = 3
				has_fort_building_trigger = yes
				province_has_center_of_trade_of_level = 2
			}
			calc_true_if = {
				amount = 4
				northern_pass_region = {
					NOT = { province_id = 4182 }
					development = 10
					num_of_buildings_in_province = 2
				}
			}
		}
		
		effect = {
			4182 = {
				add_province_modifier = { 
					name = miremaw_khebur_ktar_mod
					duration = -1
				}
				change_culture = mossmouth_ogre
				change_religion = feast_of_the_gods
			}
			northern_pass_region = {
				limit = {
					NOT = { province_id = 4182 }
					development = 10
					num_of_buildings_in_province = 2
				}
				add_province_modifier = { 
					name = miremaw_ogre_settlement
					duration = -1
				}
				change_culture = mossmouth_ogre
				change_religion = feast_of_the_gods
				
			}
		}
	}
	
	miremaw_northern_bulwark = {
		icon = claim_the_borderlands
		required_missions = {
			miremaw_settling_pass 
			miremaw_end_of_gray_kingdom
		}
		position = 11
		
		provinces_to_highlight = {
			OR = {
				area = gifrbygd_area
				area = esfjall_area
			}
			NOT = { is_core = ROOT }
			OR = {
				province_id = 984 #Urviksten
				province_id = 2832 #Nednvidr
				NOT = { has_fort_building_trigger = yes }
				NOT = { has_manpower_building_trigger = yes }
			}
		}
		
		trigger = {
			gifrbygd_area = {
				type = all
				owned_by = ROOT
				is_core = ROOT
			}
			esfjall_area = {
				type = all
				owned_by = ROOT
				is_core = ROOT
			}
			984 = { 
				has_fort_building_trigger = yes
				has_manpower_building_trigger = yes
			}
			2832 = { 
				has_fort_building_trigger = yes
				has_manpower_building_trigger = yes
			}
		}
		
		effect = {
			984 = {
				change_culture = mossmouth_ogre
				change_religion = feast_of_the_gods
				add_province_modifier = {
					name = miremaw_ogre_settlement
					duration = -1
				}
			}
			2832 = {
				change_culture = mossmouth_ogre
				change_religion = feast_of_the_gods
				add_province_modifier = { 
					name = miremaw_ogre_settlement
					duration = -1
				}
			}
		}
	}
}

vrilbesh_two = {
	slot = 2
	generic = no
	ai = yes
	potential = { tag = J48 }
	has_country_shield = yes
	
	miremaw_hegemon_of_pass = {
		icon = spa_new_capital
		required_missions = { miremaw_eastern_kingdom }
		position = 9

		provinces_to_highlight = {
			AND = {
				region = northern_pass_region
				NOT = { owned_by = ROOT }
				is_city = yes
			}
			6173 = { has_fort_building_trigger = no }  #Hjyrtsikki
			4176 = { has_fort_building_trigger = no }  #Logr's End (Krotamotsa)
			4174 = { has_fort_building_trigger = no }  #Khugsland (Morzghnakav)
		}
		
		trigger = {
			northern_pass_region = {
				type = all
				OR = {
					owned_by = ROOT
					is_city = no
				}
			}
			6173 = { has_fort_building_trigger = yes }
			4176 = { has_fort_building_trigger = yes }
			4174 = { has_fort_building_trigger = yes }
		}
		
		effect = {
			northern_giants_tears_area = {
				add_permanent_claim = ROOT
				discover_country = ROOT
			}
			southern_giants_tears_area = {
				add_permanent_claim = ROOT
				discover_country = ROOT
			}
			vrorenmarch_area = {
				add_permanent_claim = ROOT
				discover_country = ROOT
			}
			vrorenwall_area = {
				add_permanent_claim = ROOT
				discover_country = ROOT
			}
		}
	}
	
	miremaw_end_of_gray_kingdom = {
		icon = mission_protect_white_sea_trade
		required_missions = { miremaw_hegemon_of_pass }
		position = 10

		provinces_to_highlight = {
			OR = {
				area = northern_giants_tears_area
				area = southern_giants_tears_area
				area = vrorenwall_area
				area = vrorenmarch_area
			}	
			NOT = { owned_by = ROOT }
			NOT = { is_core = ROOT }
			if = {
				limit = { area = vrorenmarch_area }
				NOT = { has_state_edict = edict_centralization_effort }
			}		
		}
		
		trigger = {
			northern_giants_tears_area = {
				type = all
				owned_by = ROOT
				is_core = ROOT
			}
			southern_giants_tears_area = {
				type = all
				owned_by = ROOT
				is_core = ROOT
			}
			vrorenwall_area = {
				type = all
				owned_by = ROOT
				is_core = ROOT
			}
			vrorenmarch_area = {
				type = all
				owned_by = ROOT
				is_core = ROOT
				IF = {
					limit = { has_dlc = "Mandate of Heaven" }
					has_state_edict = edict_centralization_effort
				}	
			}
			AND = {
				Z50 = { is_great_power = no }
				Z18 = { is_great_power = no }
			}
		}
		
		effect = { country_event = { id = flavor_miremaw.7 } }
	}
	
	miremaw_dominance_in_reach = {
		icon = mission_rb_cod_wars
		required_missions = { miremaw_end_of_gray_kingdom }
		position = 11
		
		provinces_to_highlight = {
			OR = {
				area = cedesck_area
				area = gulletpeak_area
				area = wudhal_area
				area = east_chillsbay_area
				area = sondaar_area
			}	
			unrest = 1
			NOT = { owned_by = ROOT }
			NOT = { is_core = ROOT }
		}
		
		trigger = {
			cedesck_area = {
				type = all
				NOT = { unrest = 0 }
				owned_by = ROOT
				is_core = ROOT
			}
			gulletpeak_area = {
				type = all
				NOT = { unrest = 0 }
				owned_by = ROOT
				is_core = ROOT
			}
			wudhal_area = {
				type = all
				NOT = { unrest = 0 }
				owned_by = ROOT
				is_core = ROOT
			}
			east_chillsbay_area = {
				type = all
				NOT = { unrest = 0 }
				owned_by = ROOT
				is_core = ROOT
			}
			sondaar_area = {
				type = all
				NOT = { unrest = 0 }
				owned_by = ROOT
				is_core = ROOT
			}
		}
		
		effect = {
			add_country_modifier = {
				name = miremaw_western_reach
				duration = -1
			}
		}
	}
	
	miremaw_new_power_in_north = {
		icon = mission_missive
		required_missions = {
			miremaw_northern_bulwark
			miremaw_dominance_in_reach
		}

		position = 12
		
		trigger = {
			calc_true_if = {
				amount = 2
				all_known_country = {
					capital_scope = { continent = europe }
					has_opinion_modifier = {
						who = ROOT
						modifier = warned
					}
				}
			}
			OR = {
				any_known_country = {
					capital_scope = { continent = europe }
					is_great_power = yes
					has_been_insulted_by_root = yes
					NOT = { army_size = ROOT }
				}
				AND = {
					NOT = { great_power_rank = 5 }
					NOT = {
						any_country = {
							capital_scope = { continent = europe }
							is_great_power = yes
						}
					}
				}
			}
			
		}
		
		effect = {
			add_power_projection = {
				type = mission_rewards_power_projection
				amount = 20
			}
			every_country = {
				limit = {
					capital_scope = { continent = europe }
					has_opinion_modifier = {
						who = ROOT
						modifier = warned
					}
				}
				ROOT = {
					create_subject = {
						subject_type = tributary_state_anb
						subject = PREV
					}
				}
			}
		}
	}
}

vrilbesh_three = {
	slot = 3
	generic = no
	ai = yes
	potential = { tag = J48 }
	has_country_shield = yes
	
	miremaw_pipe_works = {
		icon = mission_smith
		required_missions = { miremaw_eastern_kingdom }
		position = 9
		
		provinces_to_highlight = {
			AND = {
				area = amldihr_area
				NOT = { hold_condition = { Repaired = yes } }
			}
		}
		
		trigger = {
			high_tolerance_goblin_race_trigger = yes
			amldihr_area = {
				type = all
				hold_condition = { Repaired = yes}
			}
			treasury = 500
			OR = {
				serpents_vale_region = {
					type = all
					is_prosperous = yes
				}
				AND = {
					mil_power = 100
					adm_power = 100
					dip_power = 100
				}
			}
		}
		
		effect = { country_event = { id = flavor_miremaw.8 } }
	}
	
	miremaw_shevril_mozob = {
		icon = mission_misty_forest
		required_missions = { miremaw_pipe_works }
		position = 10
		
		trigger = {
			custom_trigger_tooltip = {
				tooltip = miremaw_shevril_mozob_tt
				calc_true_if = {
					amount = 2
					has_country_flag = miremaw_piping_north_done
					has_country_flag = miremaw_piping_south_done
					has_country_flag = miremaw_piping_east_done
					has_country_flag = miremaw_piping_west_done
				}
			}
		}
		
		effect = {
			add_country_modifier = {
				name = miremaw_shevril_mozob_mod
				duration = -1
			}
			4145 = {
				remove_province_modifier = miremaw_restored_kings_runestone
				add_province_modifier = {
					name = miremaw_grand_kings_runestone
					duration = -1
				}
			}
			add_stability = 1
		}
	}
	
	miremaw_our_roots = {
		icon = mission_green_village
		required_missions = {
			miremaw_end_of_gray_kingdom
			miremaw_shevril_mozob
			miremaw_fall_of_magharma
		}
		position = 11

		provinces_to_highlight = { province_id = 249 } # Bal Mire
		
		trigger = {
			249 = {
				owner = {
					has_been_insulted_by_root = yes
					trade_embargo_by = ROOT
					NOT = { mil_tech_is_inferior = { tag = ROOT } }
					ROOT = { army_size = PREV }
				}
			}
			#TODO Religion reformed
		}
		
		effect = {
			balmire_area = { add_permanent_claim = ROOT }
			middle_alen_area = { add_permanent_claim = ROOT }
			cannwood_area = { add_permanent_claim = ROOT }
			athfork_area = { add_permanent_claim = ROOT }
			ebonmarck_area = { add_permanent_claim = ROOT }
		}
	}
	
	miremaw_home_in_west = {
		icon = mission_secure_khandesh
		required_missions = { miremaw_our_roots }
		position = 12
		
		provinces_to_highlight = {	
			area = balmire_area
			NOT = { is_core = ROOT }
			NOT = { owned_by = ROOT }
			devastation = 0.5
			NOT = { development = 10 }
			OR = {
				province_id = 249
				has_fort_building_trigger = no
				NOT = { province_has_center_of_trade_of_level = 2 }
			}
		}
		
		trigger = {
			balmire_area = {
				type = all
				is_core = ROOT
				owned_by = ROOT
				NOT = { devastation = 0.5 }
				development = 10
			}
			249 = {
				AND = {
					has_fort_building_trigger = yes
					province_has_center_of_trade_of_level = 2
				}
			}
		}
		
		effect = {
			balmire_area = {
				change_religion = feast_of_the_gods
				change_culture = mossmouth_ogre
				add_province_modifier = {
					name = miremaw_swamp_stewards
					duration = -1
				}
			}
			249 = {
				add_province_modifier = {
					name = miremaw_khebur_ktar_mod
					duration = -1
				}
			}
		}
	}

	miremaw_modern_ogre_empire = {
		icon = mission_empire
		required_missions = { 
			miremaw_new_power_in_north
			miremaw_home_in_west
			miremaw_ogre_mountains
		}
		position = 13

		trigger = {
			is_lacking_institutions = no
			stability = 2
			num_of_subjects = 12
			all_subject_country = { NOT = { liberty_desire = 50 } }
			all_known_country = {
				capital_scope = { continent = europe }
				NOT = { total_development = ROOT }
			}
		}

		effect = { country_event = { id = flavor_miremaw.10 } }
	}
}

vrilbesh_four = {
	slot = 4
	generic = no
	ai = yes
	potential = { tag = J48 }
	has_country_shield = yes
	
	miremaw_exerting_our_influence = {
		icon = mission_build_up_to_force_limit
		required_missions = { miremaw_eastern_kingdom }
		position = 9
		
		provinces_to_highlight = {
			AND = {
				region =  yyl_moista_region
				NOT = {
					AND = {
						owned_by = ROOT
						is_core = ROOT
					}
				}
			}
		}

		trigger = {
			calc_true_if = {
				amount = 6
				all_owned_province = {
					AND = {
						region = yyl_moista_region
						is_core = ROOT
						owned_by = ROOT
					}
				}
			}
			OR = {
				custom_trigger_tooltip = {
					tooltip = miremaw_exerting_influence_tt
					AND = {
						calc_true_if = {
							amount = 2
							all_known_country = {
								AND = {
									capital_scope = { region = ogre_valley_region }
									has_opinion = {
										who = ROOT
										value = 150
									}
								}
							}
						}
						if = {
							limit = { I90 = { exists = yes } }
							I90 = { has_been_insulted_by_root = yes }
						}
					}
				}
				custom_trigger_tooltip = {
					tooltip = miremaw_exerting_infuence_2_tt
					NOT = {
						calc_true_if = {
							amount = 2
							all_known_country = {
								AND = {
									NOT = { culture_group = ogre }
									NOT = { capital_scope = { region = ogre_valley_region } }
								}
							}
						}
					}
				}
			}
		}
		
		effect = {
			custom_tooltip = miremaw_ogre_valley_tt
			custom_tooltip = miremaw_ogre_tributaries_tt
			hidden_effect = {
				every_known_country = {
					IF = {
						limit = {
							capital_scope = { region = ogre_valley_region }
							has_opinion = {
								who = ROOT
								value = 100
							}
						}
						grant_independence = yes
						ROOT = {
							create_subject = {
								subject_type = tributary_state_anb
								who = PREV
							}
						}
						
					}
				}
				add_country_modifier = {
					name = miremaw_exerting_our_influence_reward
					duration = 36500 #100 years
					hidden = yes
				}
			}
			
			IF = {
				limit = {
					NOT = {
						calc_true_if = {
							amount = 2
							all_known_country = { capital_scope = { region = ogre_valley_region } }
						}
					}
				}
				ogre_valley_region = { add_permanent_claim = ROOT }
			}
		}
	}
	
	miremaw_fall_of_magharma = {
		icon = mission_destroyed_city
		required_missions = { miremaw_exerting_our_influence }
		position = 10
		

		provinces_to_highlight = {
			province_id = 5037 #Magharma
			NOT = { 
				OR = { 
					owned_by_subject_of = ROOT 
					owned_by = ROOT
				}
			}
		}
		
		trigger = {
			owns_or_subject_of = 5037
			OR = {
				custom_trigger_tooltip = {
					tooltip = miremaw_fall_of_magharma_tt
					all_known_country = {
						if = {
							limit = { capital_scope = { region = ogre_valley_region } }
							is_subject_of = ROOT
							is_subject_of_type = tributary_state_anb
							NOT = { liberty_desire = 50 }
						}
					}
				}
				
				calc_true_if = {
					amount = 13
					all_owned_province = { region = ogre_valley_region }
				}
			}
		}
		
		effect = {
			5037 = {
				add_devastation = 50
				add_base_tax = -2
				add_base_production = -2
				add_base_manpower = -2
			}
			capital_scope = {
				add_base_tax = 1
				add_base_production = 1
				add_base_manpower = 1
			}
			add_treasury = 250
			add_country_modifier = {
				name = miremaw_lord_of_ogres
				duration = -1
			}
		}
	}
	
	miremaw_ogre_mountains = {
		icon = mission_war_chest
		required_missions = {
			miremaw_fall_of_magharma
			miremaw_exploiting_new_deposits
		}
		position = 12
		
		provinces_to_highlight = {
			region = west_dwarovar_region
			NOT = { 
				OR = {
					owned_by = ROOT
					owned_by_subject_of = ROOT
				}
			}
		}
		
		trigger = {			
			num_of_provinces_owned_or_owned_by_subjects_with = {
				value = 95
				region = west_dwarovar_region
			}
			calc_true_if = {
				amount = 6
				all_subject_country = { capital_scope = { region = west_dwarovar_region } }
			}
		}
		
		effect = {
			add_treasury = 1000
			add_adm_power = 100
			add_dip_power = 100
			add_mil_power = 100
			add_prestige_excess_to_splendour_effect = { VAL = 100 }
			add_country_modifier = {
				name = miremaw_ruler_of_depths
				duration = -1
			}
		}
	}
}

vrilbesh_five = {
	slot = 5
	generic = no
	ai = yes
	potential = { tag = J48 }
	has_country_shield = yes
	
	miremaw_consolidating_our_belongings = {
		icon = mission_armoury
		required_missions = {
			miremaw_eastern_kingdom
			miremaw_precious_minerals
		}
		position = 9

		provinces_to_highlight = {
			AND = {
				province_id = 2931 #Er-Natvir
				NOT = { 
					OR = {
						owned_by = ROOT
						owned_by_subject_of = ROOT
					}
				}
			}
			AND = {
				province_id = 2863 #Khugdihr
				NOT = { 
					OR = {
						owned_by = ROOT
						owned_by_subject_of = ROOT
					}
				}
			}
		}
		
		trigger = {
			owns_or_subject_of = 2931
			owns_or_subject_of = 2863
			num_of_provinces_owned_or_owned_by_subjects_with = {
				value = 15
				has_terrain = dwarven_road
			}
		}
		
		effect = {
			custom_tooltip = miremaw_consolidating_tt
			hidden_effect = {
				count_holds_in_tributaries_effect = yes		
				for_variable_amount = {
					variable = tributary_hold_count
					effect = "
						ROOT = {
							add_adm_power = 10
							add_dip_power = 10
							add_mil_power = 10
							add_treasury = 100
						}"
				}
			}
			add_country_modifier = {
				name = miremaw_centralizing_control
				duration = 9125 #25 years
			}
		}
	}
	
	miremaw_transporting_goods = {
		icon = mission_rail
		required_missions = { miremaw_consolidating_our_belongings }
		position = 10

		provinces_to_highlight = {
			OR = {
				province_id = 2933
				province_id = 4121
				province_id = 4120
				province_id = 2992
			}
			NOT = { owned_by = ROOT }
		}
		
		trigger = {
			custom_trigger_tooltip = {
				tooltip = miremaw_transporting_tt
				num_of_provinces_owned_or_owned_by_subjects_with = {
					value = 4
					OR = {
						has_province_modifier = dig_2
						has_province_modifier = dig_3
						has_province_modifier = dig_4
						has_province_modifier = dig_5
						has_province_modifier = dig_6
						has_province_modifier = dig_7
						has_province_modifier = dig_8
						has_province_modifier = dig_9
						has_province_modifier = dig_10
					}
				}
			}
			2933 = {
				AND = {
					OR = {
						owned_by = ROOT
						AND = {
							owner = { is_subject_of = ROOT }
							owner = { is_subject_of_type = tributary_state_anb }
						}
					}
					development = 5
				}
			}
			2992 = {
				AND = {
					OR = {
						owned_by = ROOT
						AND = {
							owner = { is_subject_of = ROOT }
							owner = { is_subject_of_type = tributary_state_anb }
						}
					}
					development = 5
				}
			}
			4121 = {
				AND = {
					owned_by = ROOT
					development = 5
				}
			}
			4120 = {
				AND = {
					owned_by = ROOT
					development = 5
				}
			}
		}
		
		effect = {
			2933 = {
				remove_province_modifier = dwarovar_rail
				add_province_modifier = {
					name = restored_rail
					duration = -1
				}
			}
			2992 = {
				remove_province_modifier = dwarovar_rail
				add_province_modifier = {
					name = restored_rail
					duration = -1
				}
			}
			4121 = {
				remove_province_modifier = dwarovar_rail
				add_province_modifier = {
					name = restored_rail
					duration = -1
				}
			}
			4120 = {
				remove_province_modifier = dwarovar_rail
				add_province_modifier = {
					name = restored_rail
					duration = -1
				}
			}
			4119 = {
				add_province_modifier = {
					name = miremaw_major_goods_stockpile
					duration = -1
				}
			}
		}
	}

	miremaw_exploiting_new_deposits = {
		icon = mission_dalaskogen
		required_missions = { miremaw_transporting_goods }
		position = 9

		provinces_to_highlight = {
			region = west_dwarovar_region
			has_terrain = cavern
		}
		
		trigger = {
			num_of_provinces_owned_or_owned_by_subjects_with = {
				value = 25
				has_terrain = cavern
			}
			num_of_provinces_owned_or_owned_by_subjects_with = {
				value = 10
				AND = {
					has_terrain = cavern
					development = 5
					num_of_buildings_in_province = 1
				}
			}
		}
		
		effect = { country_event = { id = flavor_miremaw.9 } }
	}
}
