H84_column_1 = {
	slot = 1
	generic = no
	ai = yes
	potential = {
		tag = H84
	}
	has_country_shield = yes
	H84_watch_the_throne = {
		icon = mission_underground_cave
		required_missions = {}
		position = 1
		provinces_to_highlight = {
			province_id = 2933
		}
		trigger = {
			2933 = {
				owned_by = ROOT
			}
			army_size_percentage = 0.8
		}
		effect = {
			amldihr_area = {
				discover_country = ROOT
				add_permanent_claim = ROOT
			}
			add_country_modifier = {
				name = H84_deadly_glare
				duration = 9125
			}
		}
	}
	H84_shatter_the_crown = {
		icon = mission_treasure_room
		required_missions = {
			H84_watch_the_throne
			H84_last_sons_of_glozok
		}
		position = 2
		provinces_to_highlight = {
			area = amldihr_area
		}
		trigger = {
			amldihr_area = {
				type = all
				country_or_subject_holds = ROOT
			}
			4236 = {
				development = 40
			}
		}
		effect = {
			4147 = {
				discover_country = ROOT
				add_permanent_claim = ROOT
			}
			4236 = {
				add_province_modifier = {
					name = H84_crown_usurped
					duration = 9125
				}
			}
			amldihr_area = {
				add_province_modifier = {
					name = H84_thronebroken
					duration = 9125
				}
			}
		}
	}
	H84_foundry_of_the_west = {
		icon = mission_smith
		required_missions = {
			H84_shatter_the_crown
		}
		position = 3
		provinces_to_highlight = {
			province_id = 4147
		}
		trigger = {
			4147 = {
				is_core = ROOT
				hold_condition = { Repaired = yes }
				development = 25
			}
		}
		effect = {
			add_country_modifier = {
				name = H84_lords_of_war
				duration = 10950
			}
			dagrinrod_7_9_area = {
				discover_country = ROOT
				add_permanent_claim = ROOT
			}
			orlazam_area = {
				limit = {
					NOT = {
						is_core = ROOT
					}
				}
				discover_country = ROOT
				add_permanent_claim = ROOT
			}
			4147 = {
				change_culture = ROOT
				change_religion = ROOT
			}
		}
	}
	H84_teeth_and_steel = {
		icon = mission_armor_choice
		required_missions = {
			H84_foundry_of_the_west
		}
		position = 4
		provinces_to_highlight = {
			province_id = 4147
		}
		trigger = {
			treasury = 500
			4147 = {
				has_manpower_building_trigger = yes
				OR = {
					has_production_building_trigger = yes
					trade_goods = gold
				}
				base_manpower = 15
			}
		}
		effect = {
			country_event = {
				id = mountainshark_events.6
			}
			add_treasury = -500
			4147 = {
				if = {
					limit = {
						NOT = { 
							trade_goods = mithril
							trade_goods = gold
							trade_goods = iron
						}
					}
					change_trade_goods = iron
				}
			}
		}
	}
	H84_grandest_of_lines = {
		icon = mission_door_trade
		required_missions = {
			H84_teeth_and_steel
			H84_demand_competence
		}
		position = 5
		provinces_to_highlight = {
			OR = {
				province_id = 4147
				province_id = 2933
				province_id = 2873
				area = dagrinrod_7_9_area
				province_id = 2996
				province_id = 2997
			}
		}
		trigger = {
			4147 = {
				province_has_current_tech_fort_trigger = yes
			}
			custom_trigger_tooltip = {
				tooltip = mountainshark_grandest_of_lines_trigger_dwarovrod_tt
				2933 = {
					is_core = ROOT
				}
				2873 = {
					is_core = ROOT
				}
			}
			custom_trigger_tooltip = {
				tooltip = mountainshark_grandest_of_lines_trigger_dagrinrod_tt
				dagrinrod_7_9_area = {
					type = all
					is_core = ROOT
				}
				2996 = {
					is_core = ROOT
				}
				2997 = {
					is_core = ROOT
				}
			}
			num_of_owned_provinces_with = {
				value = 5
				has_terrain = dwarven_road
				num_of_buildings_in_province = 1
			}
		}
		effect = {
			add_dip_power = 100
			4236  = {
				add_prosperity = 50
			}
			4147 = {
				add_prosperity = 50
			}
			custom_tooltip = mountainshark_grandest_of_lines_effect_tt
			hidden_effect = {
				2933 = {
					add_permanent_province_modifier = {
						name = H84_shark_rails
						duration = -1
					}
				}
				2873 = {
					add_permanent_province_modifier = {
						name = H84_shark_rails
						duration = -1
					}
				}
				dagrinrod_7_9_area = {
					add_permanent_province_modifier = {
						name = H84_shark_rails
						duration = -1
					}
				}
				2996 = {
					add_permanent_province_modifier = {
						name = H84_shark_rails
						duration = -1
					}
				}
				2997 = {
					add_permanent_province_modifier = {
						name = H84_shark_rails
						duration = -1
					}
				}
			}
		}
	}
}
H84_column_1_2 = {
	slot = 1
	generic = no
	ai = yes
	potential = {
		tag = H84
		has_country_flag = mountainshark_post_embers
	}
	has_country_shield = yes
	H84_troll_battered_mithril = {
		icon = mission_armoury
		required_missions = {
			H84_embers_of_the_great_shark
		}
		position = 8
		provinces_to_highlight = {
			OR = {
				area = orlazam_area
				area = old_dagrinrod_area
			}
		}
		trigger = {
			4147 = {
				development = 40
			}
			orlazam_area = {
				type = all
				is_core = ROOT
			}
			old_dagrinrod_area = {
				type = all
				is_core = ROOT
			}
			OR = {
				fortification_expert = 3
				natural_scientist = 3
			}
		}
		effect = {
			country_event = {
				id = mountainshark_events.12
			}
		}
	}
	H84_goblin_gourmands = {
		icon = mission_dominate_persian_gulf
		required_missions = {
			H84_troll_battered_mithril
		}
		position = 9
		provinces_to_highlight = {
			area = old_dagrinrod_area
		}
		trigger = {
			has_country_modifier = racial_focus_troll
			old_dagrinrod_area = {
				type = all
				development = 10
			}
			num_of_owned_provinces_with = {
				value = 4
				OR = {
					trade_goods = serpentbloom
					trade_goods = fungi
					trade_goods = livestock
					trade_goods = grain
				}
				has_manufactory_trigger = yes
			}
		}
		effect = {
			medium_increase_of_troll_tolerance_effect = yes
			add_country_modifier = {
				name = H84_serpentbloom_and_onion_soup
				duration = 18250
			}
			serpents_vale_region = {
				limit = {
					NOT = {
						is_core = ROOT
					}
				}
				add_permanent_claim = ROOT
			}
		}
	}
	H84_favored_giantkin = {
		icon = mission_alone_in_the_wood
		required_missions = {
			H84_goblin_gourmands
		}
		position = 11
		provinces_to_highlight = {
			region = serpents_vale_region
		}
		trigger = {
			high_tolerance_troll_race_trigger = yes
			OR = {
				any_owned_province = {
					OR = {
						culture = forest_troll
						area = hjyrtsikki_area
						area = fyllstyn_area
					}
				}
				any_known_country = {
					any_owned_province = {
						OR = {
							culture = forest_troll
							area = hjyrtsikki_area
							area = fyllstyn_area
						}
					}
					has_spy_network_from = {
						who = ROOT
						value = 50
					}
				}
			}
			serpents_vale_region = {
				type = all
				is_core = ROOT
			}
		}
		effect = {
			custom_tooltip = mountainshark_favored_giantkin_event_tt
			hidden_effect = { set_country_flag = mountainshark_seeking_the_giants }
			define_advisor = {
				type = grand_captain
				skill = 3
				discount = yes
				culture = forest_troll
				religion = mountain_watchers
			}
			unlock_merc_company = {
				merc_company = merc_mountainshark_giantsharks
			}
		}
	}
	H84_mega_foundry = {
		icon = mission_mithril_cannons
		required_missions = {
			H84_favored_giantkin
			H84_commission_mega_works
		}
		position = 12
		provinces_to_highlight = {
			province_id = 4147
		}
		trigger = {
			treasury = 3000
			manpower = 10
			OR = {
				army_tradition = 60
				army_professionalism = 0.3
			}
			4147 = {
				num_of_units_in_province = {
					amount = 10
					type = artillery
					who = ROOT
				}
				has_dwarven_hold_3 = yes 
			}
		}
		effect = {
			country_event = {
				id = mountainshark_events.20
			}
			add_treasury = -3000
			add_manpower = -10
		}
	}
}

H84_column_2 = {
	slot = 2
	generic = no
	ai = yes
	potential = {
		tag = H84
	}
	has_country_shield = yes
	H84_the_new_colossus = {
		icon = mission_mountain_castle
		required_missions = {
			H84_last_sons_of_glozok
		}
		position = 2
		provinces_to_highlight = {
			area = mithradhum_area
		}
		trigger = {
			mithradhum_area = {
				type = all
				is_core = ROOT
			}
		}
		effect = {
			add_dip_power = -100
			add_country_modifier = {
				name = H84_searching_for_kin
				duration = 18250
			}
			mithradhum_area = {
				random_list = {
					33 = { add_base_manpower = 1 }
					33 = { add_base_tax = 1 }
					33 = { add_base_production = 1 }
				}
				add_permanent_province_modifier = {
					name = H84_influx_of_voolkaru
					duration = -1
				}
			}

		}
	}
	H84_bootstrapping_the_forges = {
		icon = mission_state_manufactories
		required_missions = {
			H84_shatter_the_crown
			H84_the_new_colossus
		}
		position = 3
		provinces_to_highlight = {
			province_id = 4236
		}
		trigger = {
			treasury = 500
			4236 = {
				has_production_building_trigger = yes
				base_production = 25
				has_dwarven_hold_2 = yes 
			}
		}
		effect = {
			country_event = {
				id = mountainshark_events.4
			}
			add_treasury = -500
		}
	}
	H84_demand_competence = {
		icon = mission_approach_throne
		required_missions = {
			H84_bootstrapping_the_forges
			H84_grant_scrap_commissions
		}
		position = 4
		provinces_to_highlight = {
			area = mithradhum_area
		}
		trigger = {
			is_at_war = no
			stability = 2
			innovativeness = 10
			4236 = {
				province_has_current_tech_fort_trigger = yes
			}
			if = {
				limit = {
					government = tribal
				}
				estate_loyalty = {
					estate = estate_monstrous_tribes
					loyalty = 60
				}
			}
			else_if = {
				limit = { is_technocracy = no }
				estate_loyalty = {
					estate = estate_nobles
					loyalty = 60
				}
			}
		}
		effect = {
			add_stability = -1
			4236 = {
				remove_province_modifier = H84_influx_of_voolkaru
				add_permanent_province_modifier = {
					name = H84_shining_citizenry
					duration = -1
				}
			}
			4050 = {
				remove_province_modifier = H84_influx_of_voolkaru
				add_permanent_province_modifier = {
					name = H84_flood_of_voolkaru
					duration = -1
				}
				random_list = {
					33 = { add_base_manpower = 1 }
					33 = { add_base_tax = 1 }
					33 = { add_base_production = 1 }
				}
			}
			4052 = {
				remove_province_modifier = H84_influx_of_voolkaru
				add_permanent_province_modifier = {
					name = H84_flood_of_voolkaru
					duration = -1
				}
				random_list = {
					33 = { add_base_manpower = 1 }
					33 = { add_base_tax = 1 }
					33 = { add_base_production = 1 }
				}
			}
			4053 = {
				remove_province_modifier = H84_influx_of_voolkaru
				add_permanent_province_modifier = {
					name = H84_flood_of_voolkaru
					duration = -1
				}
				random_list = {
					33 = { add_base_manpower = 1 }
					33 = { add_base_tax = 1 }
					33 = { add_base_production = 1 }
				}
			}
		}
	}
	H84_raise_the_alloy_shanties = {
		icon = mission_iron_and_copper
		required_missions = {
			H84_demand_competence
		}
		position = 5
		provinces_to_highlight = {
			OR = {
				province_id = 4050
				province_id = 4052
				province_id = 4053
			}
		}
		trigger = {
			manpower = 10
			4050 = {
				development = 10
				OR = {
					has_production_building_trigger = yes
					trade_goods = gold
				}
			}
			4052 = {
				development = 10
				OR = {
					has_production_building_trigger = yes
					trade_goods = gold
				}
			}
			4053 = {
				development = 10
				OR = {
					has_production_building_trigger = yes
					trade_goods = gold
				}
			}
		}
		effect = {
			country_event = {
				id = mountainshark_events.10
			}
			add_manpower = -10
			4050 = {
				add_devastation = 10
			}
			4052 = {
				add_devastation = 10
			}
			4053 = {
				add_devastation = 10
			}
		}
	}
	H84_council_of_fire = {
		icon = mission_fire_of_london
		required_missions = {
			H84_grandest_of_lines
			H84_raise_the_alloy_shanties
			H84_meritokratic_kartels
		}
		position = 6
		provinces_to_highlight = {
			owned_by = ROOT
			OR = {
				has_terrain = dwarven_hold
				has_terrain = dwarven_hold_surface
			}
			NOT = {
				OR = {
					has_production_building_trigger = yes
					trade_goods = gold
				}
			}
		}
		trigger = {
			treasury = 400
			trading_bonus = {
				trade_goods = mithril
				value = yes
			}
			4236 = {
				has_dwarven_hold_4 = yes
				NOT = {
					has_construction = building
				} 
			}
			4147 = {
				NOT = {
					has_construction = building
				}
			}
			custom_trigger_tooltip = {
				tooltip = mountainshark_all_holds_workshop_tt
				all_owned_province = {
					if = {
						limit = {
							OR = {
								has_terrain = dwarven_hold
								has_terrain = dwarven_hold_surface
							}
						}
						OR = {
							has_production_building_trigger = yes
							trade_goods = gold
						}
					}
				}
			}
		}
		effect = {
			add_treasury = -400
			define_advisor = {
				type = natural_scientist
				skill = 3
				discount = yes
			}
			4236 = {
				add_building_construction = {
					building = counting_house
					cost = 0
				}
			}
			if = {
				limit = {
					4147 = {
						NOT = {
							trade_goods = gold
						}
					}
				}
				4147 = {
					add_building_construction = {
						building = counting_house
						cost = 0
					}
				}
			}
		}
	}
}
H84_column_2_2 = {
	slot = 2
	generic = no
	ai = yes
	potential = {
		tag = H84
		has_country_flag = mountainshark_post_embers
	}
	has_country_shield = yes
	H84_explosion_of_industry = {
		icon = mission_mechanical_mining
		required_missions = {
			H84_embers_of_the_great_shark
		}
		position = 8
		provinces_to_highlight = {
			area = mithradhum_area
		}
		trigger = {
			4236 = {
				has_dwarven_hold_5 = yes
			}
			4050 = {
				development = 15
				OR = {
					has_manufactory_trigger = yes
					trade_goods = gold
				}
			}
			4052 = {
				development = 15
				OR = {
					has_manufactory_trigger = yes
					trade_goods = gold
				}
			}
			4053 = {
				development = 15
				OR = {
					has_manufactory_trigger = yes
					trade_goods = gold
				}
			}
		}
		effect = {
			4050 = {
				add_devastation = -10
				remove_province_modifier = H84_flood_of_voolkaru
				add_permanent_province_modifier = {
					name = H84_urbanized_caverns
					duration = -1
				}
			}
			4052 = {
				add_devastation = -10
				remove_province_modifier = H84_flood_of_voolkaru
				add_permanent_province_modifier = {
					name = H84_urbanized_caverns
					duration = -1
				}
			}
			4053 = {
				add_devastation = -10
				remove_province_modifier = H84_flood_of_voolkaru
				add_permanent_province_modifier = {
					name = H84_urbanized_caverns
					duration = -1
				}
			}
		}
	}
	H84_beyond_past_or_present = {
		icon = mission_science
		required_missions = {
			H84_explosion_of_industry
		}
		position = 9
		provinces_to_highlight = {
			province_id = 4236
		}
		trigger = {
			OR = {
				adm_power = 100
				innovativeness = 25
			}
			4236 = {
				NOT = {
					has_construction = building
				}
			}
			custom_trigger_tooltip = {
				tooltip = mountainshark_highest_dev_hold_west_dwarovar
				4236 = {
					higher_development_than = 2863 # Khugdihr
					higher_development_than = 2868 # Haraz Orldhum
					higher_development_than = 4122 # Verkal Vazkron
					higher_development_than = 4119 # Amldihr
					higher_development_than = 4149 # Amlharaz
					higher_development_than = 4128 # Hall of the Ancestors
					higher_development_than = 4147 # Orlazam-az-dihr
					higher_development_than = 4020 # Dur-Vazhatun
					higher_development_than = 2931 # Er-Natvir
					higher_development_than = 4056 # Verkal Kozenad
					higher_development_than = 2963 # Hul_Jorkad
				}
			}
			if = {
				limit = {
					calc_true_if = {
						all_country = {
							capital_scope = {
								region = west_dwarovar_region
							}
							NOT = { tag = ROOT }
						}
						amount = 1
					}
				}
				any_country = {
					NOT = {
						tech_difference = 1
					}
					capital_scope = {
						region = west_dwarovar_region
					}
					NOT = { tag = ROOT }
				}
			}
		}
		effect = {
			if = {
				limit = {
					NOT = {
						innovativeness = 25
					} 
				}
				add_adm_power = -100
			}
			if = {
				limit = {
					4236 = {
						has_building = university
					}
				}
				4236 = {
					add_base_tax = 2
					add_base_production = 2
					add_base_manpower = 2
				}
			}
			else = {
				4236 = {
					add_building_construction = {
						building = university
						cost = 0
					}
				}
			}
		}
	}
	H84_commission_mega_works = {
		icon = public_works
		required_missions = {
			H84_beyond_past_or_present
			H84_apex_guarentor
		}
		position = 11
		provinces_to_highlight = {}
		trigger = {
			OR = {
				crown_land_share = 60
				estate_loyalty = {
					estate = estate_artificers
					loyalty = 60
				}
			}
			num_artifice_inventions_discovered = { VAL = 3 }
		}
		effect = {
			if = {
				limit = {
					NOT = {
						has_dlc = "Leviathan"
					}
				}
				add_adm_power = 100
			}
			change_estate_land_share = {
				estate = estate_artificers
				share = 10
			}
			add_country_modifier = {
				name = H84_ambition_drunk_architects
				duration = -1
			}
		}
	}
	H84_mega_forge = {
		icon = mission_rb_build_furnaces
		required_missions = {
			H84_commission_mega_works
		}
		position = 12
		provinces_to_highlight = {
			province_id = 4236
		}
		trigger = {
			treasury = 3000
			adm_power = 250
			4236 = {
				has_dwarven_hold_6 = yes 
			}
			mithradhum_area = {
				type = all
				if = {
					limit = {
						NOT = {
							province_id = 4236
						}
					}
					development = 20
				}
			}
			 
		}
		effect = {
			country_event = {
				id = mountainshark_events.21
			}
			add_treasury = -3000
			add_adm_power = -250
		}
	}
	H84_pinnacle_of_innovation = {
		icon = mission_runeforged_cannons
		required_missions = {
			H84_mega_foundry
			H84_mega_forge
			H84_mega_mint
		}
		position = 13
		provinces_to_highlight = {}
		trigger = {
			treasury = 500
			adm_power = 200
			dip_power = 200
			mil_power = 200
			OR = {
				innovativeness = 50
				adm_power = 400
			}
			num_of_rajput = 25
		}
		effect = {
			mission_reward_artifice_points_5 = yes
			if = {
				limit = {
					NOT = {
						innovativeness = 50
					} 
				}
				add_adm_power = -200
			}
			add_adm_power = -200
			add_dip_power = -200
			add_mil_power = -200
			country_event = {
				id = mountainshark_events.23
			}
		}
	}
}

H84_column_3 = {
	slot = 3
	generic = no
	ai = yes
	potential = {
		tag = H84
	}
	has_country_shield = yes
	H84_last_sons_of_glozok = {
		icon = mission_homeless_children
		required_missions = {}
		position = 1
		provinces_to_highlight = {	
			province_id = 4236
		}
		trigger = {
			4236 = {
				is_core = ROOT
				hold_condition = { Repaired = yes }
			}
			capital_scope = {
				development = 25
			}
		}
		effect = {
			mithradhum_area = {
				limit = {
					NOT = {
						is_core = ROOT
					}
				}
				add_permanent_claim = ROOT
				discover_country = ROOT
			}
			H75 = {
				capital_scope = {
					discover_country = ROOT
				}
			}
			H85 = {
				capital_scope = {
					discover_country = ROOT
				}
			}
		}
	}
	H84_sharkbite = {
		icon = mission_face_off
		required_missions = {
			H84_last_sons_of_glozok
		}
		position = 2
		provinces_to_highlight = {
		}
		trigger = {
			OR = {
				mil_power = 50
				mil = 6
			}
			OR = {
				custom_trigger_tooltip = {
					tooltip = mountainshark_sharkbite_tt
					any_country = {
						NOT = { 
							culture_group = goblin
						}
						is_in_war = {
							attacker_leader = H84
							defender_leader = THIS
							war_score = 50
						}
					}
				}
				army_tradition = 30
			}
		}
		effect = {
			country_event = {
				id = mountainshark_events.1
			}
			if = {
				limit = {
					mil = 6
				}
				add_mil_power = 100
			}
			else = {
				add_mil_power = -50
				change_mil = 1
			}
		}
	}
	H84_grant_scrap_commissions = {
		icon = reform_the_monte
		required_missions = {
			H84_the_new_colossus
		}
		position = 3
		provinces_to_highlight = {
			owned_by = ROOT
			has_terrain = dwarven_road
		}
		trigger = {
			num_of_owned_provinces_with = {
				value = 5
				has_terrain = dwarven_road
			}
		}
		effect = {
			add_treasury = 300
			random_owned_province = {
				limit = {
					has_terrain = dwarven_road
					NOT = { 
						local_autonomy = 25
					}
				}
				add_local_autonomy = 25
			}
			random_owned_province = {
				limit = {
					has_terrain = dwarven_road
					NOT = { 
						local_autonomy = 25
					}
				}
				add_local_autonomy = 25
			}
			random_owned_province = {
				limit = {
					has_terrain = dwarven_road
					NOT = { 
						local_autonomy = 25
					}
				}
				add_local_autonomy = 25
			}
			random_owned_province = {
				limit = {
					has_terrain = dwarven_road
					NOT = { 
						local_autonomy = 25
					}
				}
				add_local_autonomy = 25
			}
			random_owned_province = {
				limit = {
					has_terrain = dwarven_road
					NOT = { 
						local_autonomy = 25
					}
				}
				add_local_autonomy = 25
			}
		}
	}
	H84_meritokratic_kartels = {
		icon = mission_guarded_market
		required_missions = {
			H84_demand_competence
			H84_shark_fever
		}
		position = 5
		provinces_to_highlight = {
			owned_by = ROOT
			OR = {
				has_terrain = dwarven_hold
				has_terrain = dwarven_hold_surface
			}
			NOT = {
				has_trade_building_trigger = yes
			}
		}
		trigger = {
			if = {
				limit = {
					government = tribal
				}
				estate_influence = {
					estate = estate_monstrous_tribes
					influence = 60
				}
			}
			else_if = {
				limit = { is_technocracy = no }
				estate_influence = {
					estate = estate_burghers
					influence = 60
				}
			}
			custom_trigger_tooltip = {
				tooltip = mountainshark_all_holds_marketplace_tt
				all_owned_province = {
					if = {
						limit = {
							OR = {
								has_terrain = dwarven_hold
								has_terrain = dwarven_hold_surface
							}
						}
						has_trade_building_trigger = yes
					}
				}
			}
			4119 = {
				is_strongest_trade_power = ROOT
			}
			4236 = {
				is_strongest_trade_power = ROOT
			}
		}
		effect = {
			add_country_modifier = {
				name = H84_greased_hierarchy
				duration = 7300
			}
			define_advisor = {
				type = trader
				skill = 3
				discount = yes
			}
			4236 = {
				add_center_of_trade_level = 1
			}
			4147 = {
				add_center_of_trade_level = 1
			}
		}
	}
	H84_embers_of_the_great_shark = {
		icon = mission_star_comet
		required_missions = {
			H84_council_of_fire
			H84_council_of_thunder
		}
		position = 7
		provinces_to_highlight = {
			province_id = 4044
		}
		trigger = {
			4044 = {
				is_core = ROOT
			}
			OR = {
				reform_level = 5
				NOT = {
					government = tribal
				}
			}
		}
		effect = {
			custom_tooltip = H84_embers_of_the_great_shark_tt
			country_event = {
				id = mountainshark_events.11
			}
			hidden_effect = {
				set_country_flag = mountainshark_post_embers
				set_country_flag = in_mountainshark_first_election
				swap_non_generic_missions = yes
			}
		}
	}
}
H84_column_3_2 = {
	slot = 3
	generic = no
	ai = yes
	potential = {
		tag = H84
		has_country_flag = mountainshark_post_embers
	}
	has_country_shield = yes
	H84_break_the_chains = {
		icon = mission_torch_fire
		required_missions = {
			H84_embers_of_the_great_shark
		}
		position = 8
		provinces_to_highlight = {
			province_id = 2868
		}
		trigger = {
			2868 = {
				is_core = ROOT
				NOT = {
					unrest = 1
					has_province_modifier = infested_hold
				}
				num_of_units_in_province = {
					amount = 10
					who = ROOT
				}
			}
		}
		effect = {
			country_event = {
				id = mountainshark_events.13
			}
			2863 = {
				discover_country = ROOT
				add_permanent_claim = ROOT
			}
			dwarovrod_1_3_area = {
				limit = {
					NOT = {
						is_core = ROOT
					}
				}
				discover_country = ROOT
				add_permanent_claim = ROOT
			}
			dwarovrod_4_6_area = {
				limit = {
					NOT = {
						is_core = ROOT
					}
				}
				discover_country = ROOT
				add_permanent_claim = ROOT
			}
		}
	}
	H84_code_of_bribery = {
		icon = mission_missive
		required_missions = {
			H84_break_the_chains
		}
		position = 9
		provinces_to_highlight = {
			owned_by = ROOT
			OR = {
				has_terrain = dwarven_hold
				has_terrain = dwarven_hold_surface
			}
			NOT = {
				has_courthouse_building_trigger = yes
			}
		}
		trigger = {
			republican_tradition = 90
			NOT = {
				corruption = 1
			}
			custom_trigger_tooltip = {
				tooltip = mountainshark_all_holds_courthouse_tt
				all_owned_province = {
					if = {
						limit = {
							OR = {
								has_terrain = dwarven_hold
								has_terrain = dwarven_hold_surface
							}
						}
						has_courthouse_building_trigger = yes
					}
				}
			}
		}
		effect = {
			add_country_modifier = {
				name = H84_codified_bribery
				duration = -1
			}
			add_republican_tradition = -10
			add_corruption = 2
		}
	}
	H84_apex_guarentor = {
		icon = chater_the_voc
		required_missions = {
			H84_code_of_bribery
			H84_the_united_revolt
		}
		position = 10
		provinces_to_highlight = {
			province_id = 2863
		}
		trigger = {
			custom_trigger_tooltip = {
				tooltip = mountainshark_apex_guarentor_tt
				calc_true_if = {
					amount = 3
					all_known_country = {
						has_opinion_modifier = {
							who = ROOT
							modifier = sent_gift
							value = 20
						}
					}
				}
			}
			2863 = {
				is_core = ROOT
				hold_condition = { Repaired = yes }
				development = 40
			}
		}
		effect = {
			country_event = {
				id = mountainshark_events.16
			}
		}
	}
	H84_dancing_with_dragons = {
		icon = mission_kobold
		required_missions = {
			H84_apex_guarentor
			H84_suffrage_for_the_worthy
		}
		position = 11
		provinces_to_highlight = {
			OR = {
				province_id = 2863
				province_id = 4048
				province_id = 4024
			}
		}
		trigger = {
			treasury = 500
			high_tolerance_kobold_race_trigger = yes
			2863 = {
				province_has_current_tech_fort_trigger = yes
			}
			4048 = {
				is_core = ROOT
				development = 10
			}
			4024 = {
				is_core = ROOT
				development = 10
			}
			custom_trigger_tooltip = {
				tooltip = mountainshark_dancing_with_dragons_trigger_dwarovrod_tt
				dwarovrod_1_3_area = {
					type = all
					is_core = ROOT
				}
				dwarovrod_4_6_area = {
					type = all
					is_core = ROOT
				}
				4043 = {
					is_core = ROOT
				}
				2872 = {
					is_core = ROOT
				}
			}
		}
		effect = {
			country_event = {
				id = mountainshark_events.18
			}
			add_treasury = -500
			define_advisor = {
				type = master_of_mint
				skill = 3
				discount = yes
				culture = darkscale_kobold
				religion = kobold_dragon_cult
			}
			unlock_merc_company = {
				merc_company = merc_mountainshark_dragonsharks
			}
			custom_tooltip = mountainshark_dancing_with_dragons_tt
			hidden_effect = {
				dwarovrod_1_3_area = {
					add_permanent_province_modifier = {
						name = H84_dragon_rails
						duration = -1
					}
				}
				dwarovrod_4_6_area = {
					add_permanent_province_modifier = {
						name = H84_dragon_rails
						duration = -1
					}
				}
				4043 = {
					add_permanent_province_modifier = {
						name = H84_dragon_rails
						duration = -1
					}
				}
				2872 = {
					add_permanent_province_modifier = {
						name = H84_dragon_rails
						duration = -1
					}
				}
			}
		}
	}
	H84_mega_mint = {
		icon = mission_rb_trinity_college_dublin
		required_missions = {
			H84_commission_mega_works
			H84_dancing_with_dragons
		}
		position = 12
		provinces_to_highlight = {
			province_id = 2863
		}
		trigger = {
			treasury = 5000
			estate_loyalty = {
				estate = estate_burghers
				loyalty = 60
			}
			if = {
				limit = {
					has_dlc = "Emperor"
				}
				has_estate_privilege = estate_burghers_control_over_monetary_policy
			}
			2863 = {
				has_dwarven_hold_3 = yes 
			}
		}
		effect = {
			country_event = {
				id = mountainshark_events.22
			}
			add_treasury = -5000
		}
	}
	H84_shark_of_the_mountain = {
		icon = mission_star_comet
		required_missions = {
			H84_pinnacle_of_innovation
			H84_the_final_revolt
		}
		position = 14
		provinces_to_highlight = {
			region = west_dwarovar_region
			NOT = {
				area = anvils_horn_area
				area = krakdhum_area
				area = dead_end_tunnel_area
			}
		}
		trigger = {
			prestige = 95
			is_great_power = yes
			NOT = { 
				any_other_great_power = { 
					monthly_income = root
				} 
			}
			west_dwarovar_region = { 
				type = all 
				OR = {
					owner = {
						culture_group = goblin
					}
					area = anvils_horn_area
					area = krakdhum_area
					area = dead_end_tunnel_area
				} 
			}
		}
		effect = {
			country_event = {
				id = mountainshark_events.26
			}
		}
	}
}

H84_column_4 = {
	slot = 4
	generic = no
	ai = yes
	potential = {
		tag = H84
	}
	has_country_shield = yes
	H84_truer_daggers = {
		icon = mission_whisper
		required_missions = {
			H84_last_sons_of_glozok
		}
		position = 2
		provinces_to_highlight = {
			province_id = 4144
		}
		trigger = {
			OR = {
				dip_power = 100
				dip = 6
			}
			if = {
				limit = {
					H85 = {
						exists = yes
					}
				}
				has_spy_network_in = {
					who = H85
					value = 60
				}
			}
			else = {
				any_country = {
					has_spy_network_from = {
						who = ROOT
						value = 60
					}
				}
			}
		}
		effect = {
			if= {
				limit = {
					H85 = {
						exists = yes
					}
				}
				country_event = {
					id = mountainshark_events.2
				}
			}
			else = {
				random_country = {
					limit = {
						has_spy_network_from = {
							who = ROOT
							value = 60
						}
					}
					add_spy_network_from = {
						who = ROOT
						value = -60
					}
				}
			}
			if = {
				limit = {
					dip = 6
				}
				add_dip_power = 100
			}
			else = {
				add_dip_power = -100
				change_dip = 1
			}
		}
	}
	H84_embrace_govrabliggin = {
		icon = mission_priest_church
		required_missions = {
			H84_sharkbite
			H84_truer_daggers
			H84_outskulked
		}
		position = 3
		provinces_to_highlight = {
		}
		trigger = {
			is_at_war = no
			num_of_owned_provinces_with = {
				value = 3
				has_tax_building_trigger = yes
			}
			if = {
				limit = {
					government = tribal
				}
				estate_loyalty = {
					estate = estate_monstrous_tribes
					loyalty = 60
				}
			}
			else_if = {
				limit = { is_technocracy = no }
				estate_loyalty = {
					estate = estate_church
					loyalty = 60
				}
			}
		}
		effect = {
			country_event = {
				id = mountainshark_events.5
			}
		}
	}
	H84_shark_fever = {
		icon = mission_discussion_arch
		required_missions = {
			H84_embrace_govrabliggin
		}
		position = 4
		provinces_to_highlight = {
		}
		trigger = {
			prestige = 50
			has_adm_advisor_2 = yes
			has_dip_advisor_2 = yes
			has_mil_advisor_2 = yes
		}
		effect = {
			add_adm_power = 50
			add_dip_power = 50
			add_mil_power = 50
			change_innovativeness = 3
			add_mercantilism = 3
			add_army_tradition = 10
		}
	}
	H84_reign_of_a_shark = {
		icon = crush_heretic_strongholds
		required_missions = {
			H84_shark_fever
		}
		position = 5
		provinces_to_highlight = {
		}
		trigger = {
			monthly_adm = 10
			monthly_dip = 10
			monthly_mil = 10
		}
		effect = {
			add_ruler_modifier = {
				name = H84_shark_ruler
			}
		}
	}
	H84_council_of_thunder = {
		icon = mission_stormy_seas
		required_missions = {
			H84_meritokratic_kartels
			H84_powder_dry_fuses_lit
		}
		position = 6
		provinces_to_highlight = {
			owned_by = ROOT
			OR = {
				has_terrain = dwarven_hold
				has_terrain = dwarven_hold_surface
			}
			NOT = {
				has_manpower_building_trigger = yes
			}
		}
		trigger = {
			OR = {
				army_tradition = 40
				army_professionalism = 0.2
			}
			num_of_generals = 3
			custom_trigger_tooltip = {
				tooltip = mountainshark_all_holds_barracks_tt
				all_owned_province = {
					if = {
						limit = {
							OR = {
								has_terrain = dwarven_hold
								has_terrain = dwarven_hold_surface
							}
						}
						has_manpower_building_trigger = yes
					}
				}
			}
		}
		effect = {
			define_advisor = {
				type = army_reformer
				skill = 3
				discount = yes
			}
			add_power_projection = {
				type = mission_rewards_power_projection
				amount = 10
			}
		}
	}
}
H84_column_4_2 = {
	slot = 4
	generic = no
	ai = yes
	potential = {
		tag = H84
		has_country_flag = mountainshark_post_embers
	}
	has_country_shield = yes
	H84_age_of_ambition = {
		icon = mission_warrior_gold
		required_missions = {
			H84_embers_of_the_great_shark
		}
		position = 8
		provinces_to_highlight = {
			OR = {
				area = riftway_area
				area = chainlink_mines_area
				area = fallen_asra_area
				area = snotslair_area
				area = dwarfbreak_area
				area = dark_depths_area
				area = orldhum_area
			}
		}
		trigger = {
			if = {
				limit = {
					NOT = {
						has_dlc = "Cradle of Civilization"
					}
				}
				adm_power = 50
				dip_power = 50
				mil_power = 50
				has_adm_advisor_3 = yes
				has_dip_advisor_3 = yes
				has_mil_advisor_3 = yes
			}
			else = {
				has_adm_advisor_4 = yes
				has_dip_advisor_4 = yes
				has_mil_advisor_4 = yes
			}
			num_of_owned_provinces_with = {
				value = 40
				region = west_dwarovar_region
			}
		}
		effect = {
			if = {
				limit = {
					NOT = {
						has_dlc = "Cradle of Civilization"
					}
				}
				add_adm_power = -50
				add_dip_power = -50
				add_mil_power = -50
			}
			add_splendor = 50
			riftway_area = {
				add_permanent_claim = ROOT
			}
			chainlink_mines_area = {
				add_permanent_claim = ROOT
			}
			fallen_asra_area = {
				add_permanent_claim = ROOT
			}
			snotslair_area = {
				add_permanent_claim = ROOT
			}
			dwarfbreak_area = {
				add_permanent_claim = ROOT
			}
			dark_depths_area = {
				add_permanent_claim = ROOT
			}
			orldhum_area = {
				add_permanent_claim = ROOT
			}
		}
	}
	H84_the_united_revolt = {
		icon = mission_shady_encounter
		required_missions = {
			H84_age_of_ambition
			H84_predatory_meritocracy
		}
		position = 9
		provinces_to_highlight = {
			OR = {
				province_id = 4048
				province_id = 4024
				province_id = 4212
			}
		}
		trigger = {
			4212 = {
				is_core = ROOT
			}
			4048 = {
				is_core = ROOT
				has_tax_building_trigger = yes
			}
			4024 = {
				is_core = ROOT
				has_tax_building_trigger = yes
			}
		}
		effect = {
			country_event = {
				id = mountainshark_events.15
			}
		}
	}
	H84_suffrage_for_the_worthy = {
		icon = mission_dual_diplomacy
		required_missions = {
			H84_the_united_revolt
		}
		position = 10
		provinces_to_highlight = {
			owned_by = ROOT
			OR = {
				has_terrain = dwarven_hold
				has_terrain = dwarven_hold_surface
			}
			NOT = {
				has_building = state_house
			}
		}
		trigger = {
			OR = {
				full_idea_group = plutocracy_ideas
				statesman = 3
			}
			num_of_owned_provinces_with = {
				value = 3
				OR = {
					has_terrain = dwarven_hold
					has_terrain = dwarven_hold_surface
				}
				has_building = state_house
			}
		}
		effect = {
			add_estate_loyalty = {
				estate = all
				loyalty = 10
			}
			add_country_modifier  = {
				name = H84_competency_ballots
				duration = 10950
			}
		}
	}
	H84_the_impossible_revolt = {
		icon = mission_dancing_with_dead
		required_missions = {
			H84_suffrage_for_the_worthy
			H84_subsume_the_nezkaru
		}
		position = 11
		provinces_to_highlight = {
			province_id = 4060
		}
		trigger = {
			4060 = {
				is_core = ROOT
				num_of_units_in_province = {
					who = ROOT
					type = infantry
					amount = 10
				}
			}
		}
		effect = {
			4060 = {
				kill_units = {
					who = ROOT
					type = infantry
					amount = 10
				}
			}
			custom_tooltip = mountainshark_impossible_revolt_tt
			hidden_effect = {
				set_country_flag = H84_investigating_the_impossible_revolt
			}
		}
	}
	H84_hegemon_of_superiority = {
		icon = mission_crowning
		required_missions = {
			H84_the_impossible_revolt
		}
		position = 12
		provinces_to_highlight = {
		}
		trigger = {
			production_leader = {
				trade_goods = mithril
			}
			OR = {
				OR = {
					4119 = {
						highest_value_trade_node = yes
					}
					4236 = {
						highest_value_trade_node = yes
					}
				}
				num_of_owned_provinces_with = {
					value = 40
					has_manufactory_trigger = yes
				}
			}
		}
		effect = {
			add_mercantilism = 10
			add_splendor = 200
			west_dwarovar_region = {
				add_permanent_claim = ROOT
			}
		}
	}
	H84_the_final_revolt = {
		icon = mission_three_death
		required_missions = {
			H84_hegemon_of_superiority
		}
		position = 13
		provinces_to_highlight = {
			province_id = 4237
		}
		trigger = {
			if = {
				limit = {
					NOT = {
						has_dlc = "Cradle of Civilization"
					}
				}
				adm_power = 100
				dip_power = 100
				mil_power = 100
				has_adm_advisor_3 = yes
				has_dip_advisor_3 = yes
				has_mil_advisor_3 = yes
			}
			else = {
				has_adm_advisor_5 = yes
				has_dip_advisor_5 = yes
				has_mil_advisor_5 = yes
			}
			4237 = {
				is_core = ROOT
				has_ruler_leader_from = ROOT
			}
		}
		effect = {
			country_event = {
				id = mountainshark_events.25
			}
			if = {
				limit = {
					NOT = {
						has_dlc = "Cradle of Civilization"
					}
				}
				add_adm_power = -100
				add_dip_power = -100
				add_mil_power = -100
			}
		}
	}
}

H84_column_5 = {
	slot = 5
	generic = no
	ai = yes
	potential = {
		tag = H84
	}
	has_country_shield = yes
	H84_outskulked = {
		icon = mission_writing_book
		required_missions = {
			H84_last_sons_of_glozok
		}
		position = 2
		provinces_to_highlight = {
			province_id = 2931
		}
		trigger = {
			OR = {
				adm_power = 100
				adm = 6
			}
			if = {
				limit = {
					H75 = {
						exists = yes
					}
				}
				4236 = {
					higher_development_than = 2931 # Er-Natvir
				}
				AND = {
					variable_arithmetic_trigger = {
						custom_tooltip = mountainshark_higher_adm_tt
						export_to_variable = {
							which = H84_mountainshark_adm_tech
							value = adm_tech
							who = ROOT
						}
						export_to_variable = {
							which = H84_railskulker_adm_tech
							value = adm_tech
							who = H75
						}
						subtract_variable = {
							which = H84_mountainshark_adm_tech
							which = H84_railskulker_adm_tech
						}
						
						check_variable = {
							which = H84_mountainshark_adm_tech
							value = 1
						}
					}
					variable_arithmetic_trigger = {
						custom_tooltip = mountainshark_higher_dip_tt
						export_to_variable = {
							which = H84_mountainshark_dip_tech
							value = dip_tech
							who = ROOT
						}
						export_to_variable = {
							which = H84_railskulker_dip_tech
							value = dip_tech
							who = H75
						}
						subtract_variable = {
							which = H84_mountainshark_dip_tech
							which = H84_railskulker_dip_tech
						}
						
						check_variable = {
							which = H84_mountainshark_dip_tech
							value = 1
						}
					}
					variable_arithmetic_trigger = {
						custom_tooltip = mountainshark_higher_mil_tt
						export_to_variable = {
							which = H84_mountainshark_mil_tech
							value = mil_tech
							who = ROOT
						}
						export_to_variable = {
							which = H84_railskulker_mil_tech
							value = mil_tech
							who = H75
						}
						subtract_variable = {
							which = H84_mountainshark_mil_tech
							which = H84_railskulker_mil_tech
						}
						
						check_variable = {
							which = H84_mountainshark_mil_tech
							value = 1
						}
					}
				}
			}
		}
		effect = {
			if = {
				limit = {
					H75  = {
						exists = yes
					}
				}
				country_event = {
					id = mountainshark_events.3
				}
			}
			if = {
				limit = {
					adm = 6
				}
				add_adm_power = 100
			}
			else = {
				add_adm_power = -100
				change_adm = 1
			}
		}
	}
	H84_goblin_diplomacy = {
		icon = mission_diplomatic_relation
		required_missions = {
			H84_outskulked
		}
		position = 3
		provinces_to_highlight = {
		}
		trigger = {
			if = {
				limit = {
					H75 = {
						exists = yes
					}
				}
				OR = {
					AND = {
						OR = {
							H75 = {
								is_subject_of = ROOT
							}
							alliance_with = H75
						}
						H75 = {
							has_opinion = {
								who = ROOT
								value = 150
							}
						}
					}
					AND = {
						if = {
							limit = {
								NOT = {
									has_dlc = "Dharma"
								}
							}
							H75 = {
								has_opinion_modifier = {
									who = ROOT
									modifier = insulted
								}
							}
						}
						else = {
							H75 = {
								has_opinion_modifier = {
									who = ROOT
									modifier = scornfully_insulted
								}
							}
						}
						army_size_percentage = 0.9
					}
				}
			}
		}
		effect = {
			if = {
				limit = {
					H75 = {
						exists = yes
					}
				}
				if = {
					limit = {
						alliance_with = H75
					}
					add_dip_power = 100
					add_favors = {
						who = H75
						amount = 15
					}
					add_trust = {
						who = H75
						value = 15
						mutual = yes
					}
				}
				else = {
					add_casus_belli = {
						target = H75
						type = cb_vassalize_mission
						months = 120
					}
				}
			}
		}
	}
	H84_first_among_goblins = {
		icon = mission_marriage
		required_missions = {
			H84_goblin_diplomacy
		}
		position = 4
		provinces_to_highlight = {
		}
		trigger = {
			if = {
				limit = {
					H75 = {
						exists = yes
					}
				}
				is_at_war = no
				adm_power = 50
				dip_power = 50
				mil_power = 50
				variable_arithmetic_trigger = {
					custom_tooltip = mountainshark_twice_dev_tt
					export_to_variable = {
						which = H84_mountainshark_total_development
						value = trigger_value:total_development
						who = ROOT
					}
					export_to_variable = {
						which = H84_railskulker_total_development
						value = trigger_value:total_development
						who = H75
					}
					multiply_variable = {
						which = H84_railskulker_total_development 
						value = 2
					}
					check_variable = {
						which = H84_mountainshark_total_development
						which = H84_railskulker_total_development
					}
				}
				OR = {
					AND = {
						alliance_with = H75
						H75 = {
							has_opinion = {
								who = ROOT
								value = 190
							}
						}
					}
					H75 = {
						vassal_of = ROOT
						NOT = {
							liberty_desire = 50
						}
					}
				}
			}
		}
		effect = {
			if = {
				limit = {
					H75 = {
						exists = yes
					}
				}
				if = {
					limit = {
						alliance_with = H75
						H75 = {
							total_development = 100
						}
					}
					country_event = {
						id = mountainshark_events.9
					}
				}
				else = {
					country_event = {
						id = mountainshark_events.7
					}
				}
			}
		}
	}
	H84_powder_dry_fuses_lit = {
		icon = mission_guns_of_urban
		required_missions = {
			H84_shark_fever
			H84_first_among_goblins
		}
		position = 5
		provinces_to_highlight = {
			OR = {
				province_id = 4236
				province_id = 2931
			}
		}
		trigger = {
			mil_power = 50
			2931 = {
				country_or_subject_holds = ROOT
				hold_condition = { Repaired = yes }
				num_of_units_in_province = {
					who = ROOT
					type = artillery
					amount = 3
				}
			}
			4236 = {
				num_of_units_in_province = {
					who = ROOT
					type = artillery
					amount = 3
				}
			}
		}
		effect = {
			add_mil_power = -50
			2931 = {
				kill_units = {
					who = ROOT
					type = artillery
					amount = 3
				}
			}
			4236 = {
				kill_units = {
					who = ROOT
					type = artillery
					amount = 3
				}
			}
			add_country_modifier = {
				name = H84_ordinance_peer_review
				duration = 7300
			}
		}
	}
}
H84_column_5_2 = {
	slot = 5
	generic = no
	ai = yes
	potential = {
		tag = H84
		has_country_flag = mountainshark_post_embers
	}
	has_country_shield = yes
	H84_predatory_meritocracy = {
		icon = mission_heated_battle
		required_missions = {
			H84_embers_of_the_great_shark
		}
		position = 8
		provinces_to_highlight = {
		}
		trigger = {
			OR = {
				custom_trigger_tooltip = {
					tooltip = mountainshark_predatory_meritocracy_tt
					any_neighbor_country = {
						total_development = ROOT
						is_in_war = {
							attacker_leader = H84
							defender_leader = THIS
							war_score = 50
						}
					}
				}
				power_projection = 60
			}
		}
		effect = {
			add_country_modifier = {
				name = H84_rabble_rousers_to_the_front
				duration = 7300
			}
		}
	}
	H84_venerate_the_legends = {
		icon = mission_spread_the_reformation
		required_missions = {
			H84_predatory_meritocracy
		}
		position = 9
		provinces_to_highlight = {
			owned_by = ROOT
			development = 10
		}
		trigger = {
			OR = {
				religion_group = cannorian
				has_adopted_cult = cannorian_cult
			}
			reform_level = 4
			OR = {
				inquisitor = 3
				philosopher = 3
				theologian = 3
			}
		}
		effect = {
			add_adm_power = 100
			add_government_reform = mountainshark_avatars_of_the_great_shark
		}
	}
	H84_subsume_the_nezkaru = {
		icon = mission_subjugate_the_merchants
		required_missions = {
			H84_the_united_revolt
		}
		position = 10
		provinces_to_highlight = {
		}
		trigger = {
			is_at_war = no
			government_reform_progress = 100
			estate_loyalty = {
				estate = estate_nobles
				loyalty = 60
			}
			estate_loyalty = {
				estate = estate_burghers
				loyalty = 60
			}
			estate_loyalty = {
				estate = estate_church
				loyalty = 60
			}
		}
		effect = {
			change_government_reform_progress = -100
			add_country_modifier = {
				name = H84_trusted_bureaucrats
				duration = 18250
			}
			add_country_modifier = {
				name = H84_state_nezkaru
				duration = -1
			}
		}
	}
}
