
sareyand_0 = {
	slot = 1
	generic = no
	ai = yes
	has_country_shield = yes
	
	potential = {
		OR = {
			tag = F25
			AND = {
				tag = F38
				was_tag = F25
			}
		}
	}
	
	sareyand_0_patronage_of_the_landlords = {
		icon = mission_noble_council
		position = 1
		required_missions = {
		}
		
		trigger = {
			estate_loyalty = {
				estate = estate_nobles
				loyalty = 60
			}
		}
		
		effect = {
			north_naza_area = {
				limit = {
					NOT = {
						owned_by = ROOT
						is_core = ROOT
					}
				}
				add_permanent_claim = ROOT
			}
			add_country_modifier = {
				name = sareyand_cooperative_landlords
				duration = 7300
			}
		}
	}
	
	sareyand_0_sunshine_manors = {
		icon = mission_secure_khandesh
		position = 2
		required_missions = {
			sareyand_0_patronage_of_the_landlords
		}
		
		provinces_to_highlight = {
			OR = {
				area = east_naza_area
				area = south_naza_area
				area = sareyand_area
				area = avamezan_area
			}
		}
		
		trigger = {
			development_in_provinces = {
				value = 110
				OR = {
					area = east_naza_area
					area = south_naza_area
					area = sareyand_area
					area = avamezan_area
				}
			}
		}
		
		effect = {
			add_country_modifier = {
				name = sareyand_new_manors
				duration = 9125
			}
		}
	}
	
	sareyand_0_rebuild_the_ash_palace = {
		icon = mission_mahmudabad
		position = 3
		required_missions = {
			sareyand_0_sunshine_manors
		}
		
		provinces_to_highlight = {
			province_id = 625
			NOT = { development = 40 }
		}
		
		trigger = {
			625 = { development = 40 }
			treasury = 500
		}
		
		effect = {
			add_treasury = -500
			625 = {
				add_province_triggered_modifier = sareyand_the_ash_palace
				add_province_modifier = {
					name = sareyand_rebuilding_the_ash_palace
					duration = 730
				}
			}
		}
	}
	
	sareyand_0_the_gallery_of_war = {
		icon = mission_unite_west_india
		position = 4
		required_missions = {
			sareyand_0_rebuild_the_ash_palace
		}
		
		provinces_to_highlight = {
			province_id = 625
		}
		
		trigger = {
			625 = {
				development = 45
				is_prosperous = yes
				NOT = { has_province_modifier = sareyand_rebuilding_the_ash_palace }
			}
		}
		
		effect = {
			custom_tooltip = sareyand_0_the_gallery_of_war_tt
			set_country_flag = sareyand_the_gallery_of_war_flag
		}
	}
	
	sareyand_0_artists_of_triumph = {
		icon = mission_unite_the_deccan
		position = 4
		required_missions = {
			sareyand_0_the_gallery_of_war
		}
		
		trigger = {
			artist = 3
			has_commanding_three_star = yes
		}
		
		effect = {
			custom_tooltip = sareyand_0_artists_of_triumph_tt
			set_country_flag = sareyand_artists_of_triumph_flag
		}
	}
	
}

sareyand_1 = {
	slot = 2
	generic = no
	ai = yes
	has_country_shield = yes
	
	potential = {
		OR = {
			tag = F25
			AND = {
				tag = F38
				was_tag = F25
			}
		}
	}
	
	sareyand_1_around_lake_naza = {
		icon = mission_seize_the_bengal_coast
		position = 2
		required_missions = {
			sareyand_0_patronage_of_the_landlords
		}
		
		provinces_to_highlight = {
			area = north_naza_area
			NOT = { country_or_non_sovereign_subject_holds = ROOT }
		}
		
		trigger = {
			north_naza_area = {
				type = all
				country_or_non_sovereign_subject_holds = ROOT
			}
		}
		
		effect = {
			add_country_modifier = {
				name = sareyand_food_surplus
				duration = 9125
			}
		}
	}
	
	sareyand_1_the_mountains_of_the_sun = {
		icon = prosper_in_piedmont
		position = 3
		required_missions = {
			sareyand_2_sun_elven_protection
		}
		
		provinces_to_highlight = {
			OR = {
				area = sur_mountains_area
				area = jixobix_area
				area = garpix_tluukt_area
				area = grixekyr_area
				province_id = 691
			}
			NOT = { country_or_non_sovereign_subject_holds = ROOT }
		}
		
		trigger = {
			sur_mountains_area = {
				type = all
				country_or_non_sovereign_subject_holds = ROOT
			}
			jixobix_area = {
				type = all
				country_or_non_sovereign_subject_holds = ROOT
			}
			garpix_tluukt_area = {
				type = all
				country_or_non_sovereign_subject_holds = ROOT
			}
			grixekyr_area = {
				type = all
				country_or_non_sovereign_subject_holds = ROOT
			}
			691 = {
				country_or_non_sovereign_subject_holds = ROOT
			}
		}
		
		effect = {
			682 = {
				add_province_modifier = {
					name = sareyand_military_colony
					duration = 3650
				}
				custom_tooltip = sareyand_1_the_mountains_of_the_sun_tt
				tooltip = {
					add_permanent_province_modifier = {
						name = sareyand_bulwark_of_the_sun
						duration = -1
					}
					change_religion = bulwari_sun_cult
					change_culture = sun_elf
				}
				hidden_effect = {
					if = {
						limit = { has_fort_building_trigger = yes }
						province_event = { id = flavour_sareyand.1 }
					}
				}
			}
			set_country_flag = sareyand_the_bulwark_of_the_sun
			zansap_area = {
				limit = {
					NOT = {
						owned_by = ROOT
						is_core = ROOT
					}
				}
				add_permanent_claim = ROOT
			}
			bulwar_area = {
				limit = {
					NOT = {
						owned_by = ROOT
						is_core = ROOT
					}
				}
				add_permanent_claim = ROOT
			}
			604 = {
				if = {
					limit = {
						NOT = {
							owned_by = ROOT
							is_core = ROOT
						}
					}
					add_permanent_claim = ROOT
				}
			}
			611 = {
				if = {
					limit = {
						NOT = {
							owned_by = ROOT
							is_core = ROOT
						}
					}
					add_permanent_claim = ROOT
				}
			}
		}
	}
	
	sareyand_1_the_heart_of_bulwar = {
		icon = mission_conquer_sindh_mer
		position = 4
		required_missions = {
			sareyand_1_the_mountains_of_the_sun
		}
		
		provinces_to_highlight = {
			OR = {
				area = zansap_area
				area = bulwar_area
				province_id = 604
				province_id = 611
			}
			NOT = { country_or_non_sovereign_subject_holds = ROOT }
		}
		
		trigger = {
			zansap_area = {
				type = all
				country_or_non_sovereign_subject_holds = ROOT
			}
			bulwar_area = {
				type = all
				country_or_non_sovereign_subject_holds = ROOT
			}
			604 = {
				country_or_non_sovereign_subject_holds = ROOT
			}
			611 = {
				country_or_non_sovereign_subject_holds = ROOT
			}
		}
		
		effect = {
			medurubar_area = {
				limit = {
					NOT = {
						owned_by = ROOT
						is_core = ROOT
					}
				}
				add_permanent_claim = ROOT
			}
			lower_brasan_area = {
				limit = {
					NOT = {
						owned_by = ROOT
						is_core = ROOT
					}
				}
				add_permanent_claim = ROOT
			}
			upper_brasan_area = {
				limit = {
					NOT = {
						owned_by = ROOT
						is_core = ROOT
					}
				}
				add_permanent_claim = ROOT
			}
		}
	}
	
	sareyand_1_the_length_of_the_suran = {
		icon = mission_magadna_and_varanasi
		position = 5
		required_missions = {
			sareyand_1_the_heart_of_bulwar
		}
		
		provinces_to_highlight = {
			OR = {
				area = medurubar_area
				area = lower_brasan_area
				area = upper_brasan_area
			}
			NOT = { country_or_non_sovereign_subject_holds = ROOT }
		}
		
		trigger = {
			medurubar_area = {
				type = all
				country_or_non_sovereign_subject_holds = ROOT
			}
			lower_brasan_area = {
				type = all
				country_or_non_sovereign_subject_holds = ROOT
			}
			upper_brasan_area = {
				type = all
				country_or_non_sovereign_subject_holds = ROOT
			}
		}
		
		effect = {
			add_country_modifier = {
				name = sareyand_control_over_the_suran
				duration = 5475
			}
		}
	}
	
}

sareyand_2 = {
	slot = 3
	generic = no
	
	has_country_shield = yes
	
	potential = {
		OR = {
			tag = F25
			AND = {
				tag = F38
				was_tag = F25
			}
		}
	}
	
	sareyand_2_recover_the_suran_plain = {
		icon = mission_marathi_fiefs
		position = 1
		required_missions = {
		}
		
		provinces_to_highlight = {
			OR = {
				AND = {
					OR = {
						province_id = 636
						province_id = 637
					}
					NOT = { country_or_non_sovereign_subject_holds = ROOT }
				}
				AND = {
					OR = {
						province_id = 638
						province_id = 639
						province_id = 640
						province_id = 641
					}
					NOT = { owned_by = F45 }
				}
			}
		}
		
		trigger = {
			636 = { country_or_non_sovereign_subject_holds = ROOT }
			637 = { country_or_non_sovereign_subject_holds = ROOT }
			F45 = {
				exists = yes
				is_subject_of = ROOT
				owns = 638
				owns = 639
				owns = 640
				owns = 641
			}
		}
		
		effect = {
			add_country_modifier = {
				name = sareyand_slayer_of_beasts
				duration = 3650
			}
			add_casus_belli = {
				target = U20
				type = cb_bulwari_subjugation
				months = 360
			}
		}
	}
	
	sareyand_2_sun_elven_protection = {
		icon = mission_gharbianss
		position = 2
		required_missions = {
			sareyand_2_recover_the_suran_plain
		}
		
		trigger = {
			calc_true_if = {
				all_subject_country = {
					is_subject_of = ROOT
					culture_group = bulwari
					NOT = { liberty_desire = 30 }
					NOT = { total_development = 50 }
				}
				amount = 4
			}
		}
		
		effect = {
			add_country_modifier = {
				name = sareyand_protector_of_the_light
				duration = 36500
			}
		}
	}
	
	sareyand_2_gno_more_gnolls = {
		icon = mission_conquer_timbuktu
		position = 3
		required_missions = {
			sareyand_2_sun_elven_protection
		}
		
		provinces_to_highlight = {
			owner = { culture_group = gnollish }
			OR = {
				area = xhurgrum_area
				area = garpix_zokka_area
				area = grixek_area
				area = jikarzax_area
				area = arrtukerr_area
			}
		}
		
		trigger = {
			NOT = {
				xhurgrum_area = {
					owner = { culture_group = gnollish }
				}
				garpix_zokka_area = {
					owner = { culture_group = gnollish }
				}
				grixek_area = {
					owner = { culture_group = gnollish }
				}
				jikarzax_area = {
					owner = { culture_group = gnollish }
				}
				arrtukerr_area = {
					owner = { culture_group = gnollish }
				}
			}
		}
		
		effect = {
			custom_tooltip = sareyand_claims_on_jaddari_tt
			hidden_effect = {
				far_salahad_region = {
					limit = {
						OR = {
							owned_by = F46
							culture = desert_elf
						}
					}
					add_permanent_claim = ROOT
				}
			}
		}
	}
	
	sareyand_2_the_gate_of_the_east = {
		icon = mission_found_udaipur
		position = 4
		required_missions = {
			sareyand_2_gno_more_gnolls
		}
		
		provinces_to_highlight = {
			province_id = 637
			NOT = {
				trade_share = {
					country = ROOT
					share = 70
				}
			}
		}
		
		trigger = {
			638 = {
				trade_share = {
					country = ROOT
					share = 70
				}
			}
		}
		
		effect = {
			add_country_modifier = {
				name = sareyand_the_gate_of_the_east
				duration = 9125
			}
		}
	}
	
	sareyand_2_trade_with_rahen = {
		icon = mission_dominate_persian_gulf
		position = 5
		required_missions = {
			sareyand_2_the_gate_of_the_east
		}
		
		provinces_to_highlight = {
			OR = {
				province_id = 2901
				province_id = 1348
			}
			NOT = { is_strongest_trade_power = ROOT }
		}
		
		trigger = {
			2901 = { is_strongest_trade_power = ROOT }
			1348 = { is_strongest_trade_power = ROOT }
		}
		
		effect = {
			add_country_modifier = {
				name = sareyand_the_riches_of_the_east
				duration = 9125
			}
		}
	}
	
}

sareyand_3 = {
	slot = 4
	generic = no
	ai = yes
	has_country_shield = yes
	
	potential = {
		OR = {
			tag = F25
			AND = {
				tag = F38
				was_tag = F25
			}
		}
	}
	
	sareyand_3_restore_the_akalate_of_azka_sur = {
		icon = mission_reclaim_dehli
		position = 2
		required_missions = {
			sareyand_2_recover_the_suran_plain
		}
		
		trigger = {
			U20 = {
				is_subject_of = ROOT
				NOT = { liberty_desire = 30 }
			}
		}
		
		effect = {
			create_march = U20
			U20 = {
				change_primary_culture = sun_elf
				add_accepted_culture = surani
				define_ruler = {
					name = "Elrian"
					dynasty = ROOT
					culture = ROOT
					religion = ROOT
				}
				jikarzax_area = {
					add_core = PREV
				}
				grixek_area = {
					add_core = PREV
				}
			}
		}
	}
	
	sareyand_3_the_true_lords_of_bulwar = {
		icon = mission_restore_faith_in_the_throne
		position = 3
		required_missions = {
			sareyand_2_sun_elven_protection
			sareyand_3_restore_the_akalate_of_azka_sur
		}
		
		trigger = {
			is_at_war = no
			calc_true_if = {
				all_subject_country = {
					is_subject_of = ROOT
					culture_group = bulwari
					NOT = { liberty_desire = 1 }
				}
				amount = 4
			}
		}
		
		effect = {
			every_subject_country = {
				limit = {
					culture_group = bulwari
					NOT = { liberty_desire = 1 }
				}
				ROOT = { create_march = PREV }
				change_primary_culture = sun_elf
				define_ruler = {
					dynasty = ROOT
					culture = ROOT
					religion = ROOT
				}
				kill_heir = {}
			}
			add_country_modifier = {
				name = sareyand_the_true_lord_of_bulwar
				duration = -1
			}
		}
	}
	
	sareyand_3_the_rogue_legion = {
		icon = mission_conquer_kannauj
		position = 4
		required_missions = {
			sareyand_2_gno_more_gnolls
		}
		
		provinces_to_highlight = {
			culture = desert_elf
			NOT = { religion = bulwari_sun_cult }
		}
		
		trigger = {
			custom_trigger_tooltip = {
				tooltip = sareyand_3_the_rogue_legion_tt
				NOT = {
					any_province = {
						culture = desert_elf
						NOT = { religion = bulwari_sun_cult }
					}
				}
			}
		}
		
		effect = {
			custom_tooltip = sareyand_desert_elves_become_sun_elves_tt
			hidden_effect = {
				every_province = {
					limit = {
						culture = desert_elf
					}
					change_culture = sun_elf
				}
			}
			add_mil_power = 100
		}
	}
	
	sareyand_3_the_great_ash_legion = {
		icon = mission_levantine_restoration
		position = 5
		required_missions = {
			sareyand_3_the_rogue_legion
			sareyand_4_ashes_to_iron
		}
		
		provinces_to_highlight = {
			owned_by = ROOT
			culture = sun_elf
			NOT = { has_manpower_building_trigger = yes }
		}
		
		trigger = {
			num_of_owned_provinces_with = {
				value = 15
				has_manpower_building_trigger = yes
				culture = sun_elf
			}
		}
		
		effect = {
			if = {
				limit = { NOT = { has_country_modifier = elven_military } }
				clear_racial_military = yes
				add_country_modifier = { 
					name = restructuring_military
					duration = 1825
				}
				add_country_modifier = { 
					name = elven_military
					duration = -1  
				}
				if = { limit = { NOT = { has_dlc = "Cradle of Civilization" } }
					add_country_modifier = { 
						name = elven_military_no_dlc
						duration = -1  
					}
				}
				change_unit_type = tech_east_elven
			}
			add_country_modifier = { 
				name = sareyand_the_great_ash_legion
				duration = -1  
			}
		}
	}
}

sareyand_4 = {
	slot = 5
	generic = no
	ai = yes
	has_country_shield = yes
	
	potential = {
		OR = {
			tag = F25
			AND = {
				tag = F38
				was_tag = F25
			}
		}
	}
	
	sareyand_4_found_the_shining_monastery = {
		icon = mission_conquer_tunisia
		position = 1
		required_missions = {
		}
		
		provinces_to_highlight = {
			province_id = 625
			OR = {
				NOT = { development = 30 }
				NOT = { renaissance = 100 }
				NOT = { owned_by = ROOT }
			}
		}
		
		trigger = {
			625 = {
				development = 30
				renaissance = 100
				owned_by = ROOT
			}
		}
		
		effect = {
			625 = {
				add_permanent_province_modifier = {
					name = sareyand_the_shining_monastery
					duration = -1
				}
			}
		}
	}
	
	sareyand_4_build_the_blazing_temple = {
		icon = mission_into_persia_2
		position = 2
		required_missions = {
			sareyand_4_found_the_shining_monastery
		}
		
		provinces_to_highlight = {
			province_id = 625
			OR = {
				NOT = { has_tax_building_trigger = yes }
				NOT = { religion = bulwari_sun_cult }
			}
		}
		
		trigger = {
			treasury = 400
			625 = {
				has_tax_building_trigger = yes
				religion = bulwari_sun_cult
			}
		}
		
		effect = {
			add_treasury = -400
			625 = { 
				add_building = cathedral
				add_province_triggered_modifier = sareyand_the_blazing_temple
			}
		}
	}
	
	sareyand_4_rekindle_the_ashes = {
		icon = mission_invade_the_deccan_ori
		position = 3
		required_missions = {
		}
		
		trigger = {
			is_in_war = {
				attacker_leader = ROOT
			}
		}
		
		effect = {
			define_general = {
				name = "Nuzarien Ivranzuir"
				fire = 2
				shock = 6
				manuever = 0
				siege = 4
				female = yes
			}
		}
	}
	
	sareyand_4_ashes_to_iron = {
		icon = mission_the_battle_for_raichur
		
		position = 4
		
		required_missions = {
			sareyand_4_rekindle_the_ashes
		}
		
		trigger = {
			army_tradition = 60
		}
		
		effect = {
			add_country_modifier = {
				name = sareyand_ash_and_iron
				duration = 7300
			}
		}
	}
	
}

