# Author: Elefante (1v1 me minecraft pvp)

#Ma Hoang loses the civil war
Y63_missions_1a = {
	slot = 1
	generic = no
	ai = yes 
	potential = {
		tag = Y63
		has_global_flag = khom_civilwar_honsai_won_war
	}
	has_country_shield = yes
	
	Y63_harbor_dinh_loyalists = {
		icon = mission_cope_with_refugees
		position = 2
		required_missions = { Y63_civil_intercession }
		
		provinces_to_highlight = {
			if = {
				limit = { has_saved_global_event_target = baihon_winner_event_target }
				is_capital_of = event_target:baihon_winner_event_target
			}
		}
		
		trigger = {
			OR = {
				NOT = { exists = Y67 }
				Y67 = { is_subject_of = ROOT }
			}
			if = {
				limit = { has_saved_global_event_target = baihon_winner_event_target }
				OR = {
					has_spy_network_in = {
						who = event_target:baihon_winner_event_target
						value = 30
					}
					event_target:baihon_winner_event_target = { exists = no }
				}
			}
		}
		
		effect = {
			5424 = {
				add_human_minority_size_effect = yes
				add_human_minority_size_effect = yes
			}
			country_event = { id = verkalozovar_events.1 days = 30 }
			hidden_effect = { complete_mission = Y63_welcome_hinphati_veterans }
		}
	}
	
	Y63_prepare_hykhuwok = {
		icon = mission_manchu_warrior
		position = 3
		required_missions = { Y63_harbor_dinh_loyalists }
		
		provinces_to_highlight = {
			OR = {
				province_id = 4945
				province_id = 4775
				province_id = 4776
			}
			NOT = { base_manpower = 5 }
		}
		
		trigger = {
			4945 = { base_manpower = 5 }
			4775 = { base_manpower = 5 }
			4776 = { base_manpower = 5 }
		}
		
		effect = {
			every_subject_country = {
				limit = { primary_culture = hinphat }
				add_country_modifier = {
					name = Y63_preparing_the_hykhuwok
					duration = 3650
				}
			}
		}
	}
	
	Y63_end_ghost_emperor = {
		icon = mission_japanese_fort
		position = 4
		required_missions = { Y63_prepare_hykhuwok }
		
		trigger = {
			land_forcelimit = 15
			army_size_percentage = 1
			if = {
				limit = { has_saved_global_event_target = baihon_winner_event_target }
				NOT = { truce_with = event_target:baihon_winner_event_target }
				is_at_war = no
			}
			else = { always = no }
			is_subject = no
		}
		
		effect = {
			
			if = {
				limit = {
					event_target:baihon_winner_event_target = { development = 20 }
				}
				declare_war_with_cb = {
				    who = event_target:baihon_winner_event_target
				    casus_belli = cb_conquest
				}
			}
			else = {
				Y66 = {
					every_core_province = {
						add_claim = ROOT
					}
				}
			}
			if = {
				limit = {
					has_country_flag = Y63_elephant_grove_flag
					OR = {
						4761 = { country_or_non_sovereign_subject_holds = event_target:baihon_winner_event_target }
						4967 = { country_or_non_sovereign_subject_holds = event_target:baihon_winner_event_target }
					}
				}
				event_target:baihon_winner_event_target = { country_event = { id = verkalozovar_events.2 } }
			}
		}
	}
	
	Y63_keeping_our_promises = {
		icon = mission_elephant_herd
		position = 5
		required_missions = { Y63_end_ghost_emperor }
		
		provinces_to_highlight = {
			OR = {
				owned_by = event_target:baihon_winner_event_target
				AND = {
					OR = {
						area = phonan_area
						area = ananhu_area
						area = nui_phom_area
					}
					NOT = { country_or_non_sovereign_subject_holds = ROOT }
				}
			}
		}
		
		trigger = {
			event_target:baihon_winner_event_target = { exists = no }
			phonan_area = {
				type = all
				country_or_non_sovereign_subject_holds = ROOT
			}
			ananhu_area = {
				type = all
				country_or_non_sovereign_subject_holds = ROOT
			}
			nui_phom_area = {
				type = all
				country_or_non_sovereign_subject_holds = ROOT
			}
		}
		
		effect = {
			country_event = { id = verkalozovar_events.4 }
			5424 = {
				remove_human_minority_size_effect = yes
			}
			hidden_effect = { complete_mission = Y63_shadow_of_the_mountain }
		}
	}
}

#Ma Hoang wins the civil war
Y63_missions_1b = {
	slot = 1
	generic = no
	ai = yes 
	potential = {
		tag = Y63
		NOT = { has_global_flag =  khom_civilwar_honsai_won_war }
	}
	has_country_shield = yes
	
	Y63_welcome_hinphati_veterans = {
		icon = mission_persian_soldiers
		position = 2
		required_missions = { Y63_civil_intercession }

		provinces_to_highlight = {
			OR = {
				is_capital_of = Y87
				is_capital_of = Y88
				is_capital_of = Y56
			}
			owner = {
				NOT = {
					has_opinion = {
						who = ROOT
						value = 100
					}
				}
			}
		}
		
		trigger = {
			NOT = { exists = Y66 }
			is_at_war = no
			all_subject_country = {
				OR = {
					has_opinion = {
						who = ROOT
						value = 100
					}
					NOT = { primary_culture = hinphat }
				}
			}
		}
		
		effect = {
			5424 = {
				add_human_minority_size_effect = yes
			}
			add_country_modifier = {
				name = Y63_hinphati_veterans
				duration = 3650
			}
			hidden_effect = { complete_mission = Y63_harbor_dinh_loyalists }
		}
	}
	
	Y63_honor_beyond_the_mountain = {
		icon = mission_alliances
		position = 3
		required_missions = { Y63_welcome_hinphati_veterans }

		provinces_to_highlight = {
			OR = {
				is_capital_of = Y67
				is_capital_of = Y97
			}
		}
		
		trigger = {
			if = {
				limit = { has_saved_global_event_target = baihon_winner_event_target }
				reverse_has_opinion = {
					who = event_target:baihon_winner_event_target
					value = 150
				}
				alliance_with = event_target:baihon_winner_event_target
			}
			else = { always = no }
		}
		
		effect = {
			country_event = { id = verkalozovar_events.5 }
		}
	}
	
	Y63_more_than_friends = {
		icon = mission_have_two_subjects
		position = 4
		required_missions = { Y63_honor_beyond_the_mountain }
		
		trigger = {
			if = {
				limit = { has_saved_global_event_target = baihon_winner_event_target }
				army_size = event_target:baihon_winner_event_target
			}
			else_if = {
				limit = {
					any_known_country = {
						tag = Y97
						was_tag = Y67
					}
				}
				army_size = Y97
			}
			else = {
				army_size = Y67
			}
			custom_trigger_tooltip = {
				tooltip = Y63_more_than_friends_tt
				if = {
					limit = { mission_completed = Y63_honor_beyond_the_mountain }
					NOT = { has_country_modifier = Y63_treaty_happened }
				}
				else = {
					always = no
				}
			}
			is_subject = no
			is_at_war = no
		}
		
		effect = {
			if = {
				limit = { 
					exists = Y97 
					has_saved_global_event_target = baihon_winner_event_target
				}
				event_target:baihon_winner_event_target = { country_event = { id = verkalozovar_events.8 } }
			}
			else_if = {
				limit = {
					any_known_country = {
						tag = Y97
						was_tag = Y67
					}
				}
				Y97 = {
					country_event = { id = verkalozovar_events.8 }
				}
			}
			else = {
				Y67 = {
					country_event = { id = verkalozovar_events.8 }
				}
			}
		}
	}
	
	Y63_shadow_of_the_mountain = {
		icon = mission_conquer_50_development
		position = 5
		required_missions = { Y63_more_than_friends }

		provinces_to_highlight = {
			is_capital_of = Y67
		}
		
		trigger = {
			if = {
				limit = { exists = Y97 }
				if = {
					limit = { has_saved_global_event_target = baihon_winner_event_target }
					event_target:baihon_winner_event_target = {
						is_subject_of = ROOT
						is_subject_other_than_tributary_trigger = yes
						NOT = { liberty_desire = 50 }
					}
				}
			}
			else_if = {
				limit = {
					any_known_country = {
						tag = Y97
						was_tag = Y67
					}
				}
				Y97 = {
					is_subject_of = ROOT
					is_subject_other_than_tributary_trigger = yes
					NOT = { liberty_desire = 50 }
				}
			}
			else = {
				Y67 = {
					is_subject_of = ROOT
					is_subject_other_than_tributary_trigger = yes
					NOT = { liberty_desire = 50 }
				}
			}
		}
		
		effect = {
			if = {
				limit = { exists = Y97 }
				create_subject = {
					subject_type = patronate
					subject = event_target:baihon_winner_event_target
				}
			}
			else = {
				create_subject = {
					subject_type = patronate
					subject = Y67
				}
			}
			hidden_effect = { complete_mission = Y63_keeping_our_promises }
		}
	}
}

Y63_missions_1 = {
	slot = 1
	generic = no
	ai = yes 
	potential = {
		tag = Y63
	}
	has_country_shield = yes

	Y63_wonderful_wizards_of_oz = {
		icon = mission_magic_tower
		position = 7
		required_missions = { Y63_king_of_kai }
		
		trigger = {
			calc_true_if = {
				desc = Y63_wonderful_wizards_of_oz_tt
				amount = 4
				asia = {
					type = all
					owner = { is_subject_of = ROOT }
					has_building = mage_tower
				}
			}
			has_estate_privilege = estate_mages_patronage_of_the_magical_arts
		}
		
		effect = {
			country_event = { id = verkalozovar_events.11 }
		}
	}
	
	Y63_wisdom_of_ancients = {
		icon = mission_empowerment
		position = 9
		required_missions = { Y63_wonderful_wizards_of_oz Y63_secrets_from_days_gone }
		
		trigger = {
			NOT = { is_at_war = yes }
			monthly_adm = 6
			monthly_dip = 6
			monthly_mil = 6
			has_regency = no
		}
		
		effect = {
			add_country_modifier = {
				name = Y63_communing_with_oz_amekh
				duration = 365
			}
			country_event = { id = verkalozovar_events.12 days = 365 }
		}
	}

	Y63_palace_of_high_king = {
		icon = mission_big_house
		position = 11
		required_missions = { Y63_rise_of_runesmiths }

		provinces_to_highlight = {
			is_capital_of = ROOT
		}
		
		trigger = {
			treasury = 8000
			5424 = {
				NOT = {
					has_construction = building
					has_construction = missionary
					has_construction = colonist
					has_construction = culture
				}
			}
			if = {
				limit = {
					NOT = {
						has_country_flag = Y63_occupancy_king
						has_country_flag = Y63_occupancy_oz_amekh
					}
				}
				custom_trigger_tooltip = {
					tooltip = Y63_palace_of_high_king_tt
					always = no
				}
			}
		}
		
		effect = {
			add_treasury = -8000
			5424 = {
				add_province_modifier = {
					name = Y63_building_nephrite_palace
					duration = 1825
				}
			}
			if = {
				limit = { has_country_flag = Y63_occupancy_king }
				5424 = { add_province_triggered_modifier = Y63_nephrite_palace_king }
			}
			else_if = {
				limit = { has_country_flag = Y63_occupancy_oz_amekh }
				5424 = { add_province_triggered_modifier = Y63_nephrite_palace_oz_amekh }
			}
		}
	}
	
	Y63_runic_renaissance = {
		icon = mission_runeforged_cannons
		position = 14
		required_missions = { Y63_engrave_core_nephrite }
		
		trigger = {
			# have 3 grand runes at the same time
			if = {
				limit = {
					any_country = {
						culture_is_dwarven = yes
						capital_scope = { superregion = east_serpentspine_superregion }
					}
				}
				any_ally = {
					culture_is_dwarven = yes
				}
			}
			else = {
				any_known_country = {
					culture_is_dwarven = yes
					has_opinion = {
						who = ROOT
						value = 150
					}
				}
			}
			custom_trigger_tooltip = {
				tooltip = Y63_runic_renaissance_tt
				num_of_provinces_owned_or_owned_by_non_sovereign_subjects_with = {
					value = 15
					NOT = { owned_by = ROOT }
					has_building = mage_tower
				}
			}
		}
		
		effect = {
			custom_tooltip = Y63_unlocked_jorkin_rune_tt
			set_country_flag = Y63_unlocked_jorkin_rune
		}
	}
}

Y63_missions_2 = {
	slot = 2
	generic = no
	ai = yes 
	potential = {
		tag = Y63
	}
	has_country_shield = yes
	
	Y63_civil_intercession = {
		icon = mission_noble_council
		position = 1
		required_missions = { }
		
		trigger = {
			custom_trigger_tooltip = {
				tooltip = Y63_intercession_tt
				OR = {
					AND = {
						offensive_war_with = Y66
						has_country_flag = Y63_ma_hoang_friendship_flag
					}
					has_country_flag = Y63_ma_hoang_angy_flag
					NOT = { Y66 = { is_at_war = yes } }
				}
			}
			custom_trigger_tooltip = {
				tooltip = Y63_intercession_2_tt
				OR = {
					Y67 = { war_score = 25 }
					has_country_flag = Y63_ma_hoang_angy_flag
				}
			}
		}
		
		effect = {
			if = {
				limit = { NOT = { has_country_flag = Y63_ma_hoang_angy_flag } }
				every_subject_country = {
					limit = { primary_culture = hinphat }
					add_country_modifier = {
						name = Y63_final_offensive
						duration = 1825
					}
				}
			}
			
		}
	}
	
	Y63_seeds_of_distrust = {
		icon = mission_new_army
		position = 3
		required_missions = { Y63_harbor_dinh_loyalists Y63_welcome_hinphati_veterans }

		provinces_to_highlight = {
			is_capital_of = Y71
		}
		
		trigger = {
			if = {
				limit = {
					Y67 = {
						OR = {
							exists = no
							NOT = {
								alliance_with = Y71
							}
						}
					}
				}
			}
			else = {
				Y67 = {
					trust = {
						who = ROOT
						value = 70
					}
				}
				has_spy_network_in = {
					who = Y71
					value = 30
				}
			}
		}
		
		effect = {
			if = {
				limit = {
					Y67 = { alliance_with = Y71 }
				}
				Y67 = {
					add_trust = {
						who = Y71
						value = -25
						mutual = yes
					}
					add_opinion = {
						who = Y71
						modifier = Y63_seeds_of_distrust
					}
					reverse_add_opinion = {
						who = Y71
						modifier = Y63_seeds_of_distrust
					}
				}
				Y71 = {
					add_country_modifier = {
						name = Y63_diplomatic_sabotage
						duration = 1825
					}
				}
			}
		}
	}
	
	Y63_quash_the_revolt = {
		icon = mission_hills_of_gondwana
		position = 4
		required_missions = { Y63_seeds_of_distrust }

		provinces_to_highlight = {
			is_capital_of = Y71
		}
		
		trigger = {
			is_free_or_tributary_trigger = yes
			army_size_percentage = 0.9
			if = {
				limit = { has_global_flag = khom_civilwar_honsai_won_war }
				trade_embargoing  = Y71
			}
			NOT = { truce_with = Y71 }
			is_at_war = no
			is_subject = no
		}
		
		effect = {
			if = {
				limit = { exists = Y71 }
				declare_war_with_cb = {
					who = Y71
					casus_belli = cb_vassalize_mission
				}
				custom_tooltip = Y63_kudet_kai_tt
				if = {
					limit = { has_global_flag = khom_civilwar_honsai_won_war }
					4751 = { add_claim = ROOT }
				}
			}
			else = {
				4751 = {
					owner = {
						reverse_add_casus_belli = {
							target = ROOT
							type = cb_vassalize_mission
						}
					}
				}
			}
		}
	}
	
	Y63_unkillable_east = {
		icon = mission_skull
		position = 5
		required_missions = { Y63_quash_the_revolt }

		provinces_to_highlight = {
			is_capital_of = Y71
		}
		
		trigger = {
			Y71 = {
				is_subject_of = ROOT
				is_subject_other_than_tributary_trigger = yes
				NOT = { liberty_desire = 50 }
			}
		}
		
		effect = {
			create_subject = {
				subject_type = patronate
				subject = Y71
			}
		}
	}
	
	Y63_king_of_kai = {
		icon = mission_thinking_king
		position = 6
		required_missions = { Y63_unkillable_east Y63_shadow_of_the_mountain Y63_keeping_our_promises Y63_toast_to_unity }
		
		trigger = {
			any_subject_country = {
				OR = {
					primary_culture = phonan
					tag = Y67
					tag = Y97
				}
				is_subject_of_type = patronate
			}
			any_subject_country = {
				primary_culture = hinphat
				is_subject_of_type = patronate
			}
			any_subject_country = {
				primary_culture = bokai
				is_subject_of_type = patronate
			}
			any_subject_country = {
				primary_culture = sikai
				is_subject_of_type = patronate
			}
			NOT = {
				any_subject_country = {
					variable_arithmetic_trigger = {
						custom_tooltip = has_twice_our_development_tt
						export_to_variable = {
							which = subject_development
							value = trigger_value:total_development
						}
						export_to_variable = {
							which = overlord_development
							value = trigger_value:total_development
							who = ROOT
						}
						multiply_variable = { which = overlord_development value = 3 }
						check_variable = { which = subject_development which = overlord_development }
					}
				}
			}
			has_estate_privilege = estate_nobles_strong_duchies
		}
		
		effect = {
			if = {
				limit = { government_rank = 1 }
				set_government_rank = 2
			}
			custom_tooltip = Y63_unlock_patronate_estate_tt
			random_subject_country = {
				limit = {
					primary_culture = phonan
					is_subject_of_type = patronate
				}
				override_country_name = Y63_PHONAN_NAME
				hidden_effect = {
					south_haless_superregion = {
						limit = { culture = phonan }
						add_permanent_claim = PREV
					}
				}
			}
			random_subject_country = {
				limit = {
					primary_culture = hinphat
					is_subject_of_type = patronate
				}
				override_country_name = Y63_HINPHAT_NAME
				hidden_effect = {
					south_haless_superregion = {
						limit = { culture = hinphat }
						add_permanent_claim = PREV
					}
				}
			}
			random_subject_country = {
				limit = {
					primary_culture = bokai
					is_subject_of_type = patronate
				}
				override_country_name = Y63_BOKAI_NAME
				hidden_effect = {
					south_haless_superregion = {
						limit = { culture = bokai }
						add_permanent_claim = PREV
					}
				}
			}
			random_subject_country = {
				limit = {
					primary_culture = sikai
					is_subject_of_type = patronate
				}
				override_country_name = Y63_SIKAI_NAME
				hidden_effect = {
					south_haless_superregion = {
						limit = { culture = sikai }
						add_permanent_claim = PREV
					}
				}
			}
			custom_tooltip = Y63_king_of_kai_effect_tt
		}
	}
	
	Y63_investigate_old_fort = {
		icon = mission_temple_patronage
		position = 7
		required_missions = { Y63_king_of_kai }

		provinces_to_highlight = {
			province_id = 4755
		}
		
		trigger = {
			4755 = {
				owner = { is_subject_of = ROOT }
				custom_trigger_tooltip = {
					tooltip = Y63_duandipom_tt
					num_of_units_in_province = {
						who = ROOT
						type = infantry
						amount = 5
					}
				}
			}
		}
		
		effect = {
			4755 = {
				kill_units = {
					who = ROOT
					type = infantry
					amount = 5
				}
				add_permanent_province_modifier = {
					name = Y63_investigatory_expedition
					duration = 1825
				}
			}
		}
	}
	
	Y63_secrets_from_days_gone = {
		icon = mission_gain_mana
		position = 8
		required_missions = { Y63_investigate_old_fort Y63_wonderful_wizards_of_oz }

		provinces_to_highlight = {
			province_id = 4755
		}
		
		trigger = {
			4755 = {
				NOT = { has_province_modifier = Y63_investigatory_expedition }
			}
			adm_power = 100
		}
		
		effect = {
			add_adm_power = -100
			custom_tooltip = Y63_unlocked_minor_runes_tt
			set_country_flag = Y63_unlocked_minor_runes
		}
	}
	
	Y63_rise_of_runesmiths = {
		icon = mission_science
		position = 10
		required_missions = { Y63_wisdom_of_ancients }
		
		trigger = {
			estate_loyalty = {
				estate = estate_mages
				loyalty = 60
			}
			# has an active rune
			NOT = { has_country_modifier = Y63_communing_with_oz_amekh }
		}
		
		effect = {
			if = {
				limit = { NOT = { government = theocracy } }
				change_government = theocracy
			}
			custom_tooltip = Y63_rise_of_runesmiths_tt
			add_government_reform = verkal_ozovar_magocracy
			country_event = { id = verkalozovar_events.14 days = 730 }
			hidden_effect = {
				if = {
					limit = {
						NOT = { ruler_has_personality = mage_personality }
					}
					define_ruler = {
						dynasty = "Krakovar"
						adm = 4
						dip = 5
						mil = 4
						male = yes
						culture = nephrite_dwarf
						religion = ROOT
						age = 179
					}
					add_ruler_personality = immortal_personality
					add_ruler_personality = mage_personality
					add_ruler_personality = pious_personality
				}
			}
		}
	}
	
	Y63_prepare_the_beacon = {
		icon = mission_develop_the_capital
		position = 12
		required_missions = { Y63_fuel_for_fire Y63_palace_of_high_king }
		
		provinces_to_highlight = {
			OR = {
				AND = {
					province_id = 5424
					NOT = {
						AND = {
							development = 100
							has_building = mage_tower
						}
					}
				}
				AND = {
					OR = {
						province_id = 4945
						province_id = 4751
						province_id = 4955
						province_id = 4764
						province_id = 4779
						province_id = 4701
						province_id = 4765
						province_id = 4963
						province_id = 4941
						province_id = 4580
						province_id = 4570
						province_id = 4565
						province_id = 4396
						province_id = 4600
					}
					NOT = {
						AND = {
							country_or_non_sovereign_subject_holds = ROOT
							development = 25
						}
					}
				}
			}
		}
		
		trigger = {
			5424 = {
				development = 100
				has_building = mage_tower
			}
			OR = {
				has_country_modifier = magic_estate_aiding_construction_1
				has_country_modifier = magic_estate_aiding_construction_2
				has_country_modifier = magic_estate_aiding_construction_3
				has_country_modifier = Y63_minor_rune_gulan_amekh
			}
			custom_trigger_tooltip = {
				tooltip = Y63_runethought_dev_tt
				4945 = {
					country_or_non_sovereign_subject_holds = ROOT
					development = 25
				}
				4751 = {
					country_or_non_sovereign_subject_holds = ROOT
					development = 25
				}
				4955 = {
					country_or_non_sovereign_subject_holds = ROOT
					development = 25
				}
				4764 = {
					country_or_non_sovereign_subject_holds = ROOT
					development = 25
				}
				4779 = {
					country_or_non_sovereign_subject_holds = ROOT
					development = 25
				}
				4701 = {
					country_or_non_sovereign_subject_holds = ROOT
					development = 25
				}
				4765 = {
					country_or_non_sovereign_subject_holds = ROOT
					development = 25
				}
				4963 = {
					country_or_non_sovereign_subject_holds = ROOT
					development = 25
				}
				4941 = {
					country_or_non_sovereign_subject_holds = ROOT
					development = 25
				}
				4580 = {
					country_or_non_sovereign_subject_holds = ROOT
					development = 25
				}
				4570 = {
					country_or_non_sovereign_subject_holds = ROOT
					development = 25
				}
				4565 = {
					country_or_non_sovereign_subject_holds = ROOT
					development = 25
				}
				4396 = {
					country_or_non_sovereign_subject_holds = ROOT
					development = 25
				}
				4600 = {
					country_or_non_sovereign_subject_holds = ROOT
					development = 25
				}
			}
			
		}
		
		effect = {
			add_country_modifier = {
				name = Y63_preparing_the_beacon
				duration = 1095
			}
		}
	}
	
	Y63_engrave_core_nephrite = {
		icon = mission_artificier_experience
		position = 13
		required_missions = { Y63_prepare_the_beacon }

		provinces_to_highlight = {
			is_capital_of = ROOT
		}
		
		trigger = {
			NOT = { has_country_modifier = Y63_preparing_the_beacon }
			if = {
				limit = {
					has_dlc = Leviathan		# Lev gives the expand infra. mechanic (+5% goods prdcd, -25% dev cost per level).
					has_dlc = "Mandate of Heaven"	# MoH gives the prosperity mechanic (+25% goods produced).
				}
				OR = {
					trade_goods_produced_amount = {
						trade_goods = gems
						amount = 25
					}
					capital_scope = { NOT = { trade_goods = gems } }
				}
			}
			else_if = {
				limit = { has_dlc = "Mandate of Heaven" }
				OR = {
					trade_goods_produced_amount = {
						trade_goods = gems
						amount = 18
					}
					capital_scope = { NOT = { trade_goods = gems } }
				}
			}
			else_if = {
				limit = { has_dlc = Leviathan }
				OR = {
					trade_goods_produced_amount = {
						trade_goods = gems
						amount = 20
					}
					capital_scope = { NOT = { trade_goods = gems } }
				}
			}
			else = {
				OR = {
					trade_goods_produced_amount = {
						trade_goods = gems
						amount = 15
					}
					capital_scope = { NOT = { trade_goods = gems } }
				}
			}
			OR = {
				court_mage = 3
				5424 = {
					has_dwarven_hold_8 = yes
				}
			}
			estate_loyalty = {
				estate = estate_mages
				loyalty = 75
			}
			# Gulan-Amekh rune active
		}
		
		effect = {
			country_event = { id = verkalozovar_events.15 }
		}
	}
	
	Y63_runic_domination = {
		icon = mission_the_surge
		position = 15
		required_missions = { Y63_runic_renaissance Y63_focal_point }
		
		provinces_to_highlight = {
			OR = {
				AND = {
					province_id = 4559
					NOT = { has_courthouse_building_trigger = yes }
				}
				AND = {
					OR = {
						province_id = 4945
						province_id = 4751
						province_id = 4955
						province_id = 4764
						province_id = 4779
						province_id = 4701
						province_id = 4765
						province_id = 4963
						province_id = 4941
						province_id = 4580
						province_id = 4570
						province_id = 4565
						province_id = 4396
						province_id = 4600
					}
					NOT = { has_building = mage_tower }
				}
			}
		}
		
		trigger = {
			4559 = {
				has_courthouse_building_trigger = yes
			}
			all_subject_country = {
				NOT = { liberty_desire = 50 }
			}
			OR = {
				has_ruler_modifier = magic_realm_enchantment_charm_assuage_subjects_2
				has_ruler_modifier = magic_realm_enchantment_charm_assuage_subjects_3
			}
			custom_trigger_tooltip = {
				tooltip = Y63_check_decisions_you_fuckers_tt
				4945 = {
					has_building = mage_tower
				}
				4751 = {
					has_building = mage_tower
				}
				4955 = {
					has_building = mage_tower
				}
				4764 = {
					has_building = mage_tower
				}
				4779 = {
					has_building = mage_tower
				}
				4701 = {
					has_building = mage_tower
				}
				4765 = {
					has_building = mage_tower
				}
				4963 = {
					has_building = mage_tower
				}
				4941 = {
					has_building = mage_tower
				}
				4580 = {
					has_building = mage_tower
				}
				4570 = {
					has_building = mage_tower
				}
				4565 = {
					has_building = mage_tower
				}
				4396 = {
					has_building = mage_tower
				}
				4600 = {
					has_building = mage_tower
				}
			}
			
		}
		
		effect = {
			add_country_modifier = {
				name = Y63_runethought_network
				duration = -1
			}
			custom_tooltip = Y63_mage_tower_subject_no_diplo_upkeep_tt
			custom_tooltip = Y63_unlocked_dauth_rune_tt
			set_country_flag = Y63_unlocked_dauth_rune
		}
	}
}

Y63_missions_3 = {
	slot = 3
	generic = no
	ai = yes 
	potential = {
		tag = Y63
	}
	has_country_shield = yes
	
	Y63_united_under_mountain = {
		icon = mission_deccanis
		position = 2
		required_missions = { Y63_civil_intercession Y63_gates_of_mountain }

		provinces_to_highlight = {
			OR = {
				is_capital_of = Y88
				is_capital_of = Y87
				is_capital_of = Y56
			}
			owner = {
				NOT = {
					has_opinion = {
						who = ROOT
						value = 150
					}
				}
			}
		}
		
		trigger = {
			Y88 = {
				is_subject_of = ROOT
				has_opinion = {
					who = ROOT
					value = 150
				}
				NOT = { has_country_modifier = Y63_final_offensive }
			}
			Y87 = {
				is_subject_of = ROOT
				has_opinion = {
					who = ROOT
					value = 150
				}
				NOT = { has_country_modifier = Y63_final_offensive }
			}
			Y56 = {
				is_subject_of = ROOT
				has_opinion = {
					who = ROOT
					value = 150
				}
				NOT = { has_country_modifier = Y63_final_offensive }
			}
			OR = {
				advisor = diplomat
				advisor = statesman
			}
		}
		
		effect = {
			Y88 = {
				inherit = Y87
				inherit = Y56
			}
			create_subject = {
				subject_type = patronate
				subject = Y88
			}
			hinphat_area = {
				set_local_autonomy = 0
			}
			phakphon_area = {
				set_local_autonomy = 0
			}
			4942 = {
				set_local_autonomy = 0
			}
		}
	}
	
	Y63_reminder_of_duty = {
		icon = mission_gharbianss
		position = 3
		required_missions = { Y63_harbor_dinh_loyalists Y63_welcome_hinphati_veterans Y63_united_under_mountain }

		provinces_to_highlight = {
			area = thirabnir_area
		}
		
		trigger = {
			if = {
				limit = { exists = Y59 }
				army_size = Y59
				custom_trigger_tooltip = {
					tooltip = Y63_reminder_tt
					Y59 = {
						OR = {
							has_opinion_modifier = {
								who = Y63
								modifier = warned
							}
							is_subject = yes
						}
					}
				}
				NOT = { truce_with = Y59 }
				is_at_war = no
			}
			else = {
				thirabnir_area = {
					type = all
					country_or_non_sovereign_subject_holds = ROOT
				}
			}
			is_subject = no
		}
		
		effect = {
			if = {
				limit = {
					Y59 = {
						exists = yes
						NOT = { is_subject_of = ROOT }
					}
				}
				declare_war_with_cb = {
					who = Y59
					casus_belli = cb_vassalize_mission
				}
			}
			else_if = {
				limit = {
					Y59 = { is_subject_of = ROOT }
				}
				add_prestige = 10
			}
			else = {
				custom_tooltip = Y63_reminder_of_duty_tt
				hidden_effect = {
					Y59 = {
						every_core_province = {
							add_permanent_claim = Y88
						}
					}
				}
			}
		}
	}
	
	Y63_mercantile_escalation = {
		icon = mission_conquer_malwa_bah
		position = 4
		required_missions = { Y63_reminder_of_duty }

		provinces_to_highlight = {
			if = {
				limit = {
					Y63 = { owns_or_subject_of = 4777 }
				}
				area = ngoen_area
				owner = {
					NOT = { is_subject_of = Y63 }
				}
			}
			else = {
				owner = { owns_or_subject_of = 4777 }
			}
		}
		
		trigger = {
			trading_policy_in_node = {
				node = 4779
				policy = hostile_trading
			}
			OR = {
				custom_trigger_tooltip = {
					tooltip = Y63_thirabnir_2_tt
					4777 = {
						owner = {
							if = {
								limit = { is_subject = no }
								has_spy_network_from = {
									who = ROOT
									value = 30
								}
							}
							else = {
								overlord = {
									has_spy_network_from = {
										who = ROOT
										value = 30
									}
								}
							}
						}
					}
				}
				custom_trigger_tooltip = {
					tooltip = Y63_thirabnir_1_tt
					ngoen_area = {
						type = all
						owner = { is_subject_of = ROOT }
					}
				}
				
			}
			if = {
				limit = { NOT = { exists = Y59 } }
				Y88 = {
					any_owned_province = {
						is_core = Y59
					}
				}
			}
		}
		
		effect = {
			if = {
				limit = { NOT = { exists = Y59 } }
				Y88 = { release_with_religion_and_culture = { tag = Y59 religion = righteous_path culture = sikai } }
				vassalize = Y59
			}
			ngoen_area = {
				add_permanent_claim = Y59
			}
		}
	}
	
	Y63_toast_to_unity = {
		icon = mission_persianate_empire
		position = 5
		required_missions = { Y63_mercantile_escalation }

		provinces_to_highlight = {
			is_capital_of = Y59
		}
		
		trigger = {
			Y59 = {
				is_subject_of = ROOT
				is_subject_other_than_tributary_trigger = yes
				NOT = { liberty_desire = 50 }
			}
		}
		
		effect = {
			create_subject = {
				subject_type = patronate
				subject = Y59
			}
			if = {
				limit = { Y59 = { NOT = { government = monarchy } } }
				Y59 = {
					change_government = monarchy
					add_government_reform = autocracy_reform
				}
			}
			else = {
				Y59 = {
					add_government_reform = autocracy_reform
				}
			}
		}
	}
	
	Y63_great_unifier = {
		icon = mission_rule_indochina
		position = 7
		required_missions = { Y63_king_of_kai Y63_king_of_dwarves }

		provinces_to_highlight = {
			culture_group = kai
			NOT = { country_or_non_sovereign_subject_holds = ROOT }
			NOT = { culture = binhrung }
		}
		
		trigger = {
			custom_trigger_tooltip = {
				tooltip = Y63_great_unifier_1_tt
				asia = {
					type = all
					OR = {
						NOT = { culture_group = kai }
						culture = binhrung
						owner = { is_subject_of = ROOT }
					}
				}
			}
			custom_trigger_tooltip = {
				tooltip = Y63_great_unifier_2_tt
				all_subject_country = {
					OR = {
						NOT = { culture_group = kai }
						NOT = { liberty_desire = 50 }
					}
				}
			}
		}
		
		effect = {
			add_country_modifier = {
				name = Y63_unifier_of_the_kai
				duration = 9125
			}
			Y88 = {
				add_country_modifier = {
					name = Y63_the_little_lord
					duration = 36500
				}
			}
		}
	}
	
	Y63_pacify_south = {
		icon = mission_the_battle_for_raichur
		position = 9
		required_missions = { Y63_great_unifier }

		provinces_to_highlight = {
			country_or_non_sovereign_subject_holds = ROOT
			province_group = temple_province_group
			NOT = { has_fort_building_trigger = yes }
		}
		
		trigger = {
			has_estate_privilege = estate_adventurers_spirit_hunters
			custom_trigger_tooltip = {
				tooltip = Y63_pacify_south_tt
				temple_province_group = {
					type = all
					OR = {
						NOT = { owner = { is_subject_of = ROOT } }
						has_fort_building_trigger = yes
					}
				}
			}
			if = {
				limit = {
					any_known_country = {
						religion = mystic_accord
						capital_scope = {
							OR = {
								region = lupulan_rainforest_region
								region = thidinkai_region
							}
						}
						NOT = { is_subject_of = ROOT }
					}
				}
				any_war_enemy_country = {
					religion = mystic_accord
					capital_scope = {
						OR = {
							region = lupulan_rainforest_region
							region = thidinkai_region
						}
					}
				}
			}
		}
		
		effect = {
			custom_tooltip = Y63_pacify_south_effect_1_tt
			hidden_effect = {
				lupulan_rainforest_region = {
					limit = { owner = { religion = mystic_accord } }
					add_permanent_claim = ROOT
				}
			}
			custom_tooltip = Y63_pacify_south_effect_2_tt
			hidden_effect = {
				every_subject_country = {
					limit = {
						capital_scope = { region = thidinkai_region }
						temple_province_group = {
							owned_by = PREV
						}
					}
					add_country_modifier = {
						name = Y63_march_against_the_south
						duration = 5475
					}
				}
			}
		}
	}
	
	Y63_damage_undone = {
		icon = mission_magic_tower
		position = 10
		required_missions = { Y63_pacify_south }

		provinces_to_highlight = {
			province_id = 4710
		}
		
		trigger = {
			4710 = {
				has_building = mage_tower
				development = 20
			}
		}
		
		effect = {
			if = {
				limit = { exists = Y65 }
				add_casus_belli = {
					target = Y65
					type = cb_vassalize_mission
					months = 240
				}
				Y65 = {
					add_country_modifier = {
						name = Y63_lupulan_ward
						duration = 1825
					}
				}
			}
			else = {
				custom_tooltip = Y63_damage_undone_effect_tt
				hidden_effect = {
					lupulan_rainforest_region = {
						limit = { religion = high_philosophy }
						add_permanent_claim = ROOT
					}
				}
			}
		}
	}
	
	Y63_fuel_for_fire = {
		icon = mission_clear_the_delta
		position = 11
		required_missions = { Y63_rise_of_runesmiths Y63_damage_undone }

		provinces_to_highlight = {
			region = lupulan_rainforest_region
			NOT = { 
				country_or_non_sovereign_subject_holds = ROOT
				province_id = 4805
				province_id = 4807
				area = amkamsek_area
			}
		}
		
		trigger = {
			custom_trigger_tooltip = {
				tooltip = Y63_lupulan_fuel_tt
				lupulan_rainforest_region = {
					type = all
					OR = {
						country_or_non_sovereign_subject_holds = ROOT
						province_id = 4805
						province_id = 4807
						area = amkamsek_area
					}
				}
			}
		}
		
		effect = {
			custom_tooltip = Y63_fuel_for_fire_tt
			hidden_effect = {
				for = {
					amount = 10
					effect =
					"random_subject_country = { limit = { any_owned_province = { region = lupulan_rainforest_region has_terrain = jungle NOT = { has_province_flag = Y63_fuel_for_fire_flag } } }
						random_owned_province = { limit = { region = lupulan_rainforest_region has_terrain = jungle NOT = { has_province_flag = Y63_fuel_for_fire_flag } }
							add_base_tax = -1 add_base_production = -1 add_base_manpower = -1 add_devastation = 10 set_province_flag = Y63_fuel_for_fire_flag
						}
					}" # had to do ugly indentation to remain under the 512 characters limit
				}
				lupulan_rainforest_region = {
					clr_province_flag = Y63_fuel_for_fire_flag
				}
			}
			5424 = {
				add_province_modifier = {
					name = Y63_increased_lumber_shipments
					duration = 18250
				}
			}
		}
	}
	
	Y63_invite_mystic_refugees = {
		icon = mission_hands_praying
		position = 12
		required_missions = { Y63_fuel_for_fire Y63_tortoise_shell }

		provinces_to_highlight = {
			OR = {
				region = bomdan_region
				region = thidinkai_region
			}
			NOT = { country_or_non_sovereign_subject_holds = ROOT }
			any_neighbor_province = {
				region = xianjie_region
			}
		}
		
		trigger = {
			# Have Dorumdhum minor rune active
			custom_trigger_tooltip = {
				tooltip = Y63_invite_mystic_refugees_tt
				num_of_provinces_owned_or_owned_by_non_sovereign_subjects_with = {
					value = 5
					NOT = { owned_by = ROOT }
					any_neighbor_province = { region = xianjie_region }
					has_tax_building_trigger = yes
				}
			}
		}
		
		effect = {
			xianjie_region = {
				add_permanent_claim = ROOT
			}
			rangadevi_area = {
				add_permanent_claim = ROOT
			}
			custom_tooltip = Y63_invite_mystic_refugees_effect_tt
			hidden_effect = {
				for = {
					amount = 3
					effect =
					"random_known_country = {
						limit = {
							religion = righteous_path
							capital_scope = { region = xianjie_region }
							NOT = { has_country_flag = Y63_invite_mystic_refugees_flag }
						}
						capital_scope = { add_base_manpower = -2 }
						set_country_flag = Y63_invite_mystic_refugees_flag
					}"
				}
				every_known_country = {
					limit = { has_country_flag = Y63_invite_mystic_refugees_flag }
					clr_country_flag = Y63_invite_mystic_refugees_flag
				}
				for = {
					amount = 3
					effect =
					"random_subject_country = { limit = { any_owned_province = { any_neighbor_province = { region = xianjie_region } has_tax_building_trigger = yes NOT = { has_province_flag = Y63_invite_mystic_refugees_flag } } }
						random_owned_province = { limit = { any_neighbor_province = { region = xianjie_region } has_tax_building_trigger = yes NOT = { has_province_flag = Y63_invite_mystic_refugees_flag } }
							add_base_manpower = 2 set_province_flag = Y63_invite_mystic_refugees_flag
						}
					}" # had to do ugly indentation to remain under the 512 characters limit
				}
				asia = {
					limit = { has_province_flag = Y63_invite_mystic_refugees_flag }
					clr_province_flag = Y63_invite_mystic_refugees_flag
				}
			}
		}
	}
	
	Y63_focal_point = {
		icon = mission_magical_forest
		position = 14
		required_missions = { Y63_engrave_core_nephrite Y63_invite_mystic_refugees Y63_reeducate_hunters }

		provinces_to_highlight = {
			OR = {
				AND = {
					area = jiezhong_area
					NOT = { country_or_non_sovereign_subject_holds = ROOT }
				}
				province_id = 4559
			}
		}
		
		trigger = {
			jiezhong_area = {
				type = all
				owner = { is_subject_of = ROOT }
			}
			4559 = {
				OR = {
					has_building = mage_tower
					has_manufactory_trigger = yes
				}
			}
			custom_trigger_tooltip = {
				tooltip = is_enchantment_1_tt
				has_ruler_flag = enchantment_1
			}
		}
		
		effect = {
			custom_tooltip = Y63_unlocked_kron_rune_tt
			set_country_flag = Y63_unlocked_kron_rune
			4559 = {
				if = {
					limit = { is_core = owner }
					remove_core = owner
					add_core = ROOT
				}
				cede_province = ROOT
				add_province_modifier = {
					name = Y63_focal_point_modifier
					duration = -1
				}
			}
		}
	}
	
	Y63_dawn_of_eastern_king = {
		icon = mission_seren_cathedral
		position = 16
		required_missions = { Y63_runic_domination Y63_center_of_haless }

		provinces_to_highlight = {
			superregion = south_haless_superregion
			NOT = {
				country_or_non_sovereign_subject_holds = ROOT
				region = ringlet_isles_region
				province_id = 4805
				province_id = 4807
			}
		}
		
		trigger = {
			custom_trigger_tooltip = {
				tooltip = Y63_all_south_haless_tt
				south_haless_superregion = {
					type = all
					OR = {
						country_or_non_sovereign_subject_holds = ROOT
						region = ringlet_isles_region
						province_id = 4805
						province_id = 4807
					}
				}
			}
			5424 = {
				has_dwarven_hold_8 = yes
			}
			stability = 2
			devotion = 95
			is_enchantment_3 = yes
		}
		
		effect = {
			custom_tooltip = Y63_dawn_of_eastern_king_tt
			hidden_effect = {
				every_known_country = {
					limit = {
						NOT = { is_subject_of = ROOT }
						capital_scope = {
							OR = {
								superregion = rahen_superregion
								superregion = yanshen_superregion
								superregion = south_haless_superregion
							}
						}
					}
					reverse_add_casus_belli = {
						target = ROOT
						type = cb_viridescent_onslaught
					}
				}
			}
			if = {
				limit = {
					OR = {
						has_country_flag = Y63_oz_amekh_ending
						NOT = { has_ruler_flag = Y63_conversed_with_oz_amekh }
					}
				}
				custom_tooltip = Y63_will_of_the_oz_amekh_tt
				hidden_effect = {
					every_subject_country = {
						add_country_modifier = {
							name = Y63_will_of_the_oz_amekh
							duration = -1
						}
					}
				}
			}
			else = {
				add_country_modifier = {
					name = Y63_absolute_domination
					duration = -1
				}
				custom_tooltip = Y63_enchantment_upgrade_tt
				set_country_flag = Y63_enchantment_upgrade
			}
			custom_tooltip = Y63_hidden_behind_the_curtain_tt
			hidden_effect = { 5424 = { add_province_triggered_modifier = Y63_hidden_behind_the_curtain } }
		}
	}
}

Y63_missions_4 = {
	slot = 4
	generic = no
	ai = yes 
	potential = {
		tag = Y63
	}
	has_country_shield = yes

	Y63_gates_of_mountain = {
		icon = mission_mountain_castle
		position = 1
		required_missions = { }

		provinces_to_highlight = {
			province_id = 4775
		}
		
		trigger = {
			4775 = {
				owner = { is_subject_of = ROOT }
				has_fort_building_trigger = yes
			}
			adm_power = 50
			mil_power = 50
			is_year = 1445
		}
		
		effect = {
			add_adm_power = -50
			add_mil_power = -50
			4775 = {
				add_permanent_province_modifier = { 
					name = Y63_gates_of_the_sky
					duration = -1  
				}
			}
		}
	}
	
	Y63_surface_farmers = {
		icon = mission_pol_breadbasket_europe
		position = 3
		required_missions = { Y63_united_under_mountain }

		provinces_to_highlight = {
			culture = hinphat
			NOT = { development = 8 }
		}
		
		trigger = {
			custom_trigger_tooltip = {
				tooltip = Y63_surface_farmers_tt
				thidinkai_region = {
					type = all
					OR = {
						NOT = { culture = hinphat }
						development = 8
					}
				}
			}
		}
		
		effect = {
			custom_tooltip = Y63_surface_farmers_effect_tt
			hidden_effect = {
				thidinkai_region = {
					limit = { culture = hinphat }
					add_dwarven_minority_size_effect = yes
				}
			}
			hidden_effect = { country_event = { id = 6014 days = 365 } }
		}
	}
	
	Y63_symbiotic_production = {
		icon = mission_peasantry
		position = 4
		required_missions = { Y63_surface_farmers }

		provinces_to_highlight = {
			culture = hinphat
			NOT = { has_production_building_trigger = yes }
		}
		
		trigger = {
			custom_trigger_tooltip = {
				tooltip = Y63_symbiotic_production_tt
				thidinkai_region = {
					type = all
					OR = {
						NOT = { culture = hinphat }
						has_production_building_trigger = yes
					}
				}
			}
		}
		
		effect = {
			every_subject_country = {
				limit = { primary_culture = hinphat }
				medium_increase_of_dwarven_tolerance_effect = yes
				add_country_modifier = {
					name = Y63_dwarven_coexistance
					duration = -1
				}
			}
		}
	}
	
	Y63_king_of_dwarves = {
		icon = mission_empire
		position = 6
		required_missions = { Y63_symbiotic_production Y63_underground_rainwater }

		provinces_to_highlight = {
			is_capital_of = ROOT
		}
		
		trigger = {
			5424 = {
				has_dwarven_hold_5 = yes
			}
			prestige = 50
		}
		
		effect = {
			country_event = { id = verkalozovar_events.20 }
			hidden_effect = {
				5424 = {
					remove_province_triggered_modifier = Y63_masters_of_the_phokhao
					add_province_triggered_modifier = Y63_masters_of_the_phokhao_upgraded
				}
			}
		}
	}
	
	Y63_call_to_action = {
		icon = mission_missive
		position = 7
		required_missions = { Y63_king_of_dwarves }
		
		trigger = {
			OR = {
				AND = {
					estate_loyalty = {
						estate = estate_adventurers
						loyalty = 55
					}
					estate_influence = {
						estate = estate_adventurers
						influence = 40
					}
				}
				AND = {
					estate_loyalty = {
						estate = estate_nobles
						loyalty = 65
					}
					estate_influence = {
						estate = estate_nobles
						influence = 50
					}
				}
			}
		}
		
		effect = {
			custom_tooltip = Y63_call_to_action_tt
			if = {
				limit = {
					estate_loyalty = {
						estate = estate_adventurers
						loyalty = 55
					}
					estate_influence = {
						estate = estate_adventurers
						influence = 40
					}
				}
				set_country_flag = Y63_jadequest_adventurers
				# start getting adventurer jadequest events
			}
			else_if = {
				limit = {
					estate_loyalty = {
						estate = estate_nobles
						loyalty = 65
					}
					estate_influence = {
						estate = estate_nobles
						influence = 50
					}
				}
				set_country_flag = Y63_jadequest_diplomatic
				# start getting diplomatic jadequest events
			}
		}
	}
	
	Y63_brothers_revolt = {
		icon = mission_dwarf_close_up
		position = 9
		required_missions = { Y63_call_to_action }

		provinces_to_highlight = {
			province_id = 4580
		}
		
		trigger = {
			if = {
				limit = { owns_or_non_sovereign_subject_of = 4580 }
				owns_or_non_sovereign_subject_of = 4580
			}
			else = {
				4580 = {
					owner = {
						has_spy_network_from = {
							who = ROOT
							value = 60
						}
					}
				}
				treasury = 400
			}
		}
		
		effect = {
			if = {
				limit = { NOT = { owns_or_non_sovereign_subject_of = 4580 } }
				add_treasury = -400
				custom_tooltip = Y63_brothers_revolt_tt
				hidden_effect = {
					4580 = {
						owner = {
							capital_scope = {
								every_province_in_state = {
									spawn_rebels = {
										type = particularist_rebels
										size = 2
									}
								}
							}
							set_country_flag = Y63_brothers_revolt_flag
						}
					}
				}
			}
		}
	}
	
	Y63_tortoise_shell = {
		icon = mission_burning_castle
		position = 11
		required_missions = { Y63_brothers_revolt }
		
		trigger = {
			OR = {
				fortification_expert = 2
				has_global_modifier_value = {
					which = siege_ability
					value = 0.25
				}
			}
			num_of_artillery = 15
		}
		
		effect = {
			custom_tooltip = Y63_tortoise_shell_tt
			hidden_effect = {
				asia = {
					limit = {
						OR = {
							culture = risbeko
							culture = biengdi
							culture = gon
						}
					}
					add_permanent_claim = ROOT
				}
			}
			add_country_modifier = {
				name = Y63_shellcracker
				duration = 5475
			}
		}
	}
	
	Y63_center_of_haless = {
		icon = mission_merchant_trip
		position = 15
		required_missions = { Y63_focal_point }

		provinces_to_highlight = {
			OR = {
				AND = {
					OR = {
						province_id = 4621
						province_id = 4784
						province_id = 4782
						province_id = 4940
						province_id = 4777
						province_id = 4942
						province_id = 4776
						province_id = 4775
					}
					NOT = { country_or_non_sovereign_subject_holds = ROOT }
				}
				AND = {
					OR = {
						superregion = south_haless_superregion
						superregion = yanshen_superregion
					}
					has_dwarven_minority_trigger = yes
					NOT = { country_or_non_sovereign_subject_holds = ROOT }
				}
			}
		}
		
		trigger = {
			custom_trigger_tooltip = {
				tooltip = Y63_center_of_haless_1_tt
				south_haless_superregion = {
					type = all
					OR = {
						NOT = { has_dwarven_minority_trigger = yes }
						country_or_non_sovereign_subject_holds = ROOT
					}
				}
				yanshen_superregion = {
					type = all
					OR = {
						NOT = { has_dwarven_minority_trigger = yes }
						country_or_non_sovereign_subject_holds = ROOT
					}
				}
			}
			4458 = {
				owner = {
					has_opinion_modifier = {
						who = ROOT
						modifier = sent_gift
					}
				}
			}
			4435 = {
				owner = {
					has_opinion_modifier = {
						who = ROOT
						modifier = sent_gift
					}
				}
			}
			4411 = {
				owner = {
					has_opinion_modifier = {
						who = ROOT
						modifier = sent_gift
					}
				}
			}
			custom_trigger_tooltip = {
				tooltip = Y63_center_of_haless_2_tt
				has_country_modifier = Y63_minor_rune_gulan_amekh
			}
			# has Gulan-Amekh rune active
			4621 = { country_or_non_sovereign_subject_holds = ROOT }
			4784 = { country_or_non_sovereign_subject_holds = ROOT }
			4782 = { country_or_non_sovereign_subject_holds = ROOT }
			4940 = { country_or_non_sovereign_subject_holds = ROOT }
			4777 = { country_or_non_sovereign_subject_holds = ROOT }
			4942 = { country_or_non_sovereign_subject_holds = ROOT }
			4776 = { country_or_non_sovereign_subject_holds = ROOT }
			4775 = { country_or_non_sovereign_subject_holds = ROOT }
		}
		
		effect = {
			custom_tooltip = Y63_center_of_haless_effect_tt
			hidden_effect = {
				4621 = {
					add_permanent_province_modifier = {
						name = golden_highway_under_construction
						duration = -1
					}
				}
				4784 = {
					add_permanent_province_modifier = {
						name = golden_highway_under_construction
						duration = -1
					}
				}
				4782 = {
					add_permanent_province_modifier = {
						name = golden_highway_under_construction
						duration = -1
					}
				}
				4940 = {
					add_permanent_province_modifier = {
						name = golden_highway_under_construction
						duration = -1
					}
				}
				4777 = {
					add_permanent_province_modifier = {
						name = golden_highway_under_construction
						duration = -1
					}
				}
				4942 = {
					add_permanent_province_modifier = {
						name = golden_highway_under_construction
						duration = -1
					}
				}
				4776 = {
					add_permanent_province_modifier = {
						name = golden_highway_under_construction
						duration = -1
					}
				}
				4775 = {
					add_permanent_province_modifier = {
						name = golden_highway_under_construction
						duration = -1
					}
				}
			}
			5424 = {
				center_of_trade = 3
			}
		}
	}
}

Y63_missions_5 = {
	slot = 5
	generic = no
	ai = yes 
	potential = {
		tag = Y63
	}
	has_country_shield = yes

	Y63_crafting_a_foundation = {
		icon = mission_castle_construction
		position = 1
		required_missions = { }

		provinces_to_highlight = {
			is_capital_of = ROOT
		}
		
		trigger = {
			5424 = {
				if = {
					limit = { has_dlc = "Leviathan" }
					num_of_times_expanded_infrastructure = 1
					num_of_times_improved = 5
				}
				else = {
					num_of_times_improved = 8
				}
			}
		}
		
		effect = {
			add_country_modifier = {
				name = Y63_architectural_revitalization
				duration = 3650
			}
			every_subject_country = {
				add_country_modifier = {
					name = Y63_architectural_revitalization
					duration = 3650
				}
			}
		}
	}
	
	Y63_bounty_of_the_mountains = {
		icon = mission_mnd_khm_protect_the_cham
		position = 2
		required_missions = { Y63_crafting_a_foundation }

		provinces_to_highlight = {
			is_capital_of = ROOT
		}
		
		trigger = {
			5424 = {
				has_dwarven_hold_3 = yes
			}
		}
		
		effect = {
			5424 = {
				add_province_triggered_modifier = Y63_masters_of_the_phokhao
			}
		}
	}
	
	Y63_repopulate_rune_workshops = {
		icon = mission_have_manufactories
		position = 3
		required_missions = { Y63_bounty_of_the_mountains }

		provinces_to_highlight = {
			is_capital_of = ROOT
		}
		
		trigger = {
			5424 = {
				has_production_building_trigger = yes
				has_dwarven_hold_4 = yes
				NOT = { has_construction = any }
			}
			estate_loyalty = {
				estate = estate_mages
				loyalty = 60
			}
			treasury = 100
		}
		
		effect = {
			5424 = {
				add_building_construction = {
					building = mage_tower
					speed = 0.5
					cost = 0.25
				}
			}
		}
	}
	
	Y63_underground_rainwater = {
		icon = mission_treasure_room
		position = 5
		required_missions = { Y63_repopulate_rune_workshops }

		provinces_to_highlight = {
			is_capital_of = ROOT
		}
		
		trigger = {
			custom_trigger_tooltip = {
				tooltip = Y63_underground_rainwater_trigger_tt
				5424 = {
					OR = {
						has_province_modifier = magic_estate_ward_1
						has_province_modifier = magic_estate_ward_2
						has_province_modifier = magic_estate_ward_3
						has_province_modifier = Y63_minor_rune_runic_ward_3
						has_province_modifier = Y63_minor_rune_runic_ward_2
						has_province_modifier = Y63_minor_rune_runic_ward_1
					}
				}
			}
			crown_land_share = 5
		}
		
		effect = {
			add_stability_or_adm_power = yes
			every_subject_country = {
				add_stability_or_adm_power = yes
			}
			custom_tooltip = Y63_underground_rainwater_tt
			set_country_flag = remove_dip_from_regulations
			change_estate_land_share = {
				estate = estate_mages
				share = 5
			}
		}
	}
	
	Y63_new_settlement = {
		icon = mission_dwarf
		position = 7
		required_missions = { Y63_king_of_dwarves }

		provinces_to_highlight = {
			province_id = 4756
		}
		
		trigger = {
			custom_trigger_tooltip = {
				tooltip = Y63_new_settlement_tt
				check_variable = { jadeCounter = 3 }
			}
			4756 = {
				owner = {
					has_opinion = {
						who = ROOT
						value = 200
					}
				}
			}
		}
		
		effect = {
			4756 = {
				change_culture = jade_dwarf
				change_religion = ROOT
				add_permanent_province_modifier = {
					name = Y63_dwarven_exclave
					duration = -1
				}
				hidden_effect = {
					owner = {
						add_accepted_culture = jade_dwarf
					}
				}
			}
		}
	}
	
	Y63_armorsmiths_of_binhrunghin = {
		icon = mission_build_up_to_force_limit
		position = 8
		required_missions = {  Y63_great_unifier Y63_call_to_action Y63_new_settlement }

		provinces_to_highlight = {
			province_id = 4955
		}
		
		trigger = {
			4955 = {
				owner = { is_subject_of = ROOT }
				has_production_building_trigger = yes
				base_production = 8
			}
		}
		
		effect = {
			custom_tooltip = Y63_binhrunghin_armorshits_tt
			if = {
				limit = { has_country_flag = Y63_jadequest_adventurers }
				custom_tooltip = Y63_new_quest_tt
				set_country_flag = Y63_jadequest_adventurers_1
				# unlock adventurer jadequest events "Helping the War Effort"
			}
			else_if = {
				limit = { has_country_flag = Y63_jadequest_diplomatic }
				custom_tooltip = Y63_new_quest_tt
				set_country_flag = Y63_jadequest_diplomatic_1
				# unlock diplomatic jadequest events "Great Foundries"
			}
		}
	}
	
	Y63_hermit_fortress = {
		icon = mission_advance_to_kalyana
		position = 10
		required_missions = { Y63_armorsmiths_of_binhrunghin Y63_brothers_revolt }

		provinces_to_highlight = {
			province_id = 4580
		}
		
		trigger = {
			4580 = {
				fort_level = 3
				if = {
					limit = {
						OR = {
							NOT = { has_manufactory_trigger = yes }
							has_building = ramparts
						}
					}
					has_building = ramparts
				}
				owner = { is_subject_of = ROOT }
			}
		}
		
		effect = {
			custom_tooltip = Y63_binhrunghin_armorshits_tt
			if = {
				limit = { has_country_flag = Y63_jadequest_adventurers }
				custom_tooltip = Y63_new_quest_tt
				set_country_flag = Y63_jadequest_adventurers_2
				# unlock adventurer jadequest events "Construction Assistance"
			}
			else_if = {
				limit = { has_country_flag = Y63_jadequest_diplomatic }
				custom_tooltip = Y63_new_quest_tt
				set_country_flag = Y63_jadequest_diplomatic_2
				# unlock diplomatic jadequest events "A Helping Hand in Administration"
			}
			4580 = {
				add_province_modifier = {
					name = Y63_hermit_fortress
					duration = -1
				}
			}
		}
	}
	
	Y63_reeducate_hunters = {
		icon = mission_elephant_herd
		position = 13
		required_missions = { Y63_hermit_fortress }

		provinces_to_highlight = {
			province_id = 4570
		}
		
		trigger = {
			4570 = {
				has_trade_building_trigger = yes
				if = {
					limit = { has_dlc = "Dharma" }
					province_has_center_of_trade_of_level = 2
				}
				owner = { is_subject_of = ROOT }
			}
		}
		
		effect = {
			custom_tooltip = Y63_binhrunghin_armorshits_tt
			if = {
				limit = { has_country_flag = Y63_jadequest_adventurers }
				custom_tooltip = Y63_new_quest_tt
				set_country_flag = Y63_jadequest_adventurers_3
				# unlock adventurer jadequest events "Beast Slayers"
			}
			else_if = {
				limit = { has_country_flag = Y63_jadequest_diplomatic }
				custom_tooltip = Y63_new_quest_tt
				set_country_flag = Y63_jadequest_diplomatic_3
				# unlock diplomatic jadequest events "Big Returns"
			}
		}
	}
}
