
yingzhen_start_1 = {
	slot = 2
	generic = no
	ai = yes
	potential = {
		tag = Y10
	}
	has_country_shield = yes
	
	yingzhen_a_keeper_of_secrets = {
		icon = mission_dark_book
		required_missions = {
			yingzhen_lies_and_slander
		}
		position = 2
		
		trigger = {
			spymaster = 1
		}
		
		effect = {
			add_government_reform = sinistral_chamber_reform
			country_event = { id = yingzhen.4 }
		}
	}
	
	yingzhen_oni_overture = {
		icon = mission_oni
		required_missions = {
			yingzhen_a_keeper_of_secrets
		}
		position = 3

		trigger = {
			OR = {
				Y01 = {
					has_opinion = {
						who = ROOT
						value = 0
					}
					is_at_war = no
				}
				NOT = { exists = Y01 }
			}
		}
		
		effect = {
			if = {
				limit = { exists = Y01 }
				Y01 = { country_event = { id = yingzhen.5 } }
			}
			else = {
				add_country_modifier = {
					name = yingzhen_oni_knowledge
					duration = 9125
				}
			}
		}
	}
	
	yingzhen_fulfill_the_contract = {
		icon = mission_assassination
		required_missions = {
			yingzhen_oni_overture
		}
		position = 4
		
		provinces_to_highlight = {
			owner = {
				is_rival = Y01
			}
		}
		
		trigger = {
			OR = {
				any_known_country = {
					is_rival = Y01
					has_spy_network_from = {
						who = ROOT
						value = 60
					}
				}
				NOT = { exists = Y01 }
			}
		}
		
		effect = {
			if = {
				limit = { exists = Y01 }
				country_event = { id = yingzhen.7 }
				hidden_effect = {
					random_country = {
						limit = {
							is_rival = Y01
							has_spy_network_from = {
								who = ROOT
								value = 60
							}
						}
						country_event = { id = yingzhen.8 }
					}
				}
			}
		}
	}
	
	ying_best_things = {
		icon = mission_crowning
		required_missions = {
			yingzhen_fulfill_the_contract yingzhen_corrupt_the_patrol yingzhen_a_shield_against_zealots
		}
		position = 5
		
		provinces_to_highlight = {
			owner = {
				is_rival = ROOT
			}
		}
		
		trigger = {
			any_rival_country = {
				has_spy_network_from = {
					who = ROOT
					value = 100
				}
			}
		}
		
		effect = {
			hidden_effect = {
				random_rival_country = {
					limit = {
						has_spy_network_from = {
							who = ROOT
							value = 100
						}
					}
					country_event = {
						id = yingzhen.11
						days = 3
					}
				}
			}
			country_event = { id = yingzhen.10 }
			#custom_tooltip = y10_assassin_events_tooltip
			hidden_effect = {
				set_country_flag = allow_yingzhen_events
			}
		}
	}
}

yingzhen_start_2 = {
	slot = 3
	generic = no
	ai = yes
	potential = {
		tag = Y10
	}
	has_country_shield = yes
	
	yingzhen_lies_and_slander = {
		icon = mission_missive
		required_missions = {
			
		}
		position = 1
		provinces_to_highlight = {
			owned_by = Y02
		}
		trigger = {
			OR = {
				has_spy_network_in = {
					who = Y02
					value = 40
				}
				AND = {
					NOT = { exists = Y02 }
					owns_core_province = 4851
				}
			}
		}
		
		effect = {
			if = {
				limit = {
					exists = Y02
					4848 = { controlled_by = Y02 }
				}
				country_event = {
					id = yingzhen.1
				}
			}
			jiangszun_area = { add_permanent_claim = ROOT }
			4952 = { add_permanent_claim = ROOT }
			add_spy_network_in = {
				who = Y02
				value = -40
			}
		}
	}
	
	yingzhen_never_saw_it_coming = {
		icon = mission_whisper
		required_missions = {
			yingzhen_lies_and_slander
		}
		position = 2
		
		provinces_to_highlight = {
			owned_by = Y04
		}
		
		trigger = {
			OR = {
				AND = {
					has_spy_network_in = {
						who = Y04
						value = 50
					}
					church_power = 75
				}
				AND = {
					NOT = { exists = Y04 }
					owns_core_province = 4853
					owns_core_province = 4933
					owns_core_province = 4854
				}
			}
		}
		
		effect = {
			country_event = { id = yingzhen.9 }
			4933 = { add_permanent_claim = ROOT }
			4853 = { add_permanent_claim = ROOT }
			4854 = { add_permanent_claim = ROOT }
			
			add_spy_network_in = {
				who = Y04
				value = -50
			}
		}
	}
	
	yingzhen_steal_the_vote = {
		icon = mission_writing_book
		required_missions = {
			yingzhen_never_saw_it_coming yingzhen_a_keeper_of_secrets
		}
		position = 3
		
		provinces_to_highlight = {
			owned_by = Y06
		}
		
		trigger = {
			OR = {
				AND = {
					has_spy_network_in = {
						who = Y06
						value = 60
					}
					treasury = 150
					Y06 = {
						is_at_war = no
						OR = {
							is_subject = no
							is_subject_of = ROOT
						}
					}
				}
				owns_core_province = 4861
			}
		}
		
		effect = {
			if = {
				limit = { owns_core_province = 4861 }
				add_prestige = 5
			}
			else = {				
				country_event = { id = yingzhen.15 }
				add_treasury = -150
				add_spy_network_in = {
					who = Y06
					value = -60
				}
				hidden_effect = {
					country_event = {
						id = yingzhen.18
						days = 360
					}
				}
			}
		}
	}
	
	yingzhen_corrupt_the_patrol = {
		icon = mission_city_prosperity
		required_missions = {
			yingzhen_steal_the_vote
		}
		position = 4
		
		provinces_to_highlight = {
			owned_by = Y08
		}
		
		trigger = {
			OR = {
				AND = {
					has_spy_network_in = {
						who = Y08
						value = 70
					}
					manpower = 5
					Y08 = {
						is_at_war = no
						OR = {
							is_subject = no
							is_subject_of = ROOT
						}
					}
				}
				NOT = { exists = Y08 }
			}
		}
		
		effect = {
			if = {
				limit = { exists = Y08 }
				country_event = { id = yingzhen.19 }
				add_manpower = -5
				add_spy_network_in = {
					who = Y08
					value = -50
				}
			}
			else = {
				4855 = { add_permanent_claim = ROOT }
				4859 = { add_permanent_claim = ROOT }
			}
		}
	}
}

yingzhen_start_3 = {
	slot = 4
	generic = no
	ai = yes
	potential = {
		tag = Y10
	}
	has_country_shield = yes
	
	yingzhen_taking_it_back = {
		icon = mission_asian_city
		required_missions = {
			yingzhen_lies_and_slander
		}
		position = 2
		
		provinces_to_highlight = {
			OR = {
				province_id = 4952
				province_id = 4842
				province_id = 4845
			}
			NOT = {
				owned_by = ROOT
			}
		}
		
		trigger = {
			4952 = { owned_by = ROOT }
			4842 = { owned_by = ROOT }
			4845 = { owned_by = ROOT }
		}
		
		effect = {
			bianfang_area = { add_permanent_claim = ROOT }
			bianyuan_area = { add_permanent_claim = ROOT }
		}
	}
	
	yingzhen_break_the_fang = {
		icon = mission_destroyed_city
		required_missions = {
			yingzhen_taking_it_back
		}
		position = 3
		
		provinces_to_highlight = {
			OR = {
				area = bianyuan_area
				area = bianfang_area
			}
			NOT = {
				owned_by = ROOT
			}
		}
		
		trigger = {
			bianyuan_area = {
				type = all
				owned_by = ROOT
			}
			bianfang_area = {
				type = all
				owned_by = ROOT
			}
		}
		
		effect = {
			4826 = {
				add_base_tax = -3
				add_base_production = -3
				add_base_manpower = -3
			}
			4842 = {
				add_base_tax = -3
				add_base_production = -3
				add_base_manpower = -3
			}
			4849 = {
				add_base_tax = 4
				add_base_production = 4
				add_base_manpower = 4
			}
		}
	}
	
	yingzhen_a_shield_against_zealots = {
		icon = mission_burning_parthenon
		required_missions = {
			yingzhen_break_the_fang
		}
		position = 4
		
		provinces_to_highlight = {
			province_id = 4826
			NOT = {
				AND = {
					owned_by = ROOT
					has_fort_building_trigger = yes
					has_manpower_building_trigger = yes
				}
			}
		}
		
		trigger = {
			4826 = {
				owned_by = ROOT
				has_fort_building_trigger = yes
				has_manpower_building_trigger = yes
			}
		}
		
		effect = {
			4826 = {
				add_building_construction = {
					building = ramparts
					speed = 1
					cost = 0.5
				}
			}
			add_country_modifier = {
				name = yingzhen_shield
				duration = 9125
			}
		}
	}
}

yingzhen_unified_1 = {
	slot = 1
	generic = no
	ai = yes
	potential = {
		tag = Y10
		has_country_flag = yanszin_unification
	}
	has_country_shield = yes
	
	yingzhen_appeasement = {
		icon = mission_dual_diplomacy
		required_missions = {
		}
		position = 6
		
		provinces_to_highlight = {
			province_group = original_yanszin #Starting Yanszin Provinces
			NOT = {
				AND = {
					owned_by = ROOT
					development = 15
				}
			}
		}
		
		trigger = {
			original_yanszin = {
				type = all
				owned_by = ROOT
				development = 15
			}
		}
		
		effect = {
			original_yanszin = {
				add_nationalism = -5
				add_province_modifier = {
					name = yingzhen_appeasement
					duration = 7300
				}
			}
		}
	}
	
	yingzhen_benevolence = {
		icon = mission_marriage
		required_missions = {
			yingzhen_appeasement
			yingzhen_wayward_city
		}
		position = 8
		
		provinces_to_highlight = {
			OR = {
				province_group = original_yanszin
				area = tianszi_area
			}
			unrest = 0
		}
		
		trigger = {
			original_yanszin = { #Starting Yanszin Provinces
				type = all
				NOT = { unrest = 0 }
			}
			tianszi_area = {
				NOT = { unrest = 0 }
			}
		}
		
		effect = {
			original_yanszin = {
				add_devastation = -30
				add_prosperity = 30
			}
			tianszi_area = {
				add_devastation = -30
				add_prosperity = 30
			}
		}
	}
	
	yingzhen_counter_counter = {
		icon = mission_missive
		required_missions = {
			yingzhen_assassins_creed
		}
		position = 13
		
		trigger = {
			custom_trigger_tooltip = {
				tooltip = yingzhen_spymaster_ruler_tt
				has_country_flag = yingzhen_spymaster_ruler
			}
			has_institution = manufactories
			has_estate_privilege = artifice_invention_directed_research
			has_estate_privilege = estate_artificers_organization_state
		}
		
		effect = {
			add_country_modifier = {
				name = yingzhen_counter
				duration = 7300
			}
		}
	}
	
	yingzhen_trade_secrets = {
		icon = mission_whisper
		required_missions = {
			yingzhen_counter_counter
		}
		position = 14
		
		provinces_to_highlight = {
			owner = {
				culture_group = gnomish
			}
			has_discovered = ROOT
		}
		
		trigger = {
			any_known_country = {
				culture_group = gnomish
				has_spy_network_from = {
					who = ROOT
					value = 75
				}
			}
		}
		effect = {
			country_event = { id = yingzhen.42 }
		}
	}
	
	yingzhen_tools_trade = {
		icon = mission_science
		required_missions = {
			yingzhen_trade_secrets
		}
		position = 16
		
		trigger = {
			treasury = 500
			estate_loyalty = {
				estate = estate_artificers
				loyalty = 60
			}
			estate_influence = {
				estate = estate_artificers
				influence = 40
			}
			has_estate_privilege = estate_artificers_organization_state
		}
		
		effect = {
			add_treasury = -500
			custom_tooltip = y10_toolstrade_tooltip
		}
	}
}

yingzhen_unified_2 = {
	slot = 2
	generic = no
	ai = yes
	potential = {
		tag = Y10
		has_country_flag = yanszin_unification
	}
	has_country_shield = yes
	
	yingzhen_wayward_city = {
		icon = mission_green_village
		required_missions = {
			yingzhen_secure_league
		}
		position = 7
		
		provinces_to_highlight = {
			area = tianszi_area
			NOT = { owned_by = ROOT }
		}
		
		trigger = {
			tianszi_area = {
				type = all
				owned_by = ROOT
			}
		}
		
		effect = {
			country_event = { id = yingzhen.41 }
		}
	}
	
	yingzhen_hand_feeds = {
		icon = mission_feast
		required_missions = {
			yingzhen_benevolence
			yingzhen_master_river
		}
		position = 9
		
		trigger = {
			church_power = 100
			custom_trigger_tooltip = {
				tooltip = y10_plant_growth_tooltip
				any_owned_province = {
					OR = {
						has_province_modifier = magic_realm_transmutation_plant_growth_1
						has_province_modifier = magic_realm_transmutation_plant_growth_2
						has_province_modifier = magic_realm_transmutation_plant_growth_3
					}
				}
			}
		}
		
		effect = {
			add_country_modifier = {
				name = yingzhen_hand_feeds
				duration = 9125
			}
		}
	}
	
	yingzhen_quelled_country = {
		icon = mission_big_house
		required_missions = {
			yingzhen_secure_heartland
		}
		position = 11
		
		trigger = {
			religious_unity = 0.80
			NOT = { average_unrest = 0 }
		}
		
		effect = {
			add_country_modifier = {
				name = yingzhen_quelled
				duration = 10950
			}
			4849 = { add_center_of_trade_level = 1 }
		}
	}
	
	yingzhen_best_defense = {
		icon = mission_armor_choice
		required_missions = {
			yingzhen_assassins_creed
		}
		position = 13
		
		provinces_to_highlight = {
			province_id = 4849
			NOT = { has_fort_building_trigger = yes }
		}
		
		trigger = {
			custom_trigger_tooltip = {
				tooltip = yingzhen_assassin_ruler_tt
				has_country_flag = yingzhen_assassin_ruler
			}
			4849 = { has_fort_building_trigger = yes }
			num_of_owned_provinces_with = {
				value = 5
				has_fort_building_trigger = yes
			}
		}
		
		effect = {
			4849 = {
				add_province_modifier = {
					name = yingzhen_best_defense_modifier
					duration = -1
				}
			}
		}
	}
	
	yingzhen_nothing_true = {
		icon = mission_shady_encounter
		required_missions = {
			yingzhen_best_defense
		}
		position = 15
		
		trigger = {
			OR = {
				university = 5
				AND = {
					innovativeness = 15
					adm_power = 75
					dip_power = 75
					mil_power = 75
				}
				AND = {
					adm_power = 150
					dip_power = 150
					mil_power = 150
				}
			}

		}
		
		effect = {
			if = {
				limit = {
					has_ruler_flag = yingzhen_first_assassin
				}
				add_country_modifier = {
					name = yingzhen_nothing_true_mod
					duration = -1
				}
			}
			else = {
				add_country_modifier = {
					name = yingzhen_nothing_true_mod
					duration = 9125
				}
			}
			if = {
				limit = {
					NOT = { university = 5 }
				}
				if = {
					limit = {
						innovativeness = 15
					}
					add_adm_power = -75
					add_dip_power = -75
					add_mil_power = -75
				}
				else = {
					add_adm_power = -150
					add_dip_power = -150
					add_mil_power = -150
				}
			}
		}
	}
	
	yingzhen_everything_permitted = {
		icon = mission_murder
		required_missions = {
			yingzhen_nothing_true
		}
		position = 16
		
		trigger = {
			calc_true_if = {
				all_known_country = {
					has_spy_network_from = {
						who = ROOT
						value = 75
					}
				}
				amount = 3
			}
		}
		
		effect = {
			custom_tooltip = y10_permitted_tooltip
			add_prestige = 30
		}
	}
}

yingzhen_unified_3 = {
	slot = 3
	generic = no
	ai = yes
	potential = {
		tag = Y10
		has_country_flag = yanszin_unification
	}
	has_country_shield = yes
	
	yingzhen_secure_league = {
		icon = mission_guarded_market
		required_missions = {
			
		}
		position = 6
		
		provinces_to_highlight = {
			province_group = original_yanszin #Starting Yanszin Provinces
			NOT = {
				owned_by = ROOT
			}
		}
		
		trigger = {
			original_yanszin = {
				type = all
				is_core = ROOT
			}
		}
		
		effect = {
			jinqiu_area = {
				add_permanent_claim = ROOT
			}
			balrijin_area = {
				add_permanent_claim = ROOT
			}
			tianszi_area = {
				add_permanent_claim = ROOT
			}
		}
	}
	
	yingzhen_scale_sale = {
		icon = mission_treasure_room
		required_missions = {
			yingzhen_secure_league
		}
		position = 7
		
		provinces_to_highlight = {
			OR = {
				province_id = 4856 #Irrinuaz
				province_id = 4976 #Balrisen
			}
			NOT = {
				owned_by = ROOT
			}
		}
		
		trigger = {
			4856 = { owned_by = ROOT }
			4976 = { owned_by = ROOT }
		}
		
		effect = {
			country_event = { id = yingzhen.40 }
		}
	}
	
	yingzhen_master_river = {
		icon = mission_tree_fishing
		required_missions = {
			yingzhen_wayward_city
		}
		position = 8
		
		trigger = {
			custom_trigger_tooltip = {
				tooltip = y10_master_river_tooltip
				NOT = {
					any_known_country = {
						capital_scope = {
							region = upper_yanshen_region
						}
						total_development = ROOT
					}
				}
			}
		}
		
		effect = {
			upper_yanshen_region = {
				limit = { NOT = { owned_by = ROOT } }
				add_permanent_claim = ROOT
			}
			wanglam_area = {
				limit = { NOT = { owned_by = ROOT } }
				add_permanent_claim = ROOT
			}
			hungngon_area = {
				limit = { NOT = { owned_by = ROOT } }
				add_permanent_claim = ROOT
			}
			4849 = { center_of_trade = 1 }
		}
	}
	
	yingzhen_secure_heartland = {
		icon = restore_great_moravia
		required_missions = {
			yingzhen_hand_feeds
			yingzhen_dark_brotherhood
		}
		position = 10
		
		provinces_to_highlight = {
			region = upper_yanshen_region
			NOT = { owned_by = ROOT }
		}
		
		trigger = {
			upper_yanshen_region = {
				type = all
				
				OR = {
					owned_by = ROOT
					AND = {
						owned_by = Y01
						Y01 = {
							alliance_with = ROOT
						}
					}
				}
			}
		}
		
		effect = {
			4849 = {
				add_base_manpower = 2
				add_base_production = 2
				add_base_tax = 2
			}
		}
	}
	
	yingzhen_expand_reach = {
		icon = mission_chinese_general_riding
		required_missions = {
			yingzhen_secure_heartland
			
		}
		position = 11
		
		trigger = {
			any_owned_province = {
				has_port = yes
			}
		}
		
		effect = {
			add_country_modifier = {
				name = yingzhen_agents_abroad
				duration = -1
			}
			add_country_modifier = {
				name = yingzhen_to_sea
				duration = 9125
			}
		}
	}
	
	yingzhen_assassins_creed = {
		icon = mission_assassination
		required_missions = {
			yingzhen_expand_reach
			yingzhen_quelled_country
			yingzhen_sinistral_respite
		}
		position = 12
		
		trigger = {
			NOT = { republican_tradition = 50 }
		}
		
		effect = {
			add_government_reform = sinistral_republic_reform
			country_event = { id = yingzhen.49 }
		}
	}
	
	yingzhen_came_darkness = {
		icon = mission_warrior_gold
		required_missions = {
			yingzhen_assassins_creed
		}
		position = 13
		
		trigger = {
			if = {
				limit = { has_dlc = "Cradle of Civilization" }
				OR = {
					army_tradition = 40
					army_professionalism = 0.4
				}
			}
			else = {
				army_tradition = 40
			}
		}
		
		effect = {
			aoshan_area = {
				limit = { NOT = { owned_by = ROOT } }
				add_permanent_claim = ROOT
			}
			wangqiu_area = {
				limit = { NOT = { owned_by = ROOT } }
				add_permanent_claim = ROOT
			}
			tietyuan_area = {
				limit = { NOT = { owned_by = ROOT } }
				add_permanent_claim = ROOT
			}
		}
	}
	
	yingzhen_natural_enemy = {
		icon = mission_burning_castle
		required_missions = {
			yingzhen_came_darkness
		}
		position = 14
		
		provinces_to_highlight = {
			OR = {
				area = aoshan_area
				area = wangqiu_area
				area = tietyuan_area
			}
			NOT = { owned_by = ROOT }
		}
		
		trigger = {
			num_of_owned_provinces_with = {
				value = 6
				OR = {
					area = aoshan_area
					area = wangqiu_area
					area = tietyuan_area
				}
			}
		}
		
		effect = {
			erluxi_area = {
				limit = { NOT = { owned_by = ROOT } }
				add_permanent_claim = ROOT
			}
			4868 = { add_permanent_claim = ROOT }
		}
	}
	
	yingzhen_down_river = {
		icon = mission_burning_separation
		required_missions = {
			yingzhen_natural_enemy
		}
		position = 15
		
		provinces_to_highlight = {
			province_id = 4868
			NOT = { owned_by = ROOT }
		}
		
		trigger = {
			4868 = { owned_by = ROOT }
		}
		
		effect = {
			liuminxiang_area = {
				limit = { NOT = { owned_by = ROOT } }
				add_permanent_claim = ROOT
			}
		}
	}
	
	yingzhen_granary = {
		icon = mission_big_house
		required_missions = {
			yingzhen_down_river
		}
		position = 16
		
		provinces_to_highlight = {
			OR = {
				area = liuminxiang_area
			}
			NOT = { owned_by = ROOT }
		}
		
		trigger = {
			liuminxiang_area = {
				type = all
				owned_by = ROOT
			}
		}
		
		effect = {
			add_country_modifier = {
				name = yingzhen_yan_granary
				duration = -1
			}
			gungi_area = {
				limit = { NOT = { owned_by = ROOT } }
				add_permanent_claim = ROOT
			}
			xiyun_area = {
				limit = { NOT = { owned_by = ROOT } }
				add_permanent_claim = ROOT
			}
		}
	}
	
	yingzhen_nobody_safe = {
		icon = mission_three_death
		required_missions = {
			yingzhen_everything_permitted
			yingzhen_granary
			yingzhen_block_river
			yingzhen_protectors_path
		}
		position = 17
		
		trigger = {
			if = {
				limit = {
					NOT = {
						great_power_rank = 2
					}
				}
				any_country = {
					is_great_power = yes
					has_spy_network_from = {
						who = ROOT
						value = 100
					}
				}
			}
			else = {
				any_country = {
					NOT = { great_power_rank = 2 }
					has_spy_network_from = {
						who = ROOT
						value = 100
					}
				}
			}
		}
		
		effect = {
			country_event = { id = yingzhen.47 }
			add_country_modifier = {
				name = yingzhen_fear_of_emperors
				duration = -1
			}
			add_power_projection = {
                type = mission_rewards_power_projection
                amount = 100
            }
			lower_yanshen_region = {
				limit = { NOT = { owned_by = ROOT } }
				add_permanent_claim = ROOT
			}
			north_yanshen_region = {
				limit = { NOT = { owned_by = ROOT } }
				add_permanent_claim = ROOT
			}
			custom_tooltip = y10_allow_assassin
		}
	}
}

yingzhen_unified_4 = {
	slot = 4
	generic = no
	ai = yes
	potential = {
		tag = Y10
		has_country_flag = yanszin_unification
	}
	has_country_shield = yes
	
	yingzhen_without_mercy = {
		icon = mission_burning_man
		required_missions = {
			yingzhen_secure_league
		}
		position = 7
		
		provinces_to_highlight = {
			OR = {
				area = jinqiu_area
				province_id = 4975
				province_id = 4852
			}
			NOT = {
				owned_by = ROOT
				owned_by = Y01
			}
		}
		
		trigger = {
			jinqiu_area = {
				OR = {
					owned_by = ROOT
					owned_by = Y01
				}
			}
			4975 = {
				OR = {
					owned_by = ROOT
					owned_by = Y01
				}
			}
			4852 = {
				OR = {
					owned_by = ROOT
					owned_by = Y01
				}
			}
		}
		
		effect = {
			jinqiu_area = {
				add_base_tax = -1
				add_base_production = -1
				add_base_manpower = -1
				add_devastation = 40
			}
			4975 = {
				add_base_tax = -1
				add_base_production = -1
				add_base_manpower = -1
				add_devastation = 40
			}
			4852 = {
				add_base_tax = -1
				add_base_production = -1
				add_base_manpower = -1
				add_devastation = 40
			}
			4849 = {
				add_base_tax = 4
				add_base_production = 4
				add_base_manpower = 4
			}
		}
	}
	
	yingzhen_dark_brotherhood = {
		icon = mission_shady_encounter
		required_missions = {
			yingzhen_northern_support
		}
		position = 9
		
		provinces_to_highlight = {
			owned_by = Y01
		}
		
		trigger = {
			OR = {
				AND = {
					army_size = Y01 #Azjakuma
					total_development = Y01
				}
				NOT = { exists = Y01 }
			}
		}
		
		effect = {
			country_event = { id = yingzhen.43 }
			4849 = { #Yingzhen
				add_ogre_minority_size_effect = yes
			}
			random_owned_province = {
				add_ogre_minority_size_effect = yes
			}
			random_owned_province = {
				add_ogre_minority_size_effect = yes
			}
			random_owned_province = {
				add_ogre_minority_size_effect = yes
			}
			medium_increase_of_ogre_tolerance_effect = yes
		}
	}
	
	yingzhen_sinistral_respite = {
		icon = mission_pray_light
		required_missions = {
			yingzhen_secure_heartland
		}
		position = 11
		
		provinces_to_highlight = {
			province_id = 4849
			NOT = { has_tax_building_trigger = yes }
		}
		
		trigger = {
			4849 = { has_tax_building_trigger = yes }
			treasury = 250
		}
		
		effect = {
			add_treasury = -250
			4849 = {
				add_province_modifier = {
					name = yingzhen_sinistral_respite
					duration = -1
				}
				add_ogre_minority_size_effect = yes
			}
		}
	}
	
	yingzhen_two_ports = {
		icon = mission_establish_high_seas_navy
		required_missions = {
			yingzhen_assassins_creed
		}
		position = 13
		
		provinces_to_highlight = {
			province_id = 4871
		}
		
		trigger = {
			custom_trigger_tooltip = {
				tooltip = yingzhen_trafficker_ruler_tt
				has_country_flag = yingzhen_trafficker_ruler
			}
			1372 = {
				trade_share = {
					country = ROOT
					share = 15
				}
			}
		}
		
		effect = {
			add_country_modifier = {
				name = yingzhen_control_trade
				duration = 9125
			}
		}
	}
	
	yingzhen_vices = {
		icon = mission_dancing_with_dead
		required_missions = {
			yingzhen_two_ports
		}
		position = 14
		
		provinces_to_highlight = {
			province_id = 4849
			NOT = {
				AND = {
					has_manufactory_trigger = yes
					has_trade_building_trigger = yes
					has_production_building_trigger = yes
					development = 35
				}
			}
		}
		
		trigger = {
			4849 = {
				has_manufactory_trigger = yes
				has_trade_building_trigger = yes
				has_production_building_trigger = yes
				development = 35
			}
		}
		
		effect = {
			4849 = {
				add_center_of_trade_level = 1
			}
		}
	}
	
	yingzhen_better_option = {
		icon = mission_city_prosperity
		required_missions = {
			yingzhen_vices
		}
		position = 15
		
		provinces_to_highlight = {
			province_id = 4871
		}
		
		trigger = {
			OR = {
				4871 = {
					owner = {
						has_spy_network_from = {
							who = ROOT
							value = 75
						}
						has_country_modifier = merchants_slandered
					}
					has_privateer_share_in_trade_node = {
						who = ROOT
						share = 0.25
					}
				}
				4871 = { owned_by = ROOT }
			}
		}
		
		effect = {
			if = {
				limit = { has_ruler_flag = yingzhen_first_trafficker }
				1372 = {
					add_trade_modifier = {
						who = ROOT
						duration = -1
						power = 50
						key = yingzhen_better_option
					}
				}
				add_country_modifier = {
					name = yingzhen_better_option_modifier
					duration = -1
				}
			}
			else = {
				1372 = {
					add_trade_modifier = {
						who = ROOT
						duration = 10950
						power = 50
						key = yingzhen_better_option
					}
				}
				add_country_modifier = {
					name = yingzhen_better_option_modifier
					duration = 30
				}
			}
		}
	}
	
	yingzhen_block_river = {
		icon = mission_rb_cod_wars
		required_missions = {
			yingzhen_better_option
		}
		position = 16
		
		provinces_to_highlight = {
			province_group = golden_highway_upper_yanshen
			NOT = { has_province_modifier = golden_highway }
		}
		
		trigger = {
			golden_highway_upper_yanshen = {
				type = all
				has_province_modifier = golden_highway
			}
			num_of_owned_provinces_with = {
				value = 5
				province_group = golden_highway_upper_yanshen
				has_fort_building_trigger = yes
			}
		}
		
		effect = {
			if = {
				limit = { has_ruler_flag = yingzhen_first_trafficker }
				1372 = {
					add_trade_modifier = {
						who = owner
						duration = -1
						power = -30
						key = yingzhen_river_blocked
					}
				}
			}
			else = {
				1372 = {
					add_trade_modifier = {
						who = owner
						duration = 10950
						power = -30
						key = yingzhen_river_blocked
					}
				}
			}
		}
	}
}

yingzhen_unified_5 = {
	slot = 5
	generic = no
	ai = yes
	potential = {
		tag = Y10
		has_country_flag = yanszin_unification
	}
	has_country_shield = yes
	
	yingzhen_northern_support = {
		icon = mission_moon_moon
		required_missions = {
			yingzhen_without_mercy
		}
		position = 8
		
		provinces_to_highlight = {
			owned_by = Y01
		}
		
		trigger = {
			treasury = 100
			OR = {
				Y01 = {
					has_opinion = {
						who = ROOT
						value = 50
					}
					is_at_war = no
				}
				NOT = { exists = Y01 }
			}
		}
		
		effect = {
			add_treasury = -100
			random_owned_province = {
				limit = { NOT = { has_tax_building_trigger = yes } }
				add_building = temple
				add_ogre_minority_size_effect = yes
			}
			random_owned_province = {
				limit = { NOT = { has_tax_building_trigger = yes } }
				add_building = temple
				add_ogre_minority_size_effect = yes
			}
			random_owned_province = {
				limit = { NOT = { has_tax_building_trigger = yes } }
				add_building = temple
				add_ogre_minority_size_effect = yes
			}
			large_increase_of_ogre_tolerance_effect = yes
			add_historical_friend = Y01
		}
	}
	
	yingzhen_different_peace = {
		icon = mission_oni
		required_missions = {
			yingzhen_assassins_creed
		}
		position = 13
		
		trigger = {
			custom_trigger_tooltip = {
				tooltip = yingzhen_oni_ruler_tt
				has_country_flag = yingzhen_oni_ruler
			}
			high_tolerance_ogre_race_trigger = yes
			num_of_owned_provinces_with = {
				value = 20
				has_tax_building_trigger = yes
			}
		}
		
		effect = {
			add_country_modifier = {
				name = yingzhen_oni_peace
				duration = 9125
			}
			4811 = { add_permanent_claim = ROOT }
		}
	}
	
	yingzhen_master_spirits = {
		icon = mission_dark_book
		required_missions = {
			yingzhen_different_peace
		}
		position = 14
		
		provinces_to_highlight = {
			province_id = 4811
			NOT = { owned_by = ROOT }
		}
		
		trigger = {
			num_of_aspects = 3
			church_power = 200
			religious_unity = 0.95
			4811 = { owned_by = ROOT } #ph for 'own any special temple'
		}
		
		effect = {
			country_event = { id = yingzhen.48 }
			#set_country_flag = may defile temples (add this when implemented)
		}
	}
	
	yingzhen_protectors_path = {
		icon = mission_empowerment
		required_missions = {
			yingzhen_master_spirits
		}
		position = 16
		
		provinces_to_highlight = {
			owned_by = Y01
		}
		
		trigger = {
			OR = {
				Y01 = {
					trust = {
						who = ROOT
						value = 100
					}
				}
				NOT = { exists = Y01 }
				is_subject_of = Y01
			}
		}
		
		effect = {
			if = {
				limit = { has_ruler_flag = yingzhen_first_oni }
				vassalize = Y01
			}
			else = {
				create_subject = {
					subject_type = autonomous_vassal
					subject = Y01
				}
			}
			demon_hills_region = {
				limit = {
					OR = {
						NOT = { owned_by = Y01 }
						NOT = { owned_by = ROOT }
					}
				}
				add_permanent_claim = Y01
			}
		}
	}
}
