
# Author: Alexis
# Coder: ShadowLK

Y26_1_1 = {
	slot = 1
	generic = no
	ai = yes
	potential = {
		OR = {
			tag = Y26
			was_tag = Y26
		}
	}
	has_country_shield = yes
	
	Y26_march_north = {
		position = 3
		icon = mission_se_along_the_river
		required_missions = { Y26_reuniting_our_woods }
		
		trigger = {
			army_size = 20
			manpower_percentage = 0.6
		}
		
		effect = {
			4869 = {
				add_permanent_claim = ROOT
			}
			beikyuan_area = {
				add_permanent_claim = ROOT
			}
			4978 = {
				add_permanent_claim = ROOT
			}
			4912 = {
				add_permanent_claim = ROOT
			}
			4927 = {
				add_permanent_claim = ROOT
			}
			4980 = {
				add_permanent_claim = ROOT
			}
			4917 = {
				add_permanent_claim = ROOT
			}
			xuanbing_area = {
				add_permanent_claim = ROOT
			}
		}
	}
	
	Y26_bulwark_in_the_north = {
		position = 4
		icon = alpine_fortifications
		required_missions = { Y26_march_north }
		
		provinces_to_highlight = {
			OR = {
				AND = {
					OR = {
						province_id = 4869
						area = beikyuan_area
						province_id = 4978
						province_id = 4912
						province_id = 4927
						province_id = 4980
						province_id = 4917
						area = xuanbing_area
					}
					NOT = { country_or_non_sovereign_subject_holds = ROOT }
				}
				AND = {
					province_id = 4917
					NOT = { has_fort_building_trigger = yes }
				}
			}
		}
		
		trigger = {
			4869 = {
				country_or_non_sovereign_subject_holds = ROOT
			}
			beikyuan_area = {
				type = all
				country_or_non_sovereign_subject_holds = ROOT
			}
			4978 = {
				country_or_non_sovereign_subject_holds = ROOT
			}
			4912 = {
				country_or_non_sovereign_subject_holds = ROOT
			}
			4927 = {
				country_or_non_sovereign_subject_holds = ROOT
			}
			4980 = {
				country_or_non_sovereign_subject_holds = ROOT
			}
			xuanbing_area = {
				type = all
				owned_by = ROOT
			}
			4917 = {
				owned_by = ROOT
				has_fort_building_trigger = yes
			}
			treasury = 75
		}
		
		effect = {
			add_treasury = -75
			4917 = {
				add_province_modifier = {
					name = Y26_northern_wall
					duration = -1
				}
			}
			country_event = { id = flavour_yinquan.1 }
		}
	}
}

Y26_1_2 = {
	slot = 2
	generic = no
	ai = yes
	potential = {
		OR = {
			tag = Y26
			was_tag = Y26
		}
	}
	has_country_shield = yes
	
	Y26_the_march_on_mulim = {
		position = 1
		icon = mission_build_up_to_force_limit
		required_missions = { }
		
		trigger = {
			army_size_percentage = 0.9
			is_monarch_leader = yes
		}
		
		effect = {
			4903 = {
				add_permanent_claim = ROOT
			}
			4875 = {
				add_permanent_claim = ROOT
			}
			4872 = {
				add_permanent_claim = ROOT
			}
			5420 = {
				add_permanent_claim = ROOT
			}
			add_manpower = 10
		}
	}
	
	Y26_reuniting_our_woods = {
		position = 2
		icon = mission_misty_forest
		required_missions = { Y26_the_march_on_mulim }
		
		provinces_to_highlight = {
			OR = {
				province_id = 4903
				province_id = 4875
				province_id = 4872
				province_id = 5420
			}
			NOT = { owned_by = ROOT }
		}
		
		trigger = {
			4903 = {
				owned_by = ROOT
			}
			4875 = {
				owned_by = ROOT
			}
			4872 = {
				owned_by = ROOT
			}
			5420 = {
				owned_by = ROOT
			}
			treasury = 75
		}
		
		effect = {
			add_treasury = -75
			add_country_modifier = {
				name = Y26_restoring_our_damaged_lands
				duration = 3650
			}
			tianlou_area = {
				add_permanent_claim = ROOT
			}
			4870 = {
				add_permanent_claim = ROOT
			}
		}
	}
	
	Y26_reunion_of_siblings = {
		position = 3
		icon = mission_diplomatic_relation
		required_missions = { Y26_reuniting_our_woods }
		
		provinces_to_highlight = {
			is_capital_of = Y27
		}
		
		trigger = {
			OR = {
				Y27 = {
					has_opinion = {
						who = ROOT
						value = 190
					}
					trust = {
						who = ROOT
						value = 70
					}
				}
				NOT = { exists = Y27 }
			}
		}
		
		effect = {
			if = {
				limit = { exists = Y27 }
				Y27 = { country_event = { id = flavour_yinquan.2 } } # Brothers Unification
			}
			else = {
				hongnguan_area = {
					add_permanent_claim = ROOT
				}
			}
		}
	}
	
	Y26_suzerainty_of_the_yanhe = {
		position = 4
		icon = mission_dominate_home_trade_node
		required_missions = { Y26_reunion_of_siblings }
		
		provinces_to_highlight = {
			OR = {
				province_id = 4871
				province_id = 4870
				province_id = 4904
				province_id = 4877
				province_id = 4876
			}
			NOT = { country_or_non_sovereign_subject_holds = ROOT }
		}
		
		trigger = {
			4871 = {
				country_or_non_sovereign_subject_holds = ROOT
			}
			4870 = {
				country_or_non_sovereign_subject_holds = ROOT
			}
			4904 = {
				country_or_non_sovereign_subject_holds = ROOT
			}
			4877 = {
				country_or_non_sovereign_subject_holds = ROOT
			}
			4876 = {
				country_or_non_sovereign_subject_holds = ROOT
			}
		}
		
		effect = {
			add_country_modifier = {
				name = Y26_tianlou_sea_authority
				duration = 3650
			}
			beidugang_area = {
				add_permanent_claim = ROOT
			}
			4913 = {
				add_permanent_claim = ROOT
			}
			country_event = { id = flavour_yinquan.15 }
		}
	}
	
	Y26_dominance_in_the_north = {
		position = 5
		icon = mission_monarch_diplomacy
		required_missions = { Y26_bulwark_in_the_north Y26_suzerainty_of_the_yanhe }
		
		provinces_to_highlight = {
			OR = {
				AND = {
					province_id = 1372
					NOT = {
						trade_share = {
							country = ROOT
							share = 50
						}
					}
				}
				AND = {
					OR = {
						area = beidugang_area
						province_id = 4913
					}
					NOT = { country_or_non_sovereign_subject_holds = ROOT }
				}
			}
		}
		
		trigger = {
			1372 = {
				trade_share = {
					country = ROOT
					share = 50
				}
			}
			NOT = {
				any_known_country = {
					capital_scope = { superregion = yanshen_superregion }
					army_size = ROOT
				}
			}
			beidugang_area = {
				type = all
				country_or_non_sovereign_subject_holds = ROOT
			}
			4913 = {
				country_or_non_sovereign_subject_holds = ROOT
			}
		}
		
		effect = {
			add_country_modifier = {
				name = Y26_fox_of_the_north
				duration = 7300
			}
		}
	}
}

Y26_1_3 = {
	slot = 3
	generic = no
	ai = yes
	potential = {
		OR = {
			tag = Y26
			was_tag = Y26
		}
	}
	has_country_shield = yes
	
	Y26_the_city_of_shrines = {
		position = 2
		icon = mission_mnd_dai_temples
		required_missions = { Y26_the_march_on_mulim }
		
		provinces_to_highlight = {
			province_id = 4931
			NOT = {
				AND = {
					base_production = 5
					has_tax_building_trigger = yes
				}
			}
		}
		
		trigger = {
			4931 = {
				base_production = 5
				has_tax_building_trigger = yes
			}
			treasury = 40
		}
		
		effect = {
			add_treasury = -40
			4931 = {
				add_province_modifier = {
					name = Y26_city_of_lights_1
					duration = 3650
				}
			}
			country_event = { id = flavour_yinquan.5 } # Brewing Monasteries
		}
	}
	
	Y26_the_land_of_a_thousand_shrines = {
		position = 3
		icon = mission_forest_shrine
		required_missions = { Y26_reuniting_our_woods Y26_the_city_of_shrines }
		
		provinces_to_highlight = {
			area = mulim_area
			NOT = {
				OR = {
					base_tax = 5
					has_tax_building_trigger = yes
				}
			}
		}
		
		trigger = {
			mulim_area = {
				type = all
				OR = {
					base_tax = 5
					has_tax_building_trigger = yes
				}
			}
		}
		
		effect = {
			country_event = { id = flavour_yinquan.6 }
		}
	}
	
	Y26_maidens_in_the_government = {
		position = 4
		icon = mission_female_throne
		required_missions = { Y26_the_land_of_a_thousand_shrines }
		
		trigger = {
			adm_power = 100
			dip_power = 100
			has_patron_trigger = { patron = huli_jing }
			has_estate_privilege = estate_mages_spirit_speakers
		}
		
		effect = {
			add_government_reform = maiden_republic
			custom_tooltip = Y26_maiden_in_government_warning_tt
		}
	}
	
	Y26_lihoism_ideals = {
		position = 6
		icon = mission_scholar_officials
		required_missions = { Y26_dominance_in_the_north Y26_maidens_in_the_government Y26_the_righteous_pilgrimage Y26_scheming_vulpines }
		
		trigger = {
			estate_loyalty = {
				estate = estate_mages
				loyalty = 60
			}
			estate_influence = {
				estate = estate_mages
				influence = 50
			}
			has_church_aspect = organize_the_sects
			has_church_aspect = temple_communities
			has_estate_privilege = estate_mages_spirit_speakers
			has_estate_privilege = estate_church_one_faith_one_culture
			has_patron_trigger = { patron = huli_jing }
		}
		
		effect = {
			upper_yanshen_region = {
				add_claim = ROOT
			}
			lower_yanshen_region = {
				add_claim = ROOT
			}
			if = {
				limit = { NOT = { government = theocracy } }
				change_government = theocracy
			}
			add_devotion = 40
			add_government_reform = land_of_thousand_shrines
			set_country_flag = Y26_part2
			swap_non_generic_missions = yes
		}
	}
}

Y26_1_4 = {
	slot = 4
	generic = no
	ai = yes
	potential = {
		OR = {
			tag = Y26
			was_tag = Y26
		}
	}
	has_country_shield = yes
	
	Y26_enlightenment = {
		position = 3
		icon = mission_writing_book
		required_missions = { Y26_the_city_of_shrines }
		
		provinces_to_highlight = {
			is_capital = yes
			owner = {
				OR = {
					tag = Y99
					has_reform = wulin
				}
			}
		}
		
		trigger = {
			church_power = 100
			if = {
				limit = { exists = Y99 }
				Y99 = {
					OR = {
						is_rival = ROOT
						has_opinion = {
							who = ROOT
							value = 150
						}
					}
				}
			}
			else_if = {
				limit = {
					any_known_country = {
						has_reform = wulin
					}
				}
				any_known_country = {
					has_reform = wulin
					OR = {
						is_rival = ROOT
						has_opinion = {
							who = ROOT
							value = 150
						}
					}
				}
			}
			else_if = {
				limit = {
					any_known_country = {
						OR = {
							has_reform = xiaken
							has_reform = indep_xiaken
						}
						NOT = { is_rival = ROOT }
					}
				}
				any_known_country = {
					OR = {
						has_reform = xiaken
						has_reform = indep_xiaken
					}
					has_opinion = {
						who = ROOT
						value = 150
					}
				}
			}
			else = {
				#if there are no xiaken
			}
		}
		
		effect = {
			custom_tooltip = Y26_enlightenment_tt
			set_country_flag = Y26_temple_communities
			add_church_power = -100
		}
	}
	
	Y26_the_righteous_pilgrimage = {
		position = 5
		icon = mission_jungle_pilgrim
		required_missions = { Y26_enlightenment }
		
		provinces_to_highlight = {
			is_capital = yes
			owner = {
				OR = {
					tag = Y99
					has_reform = wulin
				}
			}
		}
		
		trigger = {
			if = {
				limit = { exists = Y99 }
				Y99 = {
					OR = {
						alliance_with = ROOT
						is_rival = ROOT
					}
				}
			}
			else_if = {
				limit = { any_known_country = { has_reform = wulin } }
				any_known_country = {
					has_reform = wulin
					OR = {
						alliance_with = ROOT
						is_rival = ROOT
					}
				}
			}
			else_if = {
				limit = { any_known_country = { has_reform = indep_xiaken NOT = { is_rival = ROOT } } }
				any_known_country = {
					has_reform = indep_xiaken
					alliance_with = ROOT
				}
			}
			else = {
			}
		}
		
		effect = {
			if = {
				limit = {
					OR = {
						alliance_with = Y99
						any_known_country = {
							has_reform = wulin
							alliance_with = ROOT
						}
						any_known_country = {
							has_reform = indep_xiaken
							alliance_with = ROOT
						}
					}
				}
				country_event = { id = flavour_yinquan.7 } # The Righteous Pilgrimage
			}
		}
	}
}

Y26_1_5 = {
	slot = 5
	generic = no
	ai = yes
	potential = {
		OR = {
			tag = Y26
			was_tag = Y26
		}
	}
	has_country_shield = yes
	
	Y26_peasant_relations = {
		position = 1
		icon = mission_rice_field
		required_missions = {  }
		
		provinces_to_highlight = {
			is_capital_of = Y05
		}
		
		trigger = {
			Y05 = {
				OR = {
					has_opinion = {
						who = ROOT
						value = 150
					}
					is_rival = ROOT
					exists = no
				}
			}
		}
		
		effect = {
			if = {
				limit = {
					OR = {
						NOT = { exists = Y05 }
						Y05 = { is_rival = ROOT }
					}
				}
				liuminxiang_area = {
					add_permanent_claim = ROOT
				}
				erluxi_area = {
					add_permanent_claim = ROOT
				}
			}
			else = {
				country_event = { id = flavour_yinquan.8 } # Meeting with the Nincishi
				hidden_effect = { country_event = { id = flavour_yinquan.14 days = 3650 } } # Growing Influence
			}
		}
	}
	
	Y26_seizing_control = {
		position = 3
		icon = mission_shady_encounter
		required_missions = { Y26_peasant_relations Y26_the_city_of_shrines }
		
		provinces_to_highlight = {
			is_capital_of = Y05
		}
		
		trigger = {
			OR = {
				NOT = { exists = Y05 }
				Y05 = { is_rival = ROOT }
				AND = {
					Y05 = {
						has_spy_network_from = {
							who = ROOT
							value = 80
						}
						alliance_with = ROOT
						gives_military_access_to = ROOT
						custom_trigger_tooltip = {
							tooltip = Y26_seizing_control_1_tt
							has_opinion_modifier = {
								who = ROOT
								modifier = sent_gift
								value = 10
							}
						}
					}
					custom_trigger_tooltip = {
						tooltip = Y26_seizing_control_2_tt
						variable_arithmetic_trigger = {
							export_to_variable = { which = our_army value = trigger_value:army_size who = ROOT }
							export_to_variable = { which = their_army value = trigger_value:army_size who = Y05 }
							multiply_variable = { which = their_army value = 1.5 }
							check_variable = { which = our_army which = their_army }
						}
					}
					dip_power = 100
				}
			}
		}
		
		effect = {
			if = {
				limit = {
					OR = {
						NOT = { exists = Y05 }
						Y05 = { is_rival = ROOT }
					}
				}
				liuminxiang_area = {
					add_permanent_claim = ROOT
				}
				erluxi_area = {
					add_permanent_claim = ROOT
				}
			}
			else = {
				add_dip_power = -100
				country_event = { id = flavour_yinquan.9 } # Nincishi's New Leadership
			}
		}
	}
	
	Y26_scheming_vulpines = {
		position = 5
		icon = mission_have_two_subjects
		required_missions = { Y26_seizing_control }
		
		provinces_to_highlight = {
			OR = {
				is_capital_of = Y05
				AND = {
					province_id = 4868
					NOT = { owned_by = Y05 }
					exists = Y05
					NOT = { Y05 = { is_rival = ROOT } }
				}
			}
		}
		
		trigger = {
			OR = {
				NOT = { exists = Y05 }
				Y05 = { is_rival = ROOT }
				AND = {
					Y05 = {
						has_opinion = {
							who = ROOT
							value = 200
						}
						owns = 4868
						NOT = { liberty_desire = 50 }
						NOT = { truce_with = ROOT }
					}
					custom_trigger_tooltip = {
						tooltip = Y26_scheming_vulpines_tt
						variable_arithmetic_trigger = {
							export_to_variable = { which = our_army value = trigger_value:army_size who = ROOT }
							export_to_variable = { which = their_army value = trigger_value:army_size who = Y05 }
							multiply_variable = { which = their_army value = 2 }
							check_variable = { which = our_army which = their_army }
						}
					}
					OR = {
						advisor = diplomat
						advisor = statesman
					}
				}
			}
		}
		
		effect = {
			if = {
				limit = {
					OR = {
						NOT = { exists = Y05 }
						Y05 = { is_rival = ROOT }
					}
				}
				liuminxiang_area = {
					add_permanent_claim = ROOT
				}
				erluxi_area = {
					add_permanent_claim = ROOT
				}
				4868 = {
					add_permanent_claim = ROOT
				}
			}
			else = {
				create_subject = {
					subject_type = vassal
					subject = Y05
				}
				add_country_modifier = {
					name = Y26_sly_negotiations
					duration = 7300
				}
			}
		}
	}
}

#####

Y26_2_1 = {
	slot = 1
	generic = no
	ai = yes
	potential = {
		OR = {
			tag = Y26
			was_tag = Y26
		}
		has_country_flag = Y26_part2
	}
	has_country_shield = yes
	
	Y26_across_the_spear_sea = {
		position = 7
		icon = mission_grand_bengali_shipyards
		required_missions = { Y26_lihoism_ideals }
		
		provinces_to_highlight = {
			is_capital_of = Y93
		}
		
		trigger = {
			OR = {
				NOT = { exists = Y93 }
				AND = {
					alliance_with = Y93
					Y93 = {
						has_opinion = {
							who = ROOT
							value = 150
						}
					}
				}
				Y93 = {
					is_subject_of = ROOT
				}
			}
		}
		
		effect = {
			shuvuushudi_region = {
				add_permanent_claim = ROOT
			}
			khaashalg_region = {
				add_permanent_claim = ROOT
				hidden_effect = { discover_country = ROOT }
			}
			jiantsiang_area = {
				add_permanent_claim = ROOT
			}
			yiguan_area = {
				add_permanent_claim = ROOT
			}
			jianzhong_area = {
				add_permanent_claim = ROOT
			}
			if = {
				limit = { exists = Y93 }
				shuvuushudi_region = {
					add_permanent_claim = Y93
				}
				khaashalg_region = {
					limit = { is_city = yes }
					add_permanent_claim = Y93
					hidden_effect = { discover_country = Y93 }
				}
				jiantsiang_area = {
					add_permanent_claim = Y93
				}
			}
			else = {
				odheongu_region = {
					add_permanent_claim = ROOT
				}
			}
		}
	}
	
	Y26_the_shuvuushi_threat = {
		position = 9
		icon = mission_faceless_queen
		required_missions = { Y26_across_the_spear_sea }
		
		provinces_to_highlight = {
			OR = {
				AND = {
					OR = {
						region = shuvuushudi_region
						region = khaashalg_region
						area = jiantsiang_area
					}
					is_city = yes
					NOT = {
						owned_by = Y93
						country_or_non_sovereign_subject_holds = ROOT
					}
				}
				AND = {
					OR = {
						area = yiguan_area
						area = jianzhong_area
						AND = {
							region = odheongu_region
							NOT = { exists = Y93 }
						}
					}
					is_city = yes
					NOT = { country_or_non_sovereign_subject_holds = ROOT }
				}
			}
		}
		
		trigger = {
			shuvuushudi_region = {
				type = all
				OR = {
					owned_by = Y93
					country_or_non_sovereign_subject_holds = ROOT
				}
			}
			khaashalg_region = {
				type = all
				OR = {
					is_city = no
					owned_by = Y93
					country_or_non_sovereign_subject_holds = ROOT
				}
			}
			jiantsiang_area = {
				type = all
				OR = {
					owned_by = Y93
					country_or_non_sovereign_subject_holds = ROOT
				}
			}
			if = {
				limit = { NOT = { exists = Y93 } }
				odheongu_region = {
					type = all
					OR = {
						is_city = no
						country_or_non_sovereign_subject_holds = ROOT
					}
				}
			}
			jianzhong_area = {
				type = all
				country_or_non_sovereign_subject_holds = ROOT
			}
			yiguan_area = {
				type = all
				country_or_non_sovereign_subject_holds = ROOT
			}
		}
		
		effect = {
			country_event = { id = flavour_yinquan.10 } # The Meeting of Huli Jing and Gumiho
		}
	}
}

Y26_2_2 = {
	slot = 2
	generic = no
	ai = yes
	potential = {
		OR = {
			tag = Y26
			was_tag = Y26
		}
		has_country_flag = Y26_part2
	}
	has_country_shield = yes
	
	Y26_trained_eyes_on_the_western_dragon = {
		position = 7
		icon = mission_defy_the_dragon
		required_missions = { Y26_lihoism_ideals }
		
		provinces_to_highlight = {
			AND = {
				province_group = original_yanszin
				NOT = { country_or_non_sovereign_subject_holds = ROOT }
			}
		}
		
		trigger = {
			num_of_owned_provinces_with = {
				value = 20
				region = upper_yanshen_region
			}
			original_yanszin = {
				type = all
				country_or_non_sovereign_subject_holds = ROOT
			}
		}
		
		effect = {
			upper_yanshen_region = {
				add_permanent_claim = ROOT
			}
		}
	}
	
	Y26_establishing_the_shrine_of_hundred_thousand_lanterns = {
		position = 8
		icon = mission_lantern_festival
		required_missions = { Y26_trained_eyes_on_the_western_dragon }
		
		provinces_to_highlight = {
			AND = {
				province_id = 4859
				NOT = {
					AND = {
						owned_by = ROOT
						base_production = 10
						has_building = temple
					}
				}
			}
		}
		
		trigger = {
			4859 = {
				owned_by = ROOT
				base_production = 10
				has_building = temple
			}
			treasury = 200
		}
		
		effect = {
			add_treasury = -200
			add_prestige = 20
			4859 = {
				add_building = cathedral
				add_province_modifier = {
					name = Y26_shrine_of_hundred_thousand_temples
					duration = -1
				}
				change_trade_goods = incense
			}
		}
	}
	
	Y26_dragon_tamed = {
		position = 9
		icon = mission_early_game_buildings
		required_missions = { Y26_establishing_the_shrine_of_hundred_thousand_lanterns }
		
		provinces_to_highlight = {
			OR = {
				AND = {
					superregion = yanshen_superregion
					has_terrain = city_terrain
					NOT = {
						AND = {
							country_or_non_sovereign_subject_holds = ROOT
							has_fort_building_trigger = yes
						}
					}
				}
				AND = {
					OR = {
						province_group = golden_highway_yanshen_coast
						province_group = golden_highway_upper_yanshen
					}
					NOT = { has_province_modifier = golden_highway }
				}
				AND = {
					region = upper_yanshen_region
					NOT = { country_or_non_sovereign_subject_holds = ROOT }
				}
			}
		}
		
		trigger = {
			custom_trigger_tooltip = {
				tooltip = Y26_dragon_tamed_tt
				yanshen_superregion = {
					type = all
					OR = {
						NOT = { has_terrain = city_terrain }
						AND = {
							country_or_non_sovereign_subject_holds = ROOT
							has_fort_building_trigger = yes
						}
					}
				}
			}
			golden_highway_yanshen_coast = {
				type = all
				has_province_modifier = golden_highway
			}
			golden_highway_upper_yanshen = {
				type = all
				has_province_modifier = golden_highway
			}
			upper_yanshen_region = {
				type = all
				country_or_non_sovereign_subject_holds = ROOT
			}
		}
		
		effect = {
			country_event = { id = flavour_yinquan.11 } # Tame the Lands
		}
	}
}

Y26_2_3 = {
	slot = 3
	generic = no
	ai = yes
	potential = {
		OR = {
			tag = Y26
			was_tag = Y26
		}
		has_country_flag = Y26_part2
	}
	has_country_shield = yes
	
	Y26_flow_of_wine = {
		position = 7
		icon = mission_wine_monopolies
		required_missions = { Y26_lihoism_ideals }
		
		provinces_to_highlight = {
			province_id = 4931
			NOT = {
				AND = {
					country_or_non_sovereign_subject_holds = ROOT
					base_production = 15
					has_manufactory_trigger = yes
				}
			}
		}
		
		trigger = {
			4931 = {
				country_or_non_sovereign_subject_holds = ROOT
				base_production = 15
				has_manufactory_trigger = yes
			}
		}
		
		effect = {
			custom_tooltip = Y26_flow_of_wine_1_tt
			set_country_flag = Y26_monastic_breweries_reform
			if = {
				limit = { 4931 = { has_province_modifier = Y26_city_of_lights_1 } }
				custom_tooltip = Y26_city_of_lights_1_tt
				hidden_effect = {
					4931 = {
						remove_province_modifier = Y26_city_of_lights_1
						add_province_modifier = {
							name = Y26_city_of_lights_1
							duration = -1
						}
					}
				}
			}
			else = {
				4931 = {
					add_province_modifier = {
						name = Y26_city_of_lights_1
						duration = -1
					}
				}
			}
		}
	}
	
	Y26_the_rice_quota = {
		position = 8
		icon = mission_a_million_rice_fields
		required_missions = { Y26_flow_of_wine }
		
		provinces_to_highlight = {
			AND = {
				superregion = yanshen_superregion
				trade_goods = grain
				NOT = {
					AND = {
						country_or_non_sovereign_subject_holds = ROOT
						has_production_building_trigger = yes
					}
				}
			}
		}
		
		trigger = {
			custom_trigger_tooltip = {
				tooltip = Y26_rice_quota_tt
				OR = {
					yanshen_superregion = {
						type = all
						OR = {
							NOT = { trade_goods = grain }
							AND = {
								country_or_non_sovereign_subject_holds = ROOT
								has_production_building_trigger = yes
							}
						}
					}
					trade_goods_produced_amount = {
						trade_goods = grain
						amount = 50
					}
				}
			}
		}
		
		effect = {
			4931 = {
				remove_province_modifier = Y26_city_of_lights_1
				add_province_modifier = {
					name = Y26_city_of_lights_2
					duration = -1
				}
				add_province_modifier = {
					name = Y26_tribute_tax
					duration = 3650
				}
			}
		}
	}
	
	Y26_pleasing_the_huli_jing = {
		position = 9
		icon = mission_delighted_mage
		required_missions = { Y26_the_rice_quota }
		
		trigger = {
			trade_goods_produced_amount = {
				trade_goods = wine
				amount = 10
			}
		}
		
		effect = {
			country_event = { id = flavour_yinquan.12 } # The Drunk Fox
		}
	}
}

Y26_2_4 = {
	slot = 4
	generic = no
	ai = yes
	potential = {
		OR = {
			tag = Y26
			was_tag = Y26
		}
		has_country_flag = Y26_part2
	}
	has_country_shield = yes
	
	Y26_trade_along_the_jellyfish_coast = {
		position = 7
		icon = mission_dominate_gujarati_trade
		required_missions = { Y26_lihoism_ideals }
		
		trigger = {
			num_of_light_ship = 20
			num_of_cities = 25
		}
		
		effect = {
			lower_yanshen_region = {
				add_permanent_claim = ROOT
			}
		}
	}
	
	Y26_the_blacksmiths_of_zyuiyut = {
		position = 8
		icon = mission_smith
		required_missions = { Y26_trade_along_the_jellyfish_coast }
		
		provinces_to_highlight = {
			province_id = 4837
			NOT = {
				AND = {
					country_or_non_sovereign_subject_holds = ROOT
					base_production = 10
					base_manpower = 10
				}
			}
		}
		
		trigger = {
			treasury = 200
			4837 = {
				country_or_non_sovereign_subject_holds = ROOT
				base_production = 10
				base_manpower = 10
			}
		}
		
		effect = {
			add_treasury = -200
			add_country_modifier = {
				name = Y26_acquirement_of_moshugong_blades
				duration = -1
			}
		}
	}
	
	Y26_jellyfish_coast_taken = {
		position = 9
		icon = mission_trade_with_japan
		required_missions = { Y26_the_blacksmiths_of_zyuiyut }
		
		provinces_to_highlight = {
			OR = {
				AND = {
					province_id = 1372
					NOT = {
						trade_share = {
							country = ROOT
							share = 80
						}
					}
				}
				AND = {
					region = lower_yanshen_region
					NOT = { country_or_non_sovereign_subject_holds = ROOT }
				}
			}
		}
		
		trigger = {
			1372 = {
				trade_share = {
					country = ROOT
					share = 80
				}
			}
			lower_yanshen_region = {
				type = all
				country_or_non_sovereign_subject_holds = ROOT
			}
		}
		
		effect = {
			add_stability_or_adm_power = yes
			add_country_modifier = {
				name = Y26_jellyfish_lights
				duration = 7300
			}
		}
	}
}

Y26_2_5 = {
	slot = 5
	generic = no
	ai = yes
	potential = {
		OR = {
			tag = Y26
			was_tag = Y26
		}
		has_country_flag = Y26_part2
	}
	has_country_shield = yes
	
	Y26_mastering_the_chi = {
		position = 7
		icon = mission_heated_battle
		required_missions = { Y26_lihoism_ideals }
		
		trigger = {
			custom_trigger_tooltip = {
				tooltip = Y26_mastering_the_chi_1_tt
				check_variable = { yinquanBattlesWon = 50 }
			}
			OR = {
				AND = {
					ruler_has_personality = mage_personality
					is_monarch_leader = yes
				}
				has_leader_with = { # can't check if generals have trait
					shock = 7
					general = yes
				}
			}
			OR = {
				advisor = court_mage
				advisor = theologian
			}
		}
		
		effect = {
			custom_tooltip = Y26_mastering_the_chi_2_tt
			set_country_flag = Y26_maidens_of_mists
			if = {
				limit = { has_estate_privilege = estate_mages_battlemage_academies }
				hidden_effect = { remove_estate_privilege = estate_mages_battlemage_academies }
				set_estate_privilege = estate_mages_maidens_of_mists
			}
		}
	}
	
	Y26_the_xianjie_brethren = {
		position = 8
		icon = mission_diplomacy_missive
		required_missions = { Y26_mastering_the_chi }
		
		provinces_to_highlight = {
			is_capital = yes
			owner = {
				OR = {
					tag = Y99
					has_reform = wulin
				}
			}
		}
		
		trigger = {
			OR = {
				diplomat = 3
				statesman = 3
			}
			dip_power = 100
			diplomatic_reputation = 5
		}
		
		effect = {
			add_prestige = 10
			custom_tooltip = Y26_the_xianjie_brethren_tt
			set_country_flag = Y26_xianjie_highway_repair
		}
	}
	
	Y26_cultural_exchange = {
		position = 9
		icon = mission_japanese_fort
		required_missions = { Y26_the_xianjie_brethren }
		
		provinces_to_highlight = {
			OR = {
				province_id = 4826
				province_id = 4952
				province_id = 4842
				province_id = 4845
				province_id = 4850
				province_id = 4846
				province_id = 4853
				province_id = 4854
				province_id = 4859
				province_id = 4861
				province_id = 4873
			}
			NOT = { has_tax_building_trigger = yes }
		}
		
		trigger = {
			custom_trigger_tooltip = {
				tooltip = Y26_cultural_exchange_ttt
				calc_true_if = {
					golden_highway_xianjie = {
						type = all
						has_province_modifier = golden_highway
					}
					amount = 12
				}
				#golden_highway_xianjie = {
				#	type = all
				#	owned_by = ROOT
				#	has_province_modifier = golden_highway
				#}
				golden_highway_upper_yanshen = {
					type = all
					country_or_non_sovereign_subject_holds = ROOT
					has_province_modifier = golden_highway
				}
				golden_highway_yanshen_coast = {
					type = all
					country_or_non_sovereign_subject_holds = ROOT
					has_province_modifier = golden_highway
				}

				4826 = {
					has_tax_building_trigger = yes
				}
				4952 = {
					has_tax_building_trigger = yes
				}
				4842 = {
					has_tax_building_trigger = yes
				}
				4845 = {
					has_tax_building_trigger = yes
				}
				4850 = {
					has_tax_building_trigger = yes
				}
				4846 = {
					has_tax_building_trigger = yes
				}
				4853 = {
					has_tax_building_trigger = yes
				}
				4854 = {
					has_tax_building_trigger = yes
				}
				4859 = {
					has_tax_building_trigger = yes
				}
				4861 = {
					has_tax_building_trigger = yes
				}
				4873 = {
					has_tax_building_trigger = yes
				}
			}
			dip_power = 100
		}
		
		effect = {
			country_event = { id = flavour_yinquan.13 } # A Meeting of Peers
		}
	}
}

#####

Y26_3_2 = {
	slot = 2
	generic = no
	ai = yes
	potential = {
		OR = {
			tag = Y26
			was_tag = Y26
		}
		has_country_flag = Y26_great_awakening
	}
	has_country_shield = yes

	Y26_identity_of_the_vulpine_lady = {
		position = 12
		icon = mission_female_throne
		required_missions = { Y26_huszien_restored }
		
		trigger = {
			if = {
				limit = { 
					has_ruler_flag = is_sado 
					NOT = { check_variable = { PatronApproval = 8 } }
				}
				adm_power = 200
			}
			else_if = {
				limit = {
					has_ruler_flag = is_holi
					NOT = { check_variable = { PatronApproval = 8 } }
				}
				dip_power = 200
			}
			else_if = {
				limit = {
					check_variable = { PatronApproval = 8 }
				}
			}
		}
		
		effect = {
			if = {
				limit = { NOT = { has_country_flag = huszien_appeased } }
				set_country_flag = rending_quest_second
			}
			add_country_modifier = {
				name = Y26_the_foxs_favour
				duration = -1
			}
			if = {
				limit = {
					check_variable = { PatronApproval = 8 }
				}
			}
			else_if = {
				limit = {
					has_ruler_flag = is_sado
				}
				add_adm_power = -200
			}
			else_if = {
				limit = {
					has_ruler_flag = is_holi
				}
				add_dip_power = -200
			}
		}
	}
}

Y26_3_3 = {
	slot = 3
	generic = no
	ai = yes
	potential = {
		OR = {
			tag = Y26
			was_tag = Y26
		}
		has_country_flag = Y26_great_awakening
	}
	has_country_shield = yes

	Y26_rebirth_of_our_saviour = {
		position = 10
		icon = mission_rebirth_of_our_saviour
		required_missions = { Y26_the_shuvuushi_threat Y26_dragon_tamed Y26_pleasing_the_huli_jing Y26_jellyfish_coast_taken Y26_cultural_exchange }
		
		trigger = {
			custom_trigger_tooltip = {
				tooltip = Y26_great_awakening_tt
				has_country_flag = Y26_great_awakening
			}
			4931 = {
				has_building = state_house
			}
		}
		
		effect = {
			custom_tooltip = Y26_rebirth_of_our_saviour_tt
			set_country_flag = Y26_allow_huszien_revive
		}
	}
	
	Y26_huszien_restored = {
		position = 11
		icon = mission_well_of_majesty
		required_missions = { Y26_rebirth_of_our_saviour }
		
		provinces_to_highlight = {
			
		}
		
		trigger = {
			custom_trigger_tooltip = {
				tooltip = Y26_huszien_restored_ttt
				has_country_flag = Y26_revived_huszien
			}
		}
		
		effect = {
			set_country_flag = rending_quest_first
			custom_tooltip = Y26_huszien_restored_tt
			add_government_reform = husziens_council #TODO flavour events
			change_religion = mystic_accord
			if = { 
				limit = { Y93 = { is_subject_of = ROOT NOT = { is_subject_of_type = tributary_state_anb } } }
				Y93 = { change_religion = mystic_accord }
			}
			custom_tooltip = Y26_ma_convert_huszien_restored_tt
			custom_tooltip = Y26_shrine_of_a_thousand_tails_and_tales_tt
			hidden_effect = {
				mulim_area = {
					change_religion = mystic_accord
				}
				every_owned_province = {
					limit = {
						religion = righteous_path
					}
					random_list = {
						50 = {
							change_religion = mystic_accord
						}
						50 = {

						}
					}
				}
				set_global_flag = rending_active
				every_country = {
					if = {
						limit = {
							any_owned_province = {
								OR = {
									has_province_modifier = damaged_temple_complex
									has_province_modifier = derelict_temple_complex
									has_province_modifier = corrupted_temple_complex
								}
							}
						}
						country_event = { id = spirits.701 }
					}
					else_if = {
						limit = { any_owned_province = { continent = asia NOT = { superregion = forbidden_lands_superregion } } }
						country_event = { id = spirits.702 days = 180 }
					}
				}
			}
		}
	}
	
	Y26_dominating_the_lesser_spirits = {
		position = 12
		icon = mission_magical_forest
		required_missions = { Y26_huszien_restored }
		
		provinces_to_highlight = {
			AND = {
				OR = {
					area = luoyip_area
					area = gungi_area
					area = iongsim_area
					area = hongnguan_area
					area = mulim_area
					area = tianlou_area
					province_id = 4872
				}
				NOT = {
					num_of_units_in_province = {
					who = ROOT
					type = infantry
						amount = 10
					}
				}
			}
		}
		
		trigger = {
			#custom_trigger_tooltip = {
			#	tooltip = Y26_lesser_spirits_trigger_tt
				luoyip_area = {
					type = any
					num_of_units_in_province = {
						who = ROOT
						type = infantry
						amount = 10
					}
				}
				gungi_area = {
					type = any
					num_of_units_in_province = {
						who = ROOT
						type = infantry
						amount = 10
					}
				}
				iongsim_area = {
					type = any
					num_of_units_in_province = {
						who = ROOT
						type = infantry
						amount = 10
					}
				}
				hongnguan_area = {
					type = any
					num_of_units_in_province = {
						who = ROOT
						type = infantry
						amount = 10
					}
				}
				mulim_area = {
					type = any
					num_of_units_in_province = {
						who = ROOT
						type = infantry
						amount = 10
					}
				}
				tianlou_area = {
					type = any
					NOT = { province_id = 4871 }
					num_of_units_in_province = {
						who = ROOT
						type = infantry
						amount = 10
					}
				}
				4872 = {
					num_of_units_in_province = {
						who = ROOT
						type = infantry
						amount = 10
					}
				}
			#}
		}
		
		effect = {
			if = {
				limit = { NOT = { has_country_flag = huszien_appeased } }
				set_country_flag = rending_quest_third
			}
			custom_tooltip = Y26_dominating_the_lesser_spirits_tt
			hidden_effect = {
				for = {
					amount = 10
					effect = "random_owned_province = { limit = { province_group = huszien_spirit_area } spawn_rebels = { type = spirit_swarms size = 1 } }"
				}
			}
			add_country_modifier = {
				name = Y26_might_of_huszien
				duration = 3650
			}
		}
	}
	
	Y26_shrine_of_a_thousand_tails_and_tales = {
		position = 13
		icon = mission_japanese_fort
		required_missions = { Y26_identity_of_the_vulpine_lady Y26_dominating_the_lesser_spirits Y26_the_four_lords }
		
		provinces_to_highlight = {
			province_id = 4931
			NOT = { development = 45 }
		}
		
		trigger = {
			4931 = {
				development = 45
				if = {
					limit = { has_dlc = "Leviathan" }
					num_of_times_expanded_infrastructure = 3
				}
			}
			treasury = 1000
			adm_power = 100
			dip_power = 100
			mil_power = 100
		}
		
		effect = {
			hidden_effect = {
				if = {
					limit = { has_country_flag = huszien_appeased }
					4559 = {
						change_variable = {
							which = rendingMonthsLeft
							value = 300
						}
					}
					change_variable = {
						which = dominationcountervar
						value = 1
					}
				}
				else = {
					set_country_flag = rending_quest_fifth
				}
			}
			4931 = {
				add_province_modifier = {
					name = Y26_shrine_of_a_thousand_tails_and_tales_mod
					duration = -1
				}
			}
			add_country_modifier = {
				name = huszien_primary_modifier
				duration = -1
			}
		}
	}
	
	Y26_our_lady_wed = {
		position = 14
		icon = mission_marriage
		required_missions = { Y26_shrine_of_a_thousand_tails_and_tales }
		
		provinces_to_highlight = {
			
		}
		
		trigger = {
			custom_trigger_tooltip = {
				tooltip = Y26_our_lady_wed_ttt
				has_country_flag = yanhe_appeased
			}
			is_great_power = yes
		}
		
		effect = {
			tooltip = {
				change_tag = R86
				swap_non_generic_missions = yes
			}
			country_event = { id = ideagroups.1 } #Swap Ideas
			custom_tooltip = huszien_special_unlock_tooltip
			set_country_flag = huszien_special_aspect_unlocked
			hidden_effect = {
				add_historical_friend = Y93 #Daengun
				Y93 = {
					add_historical_friend = ROOT
				}
				country_event = { id = flavour_yinquan.999 }
				complete_mission = Y26_our_lady_wed
			}
		}
	}
}

Y26_3_4 = {
	slot = 4
	generic = no
	ai = yes
	potential = {
		OR = {
			tag = Y26
			was_tag = Y26
		}
		has_country_flag = Y26_great_awakening
	}
	has_country_shield = yes
	
	Y26_the_four_lords = {
		position = 12
		icon = mission_head_on_spike
		required_missions = { Y26_huszien_restored }
		
		provinces_to_highlight = {
			AND = {
				OR = {
					province_id = 4923
					province_id = 4915
					province_id = 4891
					province_id = 4877
				}
				NOT = {
					num_of_units_in_province = {
						who = Y26
						type = infantry
						amount = 10
					}
				}
			}
		}
		
		trigger = {
			4923 = {
				num_of_units_in_province = {
					who = Y26
					type = infantry
					amount = 10
				}
			}
			4915 = {
				num_of_units_in_province = {
					who = Y26
					type = infantry
					amount = 10
				}
			}
			4891 = {
				num_of_units_in_province = {
					who = Y26
					type = infantry
					amount = 10
				}
			}
			4877 = {
				num_of_units_in_province = {
					who = Y26
					type = infantry
					amount = 10
				}
			}
		}
		
		effect = {
			if = {
				limit = { NOT = { has_country_flag = huszien_appeased } }
				set_country_flag = rending_quest_fourth
			}
			custom_tooltip = Y26_four_lords_rise_tt
			hidden_effect = {
				4923 = {
					spawn_rebels = {
						type = four_lords_genbu_rebels
						size = 2
						leader = "Genbu, the Black Turtle"
					}
				}
				4915 = {
					spawn_rebels = {
						type = four_lords_byakko_rebels
						size = 2
						leader = "Byakko, the White Tiger"
					}
				}
				4891 = {
					spawn_rebels = {
						type = four_lords_suzaku_rebels
						size = 2
						leader = "Suzaku, the Vermillion Bird"
					}
				}
				4877 = {
					spawn_rebels = {
						type = four_lords_seiryu_rebels
						size = 2
						leader = "Seiryu, the Azure Dragon"
					}
				}
			}
		}
	}
}

Y26_4_1 = {
	slot = 1
	generic = no
	ai = yes
	potential = {
		tag = R86
	}
	has_country_shield = yes
	
	Y26_tian_liqius_cultivation_of_land = {
		position = 16
		icon = mission_peasantry
		required_missions = { Y26_conclave_of_maidens }
		
		provinces_to_highlight = {
			
		}
		
		trigger = {
			NOT = {
				num_of_estate_privileges = {
					estate = estate_nobles
					value = 1
				}
			}
			NOT = {
				estate_influence = {
					estate = estate_nobles
					influence = 30
				}
			}
			NOT = {
				estate_loyalty = {
					estate = estate_nobles
					loyalty = 30
				}
			}
		}
		
		effect = {
			country_event = {
				id = flavour_yinquan.45
			}
		}
	}

	Y26_fading_is_the_harvest_moon = {
		position = 18
		icon = mission_pol_breadbasket_europe
		required_missions = { Y26_tian_liqius_cultivation_of_land }

		provinces_to_highlight = {
			AND = {
				OR = {
					superregion = yanshen_superregion
					superregion = south_haless_superregion
					superregion = rahen_superregion
				}
				owned_by = ROOT
				OR = {
					trade_goods = grain
					trade_goods = livestock
				}
				NOT = { development = 20 }
				NOT = { has_manufactory_trigger = yes }
			}
		}

		trigger = {
			custom_trigger_tooltip = {
				tooltip = Y26_sunny_day_complete_ttt
				has_country_flag = Y26_sunny_day_complete
			}
			num_of_owned_provinces_with = {
				value = 15
				OR = {
					trade_goods = grain
					trade_goods = livestock
				}
				development = 20
				has_manufactory_trigger = yes
			}
		}

		effect = {
			custom_tooltip = Y26_fading_is_the_harvest_moon_finished_mission_tt
			hidden_effect = {
				every_owned_province = {
					limit = {
						OR = {
							trade_goods = grain
							trade_goods = livestock
						}
					}
					add_province_modifier = { name = Y26_land_redistribution duration = -1 }
					add_province_modifier = {
						name = Y26_fading_is_the_harvest_moon_mod
						duration = -1
					}
				}
			}
		}
	}
}

Y26_4_2 = {
	slot = 2
	generic = no
	ai = yes
	potential = {
		tag = R86
	}
	has_country_shield = yes
	
	
	Y26_han_guangs_securing_of_riches = {
		position = 16
		icon = mission_subjugate_the_merchants
		required_missions = { Y26_conclave_of_maidens }
		
		provinces_to_highlight = {
			AND = {
				owned_by = ROOT
				trade_goods = paper
				has_terrain = city_terrain
				NOT = { base_production = 15 }
			}
		}
		
		trigger = {
			has_institution = printing_press
			any_owned_province = {
				trade_goods = paper
				has_terrain = city_terrain
				base_production = 15
			}
			NOT = {
				num_of_estate_privileges = {
					estate = estate_burghers
					value = 1
				}
			}
			NOT = {
				estate_influence = {
					estate = estate_burghers
					influence = 30
				}
			}
			NOT = {
				estate_loyalty = {
					estate = estate_burghers
					loyalty = 30
				}
			}
		}
		
		effect = {
			country_event = {
				id = flavour_yinquan.51
			}
		}
	}

	Y26_light_is_the_cherry_blossom = {
		position = 18
		icon = mission_market_place_with_asian_traders
		required_missions = { Y26_han_guangs_securing_of_riches }
		
		provinces_to_highlight = {
			OR = {
				province_id = 4859
				province_id = 4868
				province_id = 4871
			}
			NOT = { num_of_times_improved_by_owner = 10 }
		}
		
		trigger = {
			custom_trigger_tooltip = {
				tooltip = Y26_light_is_the_cherry_blossom_ttt
				has_country_flag = Y26_wealth_of_huszien_complete
			}
			4859 = {
				num_of_times_improved_by_owner = 10
			}
			4868 = {
				num_of_times_improved_by_owner = 10
			}
			4871 = {
				num_of_times_improved_by_owner = 10
			}
		}
		
		effect = {
			#custom_tooltip = Y26_light_is_the_cherry_blossom_tt
			set_estate_privilege = estate_burghers_peasant_traders
		}
	}
}

Y26_4_3 = {
	slot = 3
	generic = no
	ai = yes
	potential = {
		tag = R86
	}
	has_country_shield = yes

	Y26_conclave_of_maidens = {
		position = 15
		icon = mission_shady_encounter
		required_missions = { Y26_our_lady_wed }
		
		provinces_to_highlight = {

		}
		
		trigger = {
			estate_influence = {
				estate = estate_church
				influence = 100
			}
			has_estate_privilege = estate_church_independent_inquisition
			has_estate_privilege = estate_church_religious_state
			has_estate_privilege = estate_church_clerical_oversight
		}
		
		effect = {
			country_event = {
				id = flavour_yinquan.44
			}
		}
	}
	
	Y26_pan_hongs_endeavour_for_security = {
		position = 16
		icon = mission_chinese_general_riding
		required_missions = { Y26_conclave_of_maidens }
		
		provinces_to_highlight = {
			
		}
		
		trigger = {
			mil_power = 200
			OR = {
				has_mil_advisor_3 = yes
				advisor = army_reformer
			}
			OR = {
				has_dip_advisor_3 = yes
				advisor = spymaster
			}
		}
		
		effect = {
			country_event = {
				id = flavour_yinquan.54
			}
		}
	}
	
	Y26_red_runs_the_yanhe = {
		position = 18
		icon = mission_burning_separation
		required_missions = { Y26_pan_hongs_endeavour_for_security }
		
		provinces_to_highlight = {
			
		}
		
		trigger = {
			custom_trigger_tooltip = {
				tooltip = Y26_gumiho_in_power_tt
				has_ruler_flag = is_sado
			}
			num_of_generals = 7
			custom_trigger_tooltip = {
				tooltip = Y26_red_runs_the_yanhe_ttt
				has_country_flag = Y26_purge_complete
			}
		}
		
		effect = {
			add_country_modifier = {
				name = Y26_faithful_military
				duration = -1
			}
		}
	}
	
	Y26_onwards_lingyuk = {
		position = 19
		icon = mission_haless_map
		required_missions = { Y26_fading_is_the_harvest_moon Y26_light_is_the_cherry_blossom Y26_red_runs_the_yanhe Y26_wise_is_the_maiden Y26_martial_masters }
		
		provinces_to_highlight = {
			
		}
		
		trigger = {
			custom_trigger_tooltip = {
				tooltip = Y26_onwards_lingyuk_ttt
				calc_true_if = {
					amount = 6
					has_country_flag =  marutha_appeased
					has_country_flag =  dhenbasana_appeased
					has_country_flag =  kharunyana_appeased
					has_country_flag =  tughayasa_appeased
					has_country_flag =  hengdu_bowu_appeased
					has_country_flag =  hukai_telebei_appeased
					has_country_flag =  phokhao_appeased
					has_country_flag =  gehet_ketine_appeased
					has_country_flag =  lupulan_appeased
					has_country_flag =  cinulau_appeased 
					has_country_flag =  yanhe_appeased 
					has_country_flag =  hokuma_appeased
					has_country_flag =  huszien_appeased
				}
			}
		}
		
		effect = {
			custom_tooltip = Y26_onwards_lingyuk_tt
		}
	}
	
	Y26_shi_quan_shi_mei = {
		position = 20
		icon = mission_lotus_flower
		required_missions = { Y26_onwards_lingyuk }
		
		provinces_to_highlight = {
			OR = {
				superregion = south_haless_superregion
				superregion = rahen_superregion
				superregion = yanshen_superregion
			}
			NOT = { country_or_non_sovereign_subject_holds = ROOT }
		}
		
		trigger = {
			custom_trigger_tooltip = {
				tooltip = Y26_shi_quan_shi_mei_ttt
				has_country_flag =  marutha_appeased
				has_country_flag =  dhenbasana_appeased
				has_country_flag =  kharunyana_appeased
				has_country_flag =  tughayasa_appeased
				has_country_flag =  hengdu_bowu_appeased
				has_country_flag =  hukai_telebei_appeased
				has_country_flag =  phokhao_appeased
				has_country_flag =  gehet_ketine_appeased
				has_country_flag =  lupulan_appeased
				has_country_flag =  cinulau_appeased 
				has_country_flag =  yanhe_appeased
				has_country_flag =  hokuma_appeased
				has_country_flag =  huszien_appeased
				south_haless_superregion = {
					type = all
					country_or_non_sovereign_subject_holds = ROOT
				}
				rahen_superregion = {
					type = all
					country_or_non_sovereign_subject_holds = ROOT
				}
				yanshen_superregion = {
					type = all
					country_or_non_sovereign_subject_holds = ROOT
				}
			}
		}
		
		effect = {
			country_event = {
				id = flavour_yinquan.61
			}
		}
	}
}

Y26_4_4 = {
	slot = 4
	generic = no
	ai = yes
	potential = {
		tag = R86
	}
	has_country_shield = yes
	
	
	Y26_zheng_huilings_enabling_of_truth = {
		position = 16
		icon = mission_whisper
		required_missions = { Y26_conclave_of_maidens }
		
		provinces_to_highlight = {
			
		}
		
		trigger = {
			government_reform_progress = 250
			has_adm_advisor_3 = yes
			OR = {
				spymaster = 3
				has_dip_advisor_5 = yes
			}
			custom_trigger_tooltip = {
				tooltip = Y26_sunny_day_complete_ttt
				has_country_flag = Y26_sunny_day_complete
			}
			custom_trigger_tooltip = {
				tooltip = Y26_light_is_the_cherry_blossom_ttt
				has_country_flag = Y26_wealth_of_huszien_complete
			}
			custom_trigger_tooltip = {
				tooltip = Y26_red_runs_the_yanhe_ttt
				has_country_flag = Y26_purge_complete
			}
		}
		
		effect = {
			country_event = {
				id = flavour_yinquan.57
			}
		}
	}

	Y26_wise_is_the_maiden = {
		position = 18
		icon = mission_writing_book
		required_missions = { Y26_zheng_huilings_enabling_of_truth }
		
		provinces_to_highlight = {
			
		}
		
		trigger = {
			custom_trigger_tooltip = {
				tooltip = Y26_huli_jing_in_power_tt
				has_ruler_flag = is_holi
			}
			custom_trigger_tooltip = {
				tooltip = Y26_dissimination_of_truth_ttt
				has_country_flag = Y26_truth_complete
			}
		}
		
		effect = {
			remove_country_modifier = Y26_distracted_state_mod
			if = {
				limit = {
					has_country_flag = Y26_power_to_the_hand_maiden
				}
				add_country_modifier = {
					name = Y26_all_power_to_the_hand_maiden
					duration = -1
				}
			}
			else_if = {
				limit = {
					has_country_flag = Y26_trust_bueracracy
				}
				add_country_modifier = {
					name = Y26_trust_in_the_bueracracy
					duration = -1
				}
			}
		}
	}
}

Y26_4_5 = {
	slot = 5
	generic = no
	ai = yes
	potential = {
		tag = R86
	}
	has_country_shield = yes
	
	Y26_a_knife_in_the_dark = {
		position = 16
		icon = mission_three_death
		required_missions = { Y26_cultural_exchange }
		
		provinces_to_highlight = {
			
		}
		
		trigger = {
			if = {
				limit = {
					has_saved_global_event_target = Y26_xia_alliance
					event_target:Y26_xia_alliance = {
						exists = no
					}
					event_target:Y26_xia_alliance_capital = {
						NOT = { country_or_non_sovereign_subject_holds = ROOT }
					}
				}
				event_target:Y26_xia_alliance_capital = {
					owner = {
						if = {
							limit = { ROOT = { spymaster = 5 } }
							has_spy_network_from = {
								who = ROOT
								value = 50
							}
						}
						else_if = {
							limit = { ROOT = { spymaster = 4 } }
							has_spy_network_from = {
								who = ROOT
								value = 60
							}
						}
						else_if = {
							limit = { ROOT = { spymaster = 3 } }
							has_spy_network_from = {
								who = ROOT
								value = 70
							}
						}
						else_if = {
							limit = { ROOT = { spymaster = 2 } }
							has_spy_network_from = {
								who = ROOT
								value = 80
							}
						}
						else_if = {
							limit = { ROOT = { spymaster = 1 } }
							has_spy_network_from = {
								who = ROOT
								value = 90
							}
						}
						else_if = {
							limit = { ROOT = { NOT = { spymaster = 1 } } }
							has_spy_network_from = {
								who = ROOT
								value = 90
							}
						}
						ROOT = { has_spawned_supported_rebels = PREV }
					}
				}
			}
			else_if = {
				limit = {
					has_saved_global_event_target = Y26_xia_alliance
					event_target:Y26_xia_alliance = {
						exists = yes
						NOT = { is_subject_of = ROOT }
					}
				}
				event_target:Y26_xia_alliance = {
					if = {
						limit = { ROOT = { spymaster = 5 } }
						has_spy_network_from = {
							who = ROOT
							value = 50
						}
					}
					else_if = {
						limit = { ROOT = { spymaster = 4 } }
						has_spy_network_from = {
							who = ROOT
							value = 60
						}
					}
					else_if = {
						limit = { ROOT = { spymaster = 3 } }
						has_spy_network_from = {
							who = ROOT
							value = 70
						}
					}
					else_if = {
						limit = { ROOT = { spymaster = 2 } }
						has_spy_network_from = {
							who = ROOT
							value = 80
						}
					}
					else_if = {
						limit = { ROOT = { spymaster = 1 } }
						has_spy_network_from = {
							who = ROOT
							value = 90
						}
					}
					else_if = {
						limit = { ROOT = { NOT = { spymaster = 1 } } }
						has_spy_network_from = {
							who = ROOT
							value = 90
						}
					}
				}
			}
			else_if = {
				limit = {
					NOT = { has_saved_global_event_target = Y26_xia_alliance }
					NOT = { owns_or_non_sovereign_subject_of = 4559 }
				}
				4559 = {
					owner = {
						if = {
							limit = { ROOT = { spymaster = 5 } }
							has_spy_network_from = {
								who = ROOT
								value = 50
							}
						}
						else_if = {
							limit = { ROOT = { spymaster = 4 } }
							has_spy_network_from = {
								who = ROOT
								value = 60
							}
						}
						else_if = {
							limit = { ROOT = { spymaster = 3 } }
							has_spy_network_from = {
								who = ROOT
								value = 70
							}
						}
						else_if = {
							limit = { ROOT = { spymaster = 2 } }
							has_spy_network_from = {
								who = ROOT
								value = 80
							}
						}
						else_if = {
							limit = { ROOT = { spymaster = 1 } }
							has_spy_network_from = {
								who = ROOT
								value = 90
							}
						}
						else_if = {
							limit = { ROOT = { NOT = { spymaster = 1 } } }
							has_spy_network_from = {
								who = ROOT
								value = 90
							}
						}
						ROOT = { has_spawned_supported_rebels = PREV }
					}
				}
			}
			else = {
			}
			custom_trigger_tooltip = {
				tooltip = Y26_huli_jing_in_power_tt
				has_ruler_flag = is_holi
			}
			has_patron_trigger = { patron = huli_jing }
		}
		
		effect = { #I hate.
			if = {
				limit = {
					has_saved_global_event_target = Y26_xia_alliance
					event_target:Y26_xia_alliance = {
						exists = yes
					}
				}
				create_subject = {
					subject_type = vassal
					subject = event_target:Y26_xia_alliance
				}
			}
			else_if = {
				limit = {
					has_saved_global_event_target = Y26_xia_alliance
					event_target:Y26_xia_alliance = {
						exists = no
					}
					event_target:Y26_xia_alliance_capital = {
						country_or_non_sovereign_subject_holds = ROOT
					}
				}
				add_stability_or_adm_power = yes #consolation prize
			}
			else_if = {
				limit = {
					has_saved_global_event_target = Y26_xia_alliance
					event_target:Y26_xia_alliance = {
						exists = no
					}
				}
				if = {
					limit = {
						xianjie_region = {
							is_core = event_target:Y26_xia_alliance
						}
					}
					random_province = {
						limit = {
							region = xianjie_region
							is_core = event_target:Y26_xia_alliance
						}
						owner = {
							release = event_target:Y26_xia_alliance
						}
					}
				}
				else = {
					event_target:Y26_xia_alliance_capital = {
						add_core = event_target:Y26_xia_alliance
						cede_province = event_target:Y26_xia_alliance
					}
				}
				vassalize = event_target:Y26_xia_alliance
			}
			else_if = {
				limit = {
					4559 = {
						NOT = {
							country_or_non_sovereign_subject_holds = ROOT
						}
					}
				}
				4559 = {
					add_core = Y28
					cede_province = Y28
				}
				vassalize = Y28
			}
			else = {
				add_stability_or_adm_power = yes #consolation prize
			}
		}
	}
	
	Y26_the_dakini = {
		position = 17
		icon = mission_empowerment
		required_missions = { Y26_a_knife_in_the_dark }
		
		provinces_to_highlight = {
			
		}
		
		trigger = {
			has_mil_advisor_5 = yes
			# OR = {
				# has_won_war_against = {
				# 	who = PREV
				# 	max_years_since = 100
				# }
				num_of_provinces_owned_or_owned_by_non_sovereign_subjects_with = {
					value = 30
					region = xianjie_region
				}
			# }
		}
		
		effect = {
			country_event = {
				id = flavour_yinquan.60
			}
		}
	}
	
	Y26_martial_masters = {
		position = 18
		icon = mission_japanese_samurai
		required_missions = { Y26_the_dakini }
		
		provinces_to_highlight = {
			
		}
		
		trigger = {
			has_patron_trigger = { patron = bladedancer }
			custom_trigger_tooltip = {
				tooltip = Y26_martial_masters_ttt

				check_variable = {
					which = PatronApproval
					value = 5
				}
			}
		}
		
		effect = {
			add_country_modifier = {
				name = Y26_martial_masters_mod
				duration = 18250 #50 years
			}
			custom_tooltip = Y26_martial_masters_tt
			hidden_effect = {
				every_owned_province = {
					change_religion = mystic_accord
				}
				every_subject_country = {
					change_religion = mystic_accord
					every_owned_province = {
						change_religion = mystic_accord
					}
				}
			}
		}
	}
}
