
defined_text = {
	name = getArtificeryBreakdownFull
	random = no
	
	text = {
        localisation_key = artifice_breakdown
        trigger = {
			always = yes
        }
    }
}
defined_text = {
	name = getArtificeryBreakdownShort
	random = no
	
	text = {
        localisation_key = artifice_breakdown_short
        trigger = {
			always = yes
        }
    }
}

defined_text = {
	name = getArtificeGovernment
	random = no
	
	text = {
        localisation_key = artifice_government_technocracy
        trigger = {
			has_government_attribute = is_technocracy
        }
    }
	text = {
        localisation_key = artifice_government_magocracy
        trigger = {
			has_government_attribute = is_magocracy
        }
    }
	text = {
        localisation_key = artifice_government_keju
        trigger = {
			has_government_attribute = is_feiten_keju
        }
    }
	text = {
        localisation_key = artifice_government_none
        trigger = {
			always = yes
		}
    }
}

defined_text = {
	name = getArtificeAdministration
	random = no
	
	text = {
        localisation_key = artifice_administration_gnome
        trigger = {
			has_country_modifier = gnomish_administration
        }
    }
	text = {
        localisation_key = artifice_administration_goblin
        trigger = {
			has_country_modifier = goblin_administration
        }
    }
	text = {
        localisation_key = artifice_administration_kobold
        trigger = {
			has_country_modifier = kobold_administration
        }
    }
	text = {
        localisation_key = artifice_administration_troll
        trigger = {
			has_country_modifier = troll_administration
        }
    }
	text = {
        localisation_key = artifice_administration_elven
        trigger = {
			has_country_modifier = elven_administration
        }
    }
	text = {
        localisation_key = artifice_administration_dwarven
        trigger = {
			has_country_modifier = dwarven_administration
        }
    }
	text = {
        localisation_key = artifice_administration_harimari
        trigger = {
			has_country_modifier = harimari_administration
        }
    }
	text = {
        localisation_key = artifice_administration_none
		trigger = {
			always = yes
		}
    }
}

defined_text = {
	name = getArtificeMilitary
	random = no
	
	text = {
        localisation_key = artifice_military_gnome
        trigger = {
			has_country_modifier = gnomish_military
        }
    }
	text = {
        localisation_key = artifice_military_goblin
        trigger = {
			has_country_modifier = goblin_military
        }
    }
	text = {
        localisation_key = artifice_military_kobold
        trigger = {
			has_country_modifier = kobold_military
        }
    }
	text = {
        localisation_key = artifice_military_troll
        trigger = {
			has_country_modifier = troll_military
        }
    }
	text = {
        localisation_key = artifice_military_elven
        trigger = {
			has_country_modifier = elven_military
        }
    }
	# text = {
    #     localisation_key = artifice_military_dwarven
    #     trigger = {
	# 		has_country_modifier = dwarven_military
    #     }
    # }
	text = {
        localisation_key = artifice_military_harimari
        trigger = {
			has_country_modifier = harimari_military
        }
    }
	text = {
        localisation_key = artifice_military_none
		trigger = {
			always = yes
		}
    }
}

defined_text = {
	name = getArtificeReligion
	random = no
	
	text = {
        localisation_key = artifice_religion_ravelian
        trigger = {
			religion = ravelian
        }
    }
	text = {
        localisation_key = artifice_religion_the_thought
        trigger = {
			religion = the_thought
        }
    }
	text = {
        localisation_key = artifice_religion_kvangahga
        trigger = {
			religion = kvangahga
        }
    }	
	text = {
        localisation_key = artifice_religion_fey_court
        trigger = {
			religion = fey_court
        }
    }
	text = {
        localisation_key = artifice_religion_ashentree_pact
        trigger = {
			religion = ashentree_pact
        }
    }
	text = {
        localisation_key = artifice_religion_starry_eye
        trigger = {
			religious_school = {
				group = raheni
				school = starry_eye_school
			}
        }
    }
	text = {
        localisation_key = artifice_religion_none
		trigger = {
			always = yes
		}
    }
}

defined_text = {
	name = getArtificeManufactories
	random = no
	
	text = {
        localisation_key = artifice_manufactories_embraced
        trigger = {
			has_institution = manufactories
        }
    }
	text = {
        localisation_key = artifice_manufactories_not_embraced
		trigger = {
			NOT = { has_institution = manufactories }
		}
    }
}

defined_text = {
	name = getArtificeIndustrialization
	random = no
	
	text = {
        localisation_key = artifice_industrialization_embraced
        trigger = {
			has_institution = industrialization
        }
    }
	text = {
        localisation_key = artifice_industrialization_not_embraced
		trigger = {
			NOT = { has_institution = industrialization }
		}
    }
}

defined_text = {
	name = getArtificeInnovativeness
	random = no
	
	text = {
        localisation_key = artifice_innovativeness_100
        trigger = {
			innovativeness = 100
        }
    }
	text = {
        localisation_key = artifice_innovativeness_80
        trigger = {
			innovativeness = 80
        }
    }
	text = {
        localisation_key = artifice_innovativeness_60
        trigger = {
			innovativeness = 60
        }
    }
	text = {
        localisation_key = artifice_innovativeness_40
        trigger = {
			innovativeness = 40
        }
    }
	text = {
        localisation_key = artifice_innovativeness_20
        trigger = {
			innovativeness = 20
        }
    }
	text = {
        localisation_key = artifice_innovativeness_0
		trigger = {
			always = yes
		}
    }
}

defined_text = {
	name = getArtificeArtificersInfluence
	random = no
	
	text = {
        localisation_key = artifice_artificers_influence_60
        trigger = {
			estate_influence = {
				estate = estate_artificers
				influence = 60
			}
        }
    }
	text = {
        localisation_key = artifice_artificers_influence_40
        trigger = {
			estate_influence = {
				estate = estate_artificers
				influence = 40
			}
        }
    }
	text = {
        localisation_key = artifice_artificers_influence_20
        trigger = {
			estate_influence = {
				estate = estate_artificers
				influence = 20
			}
        }
    }
	text = {
        localisation_key = artifice_artificers_influence_0
		trigger = {
			#estate_influence = {
			#	estate = estate_artificers
			#	influence = 0
			#}
			# is not always true if you have estate_artificers -
			# seems that estate influence can be negative, and perhaps only the UI is capping it to 0%
			has_estate = estate_artificers
		}
    }
	text = {
        localisation_key = artifice_artificers_influence_none
		trigger = {
			always = yes
		}
    }
}

defined_text = {
	name = getArtificeMagesInfluence
	random = no
	
	text = {
        localisation_key = artifice_mages_influence_60
        trigger = {
			estate_influence = {
				estate = estate_mages
				influence = 60
			}
        }
    }
	text = {
        localisation_key = artifice_mages_influence_40
        trigger = {
			estate_influence = {
				estate = estate_mages
				influence = 40
			}
        }
    }
	text = {
        localisation_key = artifice_mages_influence_20
        trigger = {
			estate_influence = {
				estate = estate_mages
				influence = 20
			}
        }
    }
	text = {
        localisation_key = artifice_mages_influence_0
		trigger = {
			#estate_influence = {
			#	estate = estate_mages
			#	influence = 0
			#}
			# is not always true if you have estate_mages -
			# seems that estate influence can be negative, and perhaps only the UI is capping it to 0%
			has_estate = estate_mages	
		}
    }
	text = {
        localisation_key = artifice_mages_influence_none
		trigger = {
			always = yes
		}
    }
}

defined_text = {
	name = getArtificeRuler
	random = no
	
	text = {
		localisation_key = artifice_ruler_witch_king
		trigger = {
			has_ruler_modifier = witch_king_modifier
		}
	}
	text = {
		localisation_key = artifice_ruler_none
		trigger = {
			always = yes
		}
	}
}

defined_text = {
	name = getArtificeLich
	random = no

	text = {
		localisation_key = artifice_ruler_lich
		trigger = {
			has_ruler_flag = is_a_lich
		}
	}

	text = {
		localisation_key = artifice_ruler_none
		trigger = {
			always = yes
		}
	}
}

defined_text = {
	name = getArtificeUniversities
	random = no
	
	text = {
		localisation_key = artifice_university_yes
		trigger = {
			university = 1
		}
	}
	text = {
		localisation_key = artifice_university_none
		trigger = {
			always = yes
		}
	}
}

defined_text = {
	name = getArtificeHolds
	random = no
	
	text = {
		localisation_key = artifice_hold_wonder_yes
		trigger = {
			any_owned_province = {
				has_province_modifier = artificier_hall
			}
		}
	}
	text = {
		localisation_key = artifice_hold_wonder_none
		trigger = {
			always = yes
		}
	}
}

defined_text = {
	name = getArtificeDungeons
	random = no
	
	text = {
		localisation_key = artifice_dungeons_yes
		trigger = {
			has_dlc = "Leviathan"
			any_owned_province = {
				has_great_project = { type = dd_leforn tier = 3 }
				owner = {
					OR = {
						culture_group = dwarven
						culture_group = goblin
						culture_group = kobold
						culture = black_orc
						culture = mossmouth_ogre
					}
				}
			}
		}
	}
	text = {
		localisation_key = artifice_dungeons_none
		trigger = {
			always = yes
		}
	}
}

defined_text = {
	name = getArtificeCoal
	random = no
	
	text = {
		localisation_key = artifice_coal_points
		trigger = {
			check_variable = {
				which = CoalArtificePoints
				value = 1
			}
		}
	}
	text = {
		localisation_key = artifice_coal_points_none
		trigger = {
			always = yes
		}
	}
}

defined_text = {
	name = getArtificeRelics
	random = no
	
	text = {
		localisation_key = artifice_buffed_relics_points
		trigger = {
			check_variable = {
				which = RelicsArtificePoints
				value = 1
			}
			has_age_ability = ab_aelantir_relics
		}
	}
	text = {
		localisation_key = artifice_relics_points
		trigger = {
			check_variable = {
				which = RelicsArtificePoints
				value = 1
			}
		}
	}
	text = {
		localisation_key = artifice_relics_points_none
		trigger = {
			always = yes
		}
	}
}

defined_text = {
	name = getArtificeDamestear
	random = no
	
	text = {
		localisation_key = artifice_damestear_points
		trigger = {
			check_variable = {
				which = DamestearArtificePoints
				value = 1
			}
		}
	}
	text = {
		localisation_key = artifice_damestear_points_none
		trigger = {
			always = yes
		}
	}
}

defined_text = {
	name = getArtificeMissions
	random = no
	
	text = {
		localisation_key = artifice_mission_points
		trigger = {
			check_variable = {
				which = StaticArtificePoints
				value = 1
			}
		}
	}
}

defined_text = {
	name = getArtificeHasMultipliers
	random = no
	
	text = {
        localisation_key = artifice_multipliers
        trigger = {
			OR = {
				has_country_flag = has_artifice_multiplier
				has_government_attribute = is_technocracy
				has_government_attribute = is_magocracy
				has_government_attribute = is_feiten_keju
			}
        }
    }
	
	text = {
        localisation_key = artifice_no_multpliers
        trigger = {
			always = yes
		}
	}
}

# Feiten stuff
defined_text = {
	name = getArtificeFeitenLightningShuimuHired
	random = no
	
	text = {
        localisation_key = FeitenLightningShuimuHired
        trigger = {
			any_hired_mercenary_company = { template = merc_feiten_lightning_jellyfish }
        }
    }
	
	text = {
        localisation_key = feitenEmpty
        trigger = {
			always = yes
		}
	}
}

defined_text = {
	name = getArtificeFeitenStasisShuimuHired
	random = no
	
	text = {
        localisation_key = FeitenStasisShuimuHired
        trigger = {
			any_hired_mercenary_company = { template = merc_feiten_stasis }
        }
    }
	
	text = {
        localisation_key = feitenEmpty
        trigger = {
			always = yes
		}
	}
}

defined_text = {
	name = getArtificeFeitenFirestormShuimuHired
	random = no
	
	text = {
        localisation_key = FeitenFirestormShuimuHired
        trigger = {
			any_hired_mercenary_company = { template = merc_feiten_firestorm }
        }
    }
	
	text = {
        localisation_key = feitenEmpty
        trigger = {
			always = yes
		}
	}
}

defined_text = {
	name = getArtificeFeitenSkyFactoryShuimuHired
	random = no
	
	text = {
        localisation_key = FeitenSkyFactoryShuimuHired
        trigger = {
			any_hired_mercenary_company = { template = merc_feiten_sky_factory }
        }
    }
	
	text = {
        localisation_key = feitenEmpty
        trigger = {
			always = yes
		}
	}
}

defined_text = {
	name = getArtificeFeitenActiveFirestorm
	random = no
	
	text = {
        localisation_key = FeitenActiveFirestorm
        trigger = {
			has_country_flag = feiten_firestorm_active
        }
    }
	
	text = {
        localisation_key = feitenEmpty
        trigger = {
			always = yes
		}
	}
}

defined_text = {
	name = getArtificeFeitenActiveStasis
	random = no
	
	text = {
        localisation_key = FeitenActiveStasis
        trigger = {
			has_country_flag = feiten_stasis_field_active
        }
    }
	
	text = {
        localisation_key = feitenEmpty
        trigger = {
			always = yes
		}
	}
}

defined_text = {
	name = getArtificeFeitenActiveSkyFactory
	random = no
	
	text = {
        localisation_key = FeitenActiveSkyFactory
        trigger = {
			has_country_flag = feiten_skyfactory_active
        }
    }
	
	text = {
        localisation_key = feitenEmpty
        trigger = {
			always = yes
		}
	}
}

defined_text = {
	name = getArtificeFeitenTotalInvestments
	random = no
	
	text = {
        localisation_key = FeitenTotalInvestments
        trigger = {
			check_variable = {
				which = feiten_number_of_shuimu_engineering_cadre_facilities_investments
				value = 1
			}
        }
    }
	
	text = {
        localisation_key = feitenEmpty
        trigger = {
			always = yes
		}
	}
}

defined_text = {
	name = getArtificeVaraineAllies
	random = no
	
	text = {
        localisation_key = artifice_varaine_allies_points
        trigger = {
			has_government_attribute = is_varaine_alchemical_corps
			OR = {
				any_ally = {
					capital_scope = {
						same_continent = ROOT
					}
				}
				any_subject_country = {
					capital_scope = {
						same_continent = ROOT
					}
				}
			}
        }
    }
}

defined_text = {
	name = getArtificeVaraineForeignAllies
	random = no
	
	text = {
        localisation_key = artifice_varaine_foreign_allies_points
        trigger = {
			has_government_attribute = is_varaine_alchemical_corps
			OR = {
				any_ally = {
					capital_scope = {
						NOT = {same_continent = ROOT}
					}
				}
				any_subject_country = {
					capital_scope = {
						NOT = {same_continent = ROOT}
					}
				}
			}
        }
    }
}

defined_text = {
	name = getArtificeBrelarWatermillBuild
	random = no
	text = {
		localisation_key = getArtifice_Brelar_Watermill_Build
		trigger = {
			OR = {
				any_owned_province = {
					OR = {
						has_province_modifier = g27_watermill_progress_1
						has_province_modifier = g27_watermill_progress_2
						has_province_modifier = g27_watermill_progress_3
					}
				}
				any_subject_country = {
					any_owned_province = {
						OR = {
							has_province_modifier = g27_watermill_progress_1
							has_province_modifier = g27_watermill_progress_2
							has_province_modifier = g27_watermill_progress_3
						}
					}
				}
			}
		}
	}
}

defined_text = {
	name = getArtificeBrelarWatermillPoints
	random = no
	text = {
		localisation_key = getArtifice_Brelar_Watermill_Num
		trigger = {
			OR = {
				any_owned_province = {
					has_province_modifier = g27_clockwork_watermill
				}
				any_subject_country = {
					any_owned_province = {
						has_province_modifier = g27_clockwork_watermill
					}
				}
			}
		}
	}
}

defined_text = {
	name = getArtificeBrelarRiverwayBuild
	text = {
		localisation_key = getArtifice_Brelar_Waterway_Build
		trigger = {
			OR = {
				has_country_flag = g27_building_brelynn
				has_country_flag = g27_building_rzenta
				has_country_flag = g27_building_north_ynn
				has_country_flag = g27_building_dalaire
			}
		}
	}
}