
country_decisions = {
	
	universal_escann_nation = {
		major = yes
		potential = {
			has_reform = adventurer_reform
			NOT = { tag = B02 }
			is_playing_custom_nation = no
		}
		allow = {
			has_reform = found_our_nation
			is_free_or_tributary_trigger = yes
			is_at_war = no
			adm_tech = 7
		}
		effect = {
			if = { #Luciande
				limit = { tag = B11 }
				change_tag = B34
				custom_tooltip = luciande_nation_settling_advice_tt
				hidden_effect = {
					set_country_flag = has_vampires_estate
					set_country_flag = recent_masquerade_disaster
					country_event = { id = vampires_estate_events.1000 days = 30 }
				}
				swap_non_generic_missions = yes
			}
			else_if = { #Ancardia
				limit = { tag = B06 }
				change_tag = B35
			}
			else_if = { #Rogieria
				limit = { tag = B07 }
				change_tag = B37
				custom_tooltip = rogeria_nation_settling_advice_tt
				swap_non_generic_missions = yes
			}
			else_if = { #Elikhand
				limit = { tag = B15 }
				change_tag = B38
				custom_tooltip = elikhand_nation_settling_advice_tt
				swap_non_generic_missions = yes
			}
			else_if = { #Wyvernheart
				limit = { tag = B12 }
				change_tag = B39
			}
			else_if = { #Alenor
				limit = { tag = B03 }
				change_tag = B40
			}
			else_if = { #Stalbor
				limit = { tag = B13 }
				change_tag = B47
			}
			else_if = { #Ravenmarch
				limit = { tag = B14 }
				change_tag = B48
				custom_tooltip = ravenmarch_nation_settling_advice_tt
				swap_non_generic_missions = yes
			}
			else_if = { #Araionn
				limit = { tag = B09 }
				change_tag = B49
			}
			else_if = { #Newshire
				limit = { tag = B10 }
				change_tag = B50
				custom_tooltip = newshire_nation_settling_advice_tt
				swap_non_generic_missions = yes
			}
			else_if = { #Estaire
				limit = { tag = B08 }
				change_tag = B51
			}
			else_if = { #Anbenland
				limit = { tag = B16 }
				change_tag = B52
			}
			else_if = { #Nurcestir
				limit = { tag = B05 }
				change_tag = B53
			}
			else_if = { #Esthil
				limit = { tag = B20 }
				change_tag = B54
				custom_tooltip = esthil_nation_settling_advice_tt
				swap_non_generic_missions = yes
			}
			else_if = { #Rosande
				limit = { tag = B04 }
				change_tag = Z35
			}
			else_if = { #Hammerhome
				limit = { tag = B18 }
				change_tag = Z36
				custom_tooltip = hammerhome_nation_settling_advice_tt
				swap_non_generic_missions = yes
			}
			else_if = { #Covenblad
				limit = { tag = B19 }
				change_tag = Z37
			}
			hidden_effect = { restore_country_name = yes }
			remove_non_electors_emperors_from_empire_effect = yes
			add_prestige = 25
			adventurer_legacy_effect = yes
			set_country_flag = adventurer_derived_government
			clr_country_flag = knightly_order_adventurer
			if = {
				limit = { has_country_flag = B34_lucian }
				change_government = monarchy
				hidden_effect = {
					change_government_reform_progress = -1000
					lose_reforms = 10
					add_government_reform = autocracy_reform
				}
				country_event = { id = flavor_luciande.37 days = 1 }
			}
			else_if = {
				limit = { tag = B54 } #esthil
				country_event = { id = flavor_esthil.7 }
			}
			else = { country_event = { id = marcher.1 days = 1 } }
#			country_event = { id = adventurer.2 days = 10 }
			hidden_effect = {
				country_event = { #new culture event, 10 years after their debuff runs out
					id = marcher.2
					days = 18250
				}
			}
			if = {
				limit = { has_custom_ideas = no }
				country_event = { id = ideagroups.1 } #Swap Ideas
			}
		}
		ai_will_do = {
			factor = 1
		}
		ai_importance = 300
	}

	silvermere_nation = {
		major = yes
		potential = {
			owns_core_province = 756
			NOT = { has_country_flag = formed_silvermere_flag }
			NOT = { exists = B56 }
			has_reform = adventurer_reform
			always = no
		}
		allow = {
			has_reform = found_our_nation
			is_free_or_tributary_trigger = yes
			is_at_war = no
			owns_core_province = 756
			num_of_owned_provinces_with = {
				value = 9
				OR = {
					area = silvervord_area
					area = nortmerewood_area
					area = oudmerewood_area
					area = oudeben_area
					area = themin_area
					area = burnoll_area
					area = southgate_area
					area = nortmere_area
				}
			}
		}
		effect = {
			change_tag = B56
			hidden_effect = { restore_country_name = yes }
			remove_non_electors_emperors_from_empire_effect = yes

			add_prestige = 25
			adventurer_legacy_effect = yes
			set_country_flag = adventurer_derived_government
			set_country_flag = formed_silvermere_flag
			clr_country_flag = knightly_order_adventurer
			country_event = { id = marcher.1 days = 1 }
#			country_event = { id = adventurer.2 days = 10 }
			hidden_effect = {
				country_event = { #new culture event, 10 years after their debuff runs out
					id = marcher.2
					days = 18250
				}
			}
			if = {
				limit = { has_custom_ideas = no }
				country_event = { id = ideagroups.1 } #Swap Ideas
			}
		}
		ai_will_do = {
			factor = 1
		}
		ai_importance = 300
	}
	
	
	
	# Aelantir
	sornicande_nation = {
		major = yes
		potential = {
			tag = H40
			NOT = { has_country_flag = formed_sornicande_flag }
			NOT = { exists = H41 }
		}
		allow = {
			hidden_trigger = {
				tag = H40
			}
			adm_tech = 7			
			is_free_or_tributary_trigger = yes
			is_at_war = no
			num_of_cities = 3
		}
		effect = {
			change_tag = H41
			hidden_effect = { restore_country_name = yes }
			remove_non_electors_emperors_from_empire_effect = yes

			add_prestige = 25
			adventurer_legacy_effect = yes
			set_country_flag = adventurer_derived_government
			set_country_flag = formed_sornicande_flag
			clr_country_flag = knightly_order_adventurer
			country_event = { id = marcher.1 days = 1 }
#			country_event = { id = adventurer.2 days = 10 }
			hidden_effect = {
				country_event = { #new culture event, 10 years after their debuff runs out
					id = marcher.2
					days = 18250
				}
			}
			if = {
				limit = { has_custom_ideas = no }
				country_event = { id = ideagroups.1 } #Swap Ideas
			}
			hidden_effect = {
				change_variable = { #Sornicande eventually integrates Kwineh
					which = ruinborn_race_tolerance_ai
					value = 100
				}
			}
		}
		ai_will_do = {
			factor = 1
		}
		ai_importance = 300
	}
	
	neratica_nation = {
		major = yes
		potential = {
			tag = H42
			NOT = { has_country_flag = formed_neratica_flag }
			NOT = { exists = H43 }
		}
		allow = {
			hidden_trigger = {
				tag = H42
			}
			adm_tech = 7
			is_free_or_tributary_trigger = yes
			is_at_war = no
			num_of_cities = 3
		}
		effect = {
			change_tag = H43
			hidden_effect = { restore_country_name = yes }
			remove_non_electors_emperors_from_empire_effect = yes

			add_prestige = 25
			adventurer_legacy_effect = yes
			set_country_flag = adventurer_derived_government
			set_country_flag = formed_neratica_flag
			clr_country_flag = knightly_order_adventurer
			country_event = { id = marcher.1 days = 1 }
#			country_event = { id = adventurer.2 days = 10 }
			hidden_effect = {
				country_event = { #new culture event, 10 years after their debuff runs out
					id = marcher.2
					days = 18250
				}
			}
			if = {
				limit = { has_custom_ideas = no }
				country_event = { id = ideagroups.1 } #Swap Ideas
			}
			hidden_effect = {
				change_variable = { #Cheshoshi purging eventually ends
					which = ruinborn_race_tolerance_ai
					value = 150
				}
			}
		}
		ai_will_do = {
			factor = 1
		}
		ai_importance = 300
	}
	
	beggaston_nation = {
		major = yes
		potential = {
			tag = H44
			NOT = { has_country_flag = formed_beggaston_flag }
			NOT = { exists = H45 }
		}
		allow = {
			hidden_trigger = {
				tag = H44
			}
			adm_tech = 7			
			OR = { 
				is_free_or_tributary_trigger = yes
				is_subject_of_type = ynnic_iosahar
			}
			is_at_war = no
			num_of_cities = 3
		}
		effect = {
			change_tag = H45
			hidden_effect = { restore_country_name = yes }
			remove_non_electors_emperors_from_empire_effect = yes

			add_prestige = 25
			adventurer_legacy_effect = yes
			set_country_flag = adventurer_derived_government
			set_country_flag = formed_beggaston_flag
			clr_country_flag = knightly_order_adventurer
			hidden_effect = {
				lose_reforms = 10 # Reset reform progress
				if = {
					limit = {
						has_ruler_modifier = heir_mage_personality_mod
					}
					remove_country_modifier = heir_mage_personality_mod
					clr_heir_flag = heir_consort_mage_personality
				}
				if = {
					limit = { NOT = { government = republic } }
					change_government = republic
					add_republican_tradition = 50
				}
			}
			add_government_reform = peasants_republic
#			country_event = { id = adventurer.2 days = 10 }
			hidden_effect = {
				country_event = { #new culture event, 10 years after their debuff runs out
					id = marcher.2
					days = 18250
				}
			}
			if = {
				limit = { has_custom_ideas = no }
				country_event = { id = ideagroups.1 } #Swap Ideas
			}
			hidden_effect = {
				cannorian_in_ynn_rename = yes
				if = { limit = { is_subject_of_type = ynnic_iosahar } change_country_color = { country = overlord } }
			}
		}
		ai_will_do = {
			factor = 1
		}
		ai_importance = 300
	}
	
	istranar_nation = {
		major = yes
		potential = {
			tag = H46
			NOT = { has_country_flag = formed_istranar_flag }
			NOT = { exists = H47 }
		}
		allow = {
			hidden_trigger = {
				tag = H46
			}
			adm_tech = 7
			OR = { 
				is_free_or_tributary_trigger = yes
				is_subject_of_type = ynnic_iosahar
			}
			is_at_war = no
			num_of_cities = 3
		}
		effect = {
			change_tag = H47
			hidden_effect = { restore_country_name = yes }
			remove_non_electors_emperors_from_empire_effect = yes

			add_prestige = 25
			adventurer_legacy_effect = yes
			set_country_flag = adventurer_derived_government
			set_country_flag = formed_istranar_flag
			clr_country_flag = knightly_order_adventurer
			country_event = { id = marcher.1 days = 1 }
#			country_event = { id = adventurer.2 days = 10 }
			hidden_effect = {
				country_event = { #new culture event, 10 years after their debuff runs out
					id = marcher.2
					days = 18250
				}
			}
			if = {
				limit = { has_custom_ideas = no }
				country_event = { id = ideagroups.1 } #Swap Ideas
			}
			hidden_effect = {
				cannorian_in_ynn_rename = yes
				if = { limit = { is_subject_of_type = ynnic_iosahar } change_country_color = { country = overlord } }
			}
		}
		ai_will_do = {
			factor = 1
		}
		ai_importance = 300
	}
	
	tiru_moine_nation = {
		major = yes
		potential = {
			tag = H48
			NOT = { has_country_flag = formed_tiru_moine_flag }
			NOT = { exists = H49 }
		}
		allow = {
			hidden_trigger = {
				tag = H48
			}
			adm_tech = 7			
			OR = { 
				is_free_or_tributary_trigger = yes
				is_subject_of_type = ynnic_iosahar
			}
			is_at_war = no
			num_of_cities = 3
		}
		effect = {
			change_tag = H49
			hidden_effect = { restore_country_name = yes }
			remove_non_electors_emperors_from_empire_effect = yes

			add_prestige = 25
			adventurer_legacy_effect = yes
			set_country_flag = adventurer_derived_government
			set_country_flag = formed_tiru_moine_flag
			clr_country_flag = knightly_order_adventurer
			hidden_effect = {
				lose_reforms = 10 # Reset reform progress
				if = {
					limit = {
						has_ruler_modifier = heir_mage_personality_mod
					}
					remove_country_modifier = heir_mage_personality_mod
					clr_heir_flag = heir_consort_mage_personality
				}
				if = {
					limit = { NOT = { government = republic } }
					change_government = republic
					add_republican_tradition = 50
				}
			}
			add_government_reform = frontier_republic_reform
#			country_event = { id = adventurer.2 days = 10 }
			hidden_effect = {
				country_event = { #new culture event, 10 years after their debuff runs out
					id = marcher.2
					days = 18250
				}
			}
			if = {
				limit = { has_custom_ideas = no }
				country_event = { id = ideagroups.1 } #Swap Ideas
			}
			hidden_effect = {
				cannorian_in_ynn_rename = yes
				if = { limit = { is_subject_of_type = ynnic_iosahar } change_country_color = { country = overlord } }
			}
		}
		ai_will_do = {
			factor = 1
		}
		ai_importance = 300
	}
	
	freemarches_nation = {
		major = yes
		potential = {
			tag = H50
			NOT = { has_country_flag = formed_freemarches_flag }
			NOT = { exists = H51 }
		}
		allow = {
			hidden_trigger = {
				tag = H50
			}
			adm_tech = 7			
			OR = { 
				is_free_or_tributary_trigger = yes
				is_subject_of_type = ynnic_iosahar
			}
			is_at_war = no
			num_of_cities = 3
		}
		effect = {
			change_tag = H51
			hidden_effect = { restore_country_name = yes }
			remove_non_electors_emperors_from_empire_effect = yes
			swap_non_generic_missions = yes

			add_prestige = 25
			adventurer_legacy_effect = yes
			set_country_flag = adventurer_derived_government
			set_country_flag = no_formable_culture_shift
			set_country_flag = formed_freemarches_flag
			clr_country_flag = knightly_order_adventurer
			country_event = { id = marcher.1 days = 1 }
#			country_event = { id = adventurer.2 days = 10 }
			hidden_effect = {
				country_event = { #new culture event, 10 years after their debuff runs out
					id = marcher.2
					days = 18250
				}
			}
			if = {
				limit = { has_custom_ideas = no }
				country_event = { id = ideagroups.1 } #Swap Ideas
			}
			hidden_effect = {
				cannorian_in_ynn_rename = yes
				if = { limit = { is_subject_of_type = ynnic_iosahar } change_country_color = { country = overlord } }
			}
		}
		ai_will_do = {
			factor = 1
		}
		ai_importance = 300
	}
	
	pelodaire_nation = {
		major = yes
		potential = {
			tag = H52
			NOT = { has_country_flag = formed_pelodaire_flag }
			NOT = { exists = H53 }
		}
		allow = {
			hidden_trigger = {
				tag = H52
			}
			adm_tech = 7
			OR = { 
				is_free_or_tributary_trigger = yes
				is_subject_of_type = ynnic_iosahar
			}
			is_at_war = no
			num_of_cities = 3
		}
		effect = {
			change_tag = H53
			hidden_effect = { restore_country_name = yes }
			remove_non_electors_emperors_from_empire_effect = yes

			add_prestige = 25
			adventurer_legacy_effect = yes
			set_country_flag = adventurer_derived_government
			set_country_flag = formed_pelodaire_flag
			clr_country_flag = knightly_order_adventurer
			hidden_effect = {
				lose_reforms = 10 # Reset reform progress
				if = {
					limit = {
						has_ruler_modifier = heir_mage_personality_mod
					}
					remove_country_modifier = heir_mage_personality_mod
					clr_heir_flag = heir_consort_mage_personality
				}
				if = {
					limit = { NOT = { government = republic } }
					change_government = republic
					add_republican_tradition = 50
				}
			}
			add_government_reform = frontier_republic_reform
#			country_event = { id = adventurer.2 days = 10 }
			hidden_effect = {
				country_event = { #new culture event, 10 years after their debuff runs out
					id = marcher.2
					days = 18250
				}
			}
			if = {
				limit = { has_custom_ideas = no }
				country_event = { id = ideagroups.1 } #Swap Ideas
			}
			hidden_effect = {
				cannorian_in_ynn_rename = yes
				if = { limit = { is_subject_of_type = ynnic_iosahar } change_country_color = { country = overlord } }
			}
		}
		ai_will_do = {
			factor = 1
		}
		ai_importance = 300
	}
	
	west_tipney_nation = {
		major = yes
		potential = {
			tag = H54
			NOT = { has_country_flag = formed_west_tipney_flag }
			NOT = { exists = H55 }
		}
		allow = {
			hidden_trigger = {
				tag = H54
			}
			adm_tech = 7		
			OR = { 
				is_free_or_tributary_trigger = yes
				is_subject_of_type = ynnic_iosahar
			}
			is_at_war = no
			num_of_cities = 3
		}
		effect = {
			change_tag = H55
			hidden_effect = { restore_country_name = yes }
			remove_non_electors_emperors_from_empire_effect = yes

			add_prestige = 25
			adventurer_legacy_effect = yes
			set_country_flag = adventurer_derived_government
			set_country_flag = formed_west_tipney_flag
			clr_country_flag = knightly_order_adventurer
			country_event = { id = marcher.1 days = 1 }
#			country_event = { id = adventurer.2 days = 10 }
			hidden_effect = {
				country_event = { #new culture event, 10 years after their debuff runs out
					id = marcher.2
					days = 18250
				}
			}
			if = {
				limit = { has_custom_ideas = no }
				country_event = { id = ideagroups.1 } #Swap Ideas
			}
			hidden_effect = {
				cannorian_in_ynn_rename = yes
				if = { limit = { is_subject_of_type = ynnic_iosahar } change_country_color = { country = overlord } }
			}
		}
		ai_will_do = {
			factor = 1
		}
		ai_importance = 300
	}
	
	new_havoral_nation = {
		major = yes
		potential = {
			tag = H56
			NOT = { has_country_flag = formed_new_havoral_flag }
			NOT = { exists = H57 }
		}
		allow = {
			hidden_trigger = {
				tag = H56
			}
			adm_tech = 7			
			OR = { 
				is_free_or_tributary_trigger = yes
				is_subject_of_type = ynnic_iosahar
			}
			is_at_war = no
			num_of_cities = 3
		}
		effect = {
			change_tag = H57
			hidden_effect = { restore_country_name = yes }
			remove_non_electors_emperors_from_empire_effect = yes

			add_prestige = 25
			adventurer_legacy_effect = yes
			set_country_flag = adventurer_derived_government
			set_country_flag = formed_new_havoral_flag
			clr_country_flag = knightly_order_adventurer
#			country_event = { id = adventurer.2 days = 10 }
			country_event = { id = flavor_newhavoral.1 days = 1 }
			hidden_effect = {
				country_event = { #new culture event, 10 years after their debuff runs out
					id = marcher.2
					days = 18250
				}
			}
			if = {
				limit = { has_custom_ideas = no }
				country_event = { id = ideagroups.1 } #Swap Ideas
			}
			hidden_effect = {
				cannorian_in_ynn_rename = yes
				if = { limit = { is_subject_of_type = ynnic_iosahar } change_country_color = { country = overlord } }
			}
		}
		ai_will_do = {
			factor = 1
		}
		ai_importance = 300
	}
	
	chippengard_nation = {
		major = yes
		potential = {
			tag = H58
			NOT = { has_country_flag = formed_chippengard_flag }
			NOT = { exists = H59 }
		}
		allow = {
			hidden_trigger = {
				tag = H58
			}
			adm_tech = 7		
			OR = { 
				is_free_or_tributary_trigger = yes
				is_subject_of_type = ynnic_iosahar
			}
			is_at_war = no
			num_of_cities = 3
		}
		effect = {
			change_tag = H59
			hidden_effect = { restore_country_name = yes }
			remove_non_electors_emperors_from_empire_effect = yes

			add_prestige = 25
			adventurer_legacy_effect = yes
			set_country_flag = adventurer_derived_government
			set_country_flag = formed_chippengard_flag
			clr_country_flag = knightly_order_adventurer
			hidden_effect = {
				lose_reforms = 10 # Reset reform progress
				if = {
					limit = {
						has_ruler_modifier = heir_mage_personality_mod
					}
					remove_country_modifier = heir_mage_personality_mod
					clr_heir_flag = heir_consort_mage_personality
				}
				if = {
					limit = { NOT = { government = republic } }
					change_government = republic
					add_republican_tradition = 50
				}
			}
			add_government_reform = frontier_republic_reform
#			country_event = { id = adventurer.2 days = 10 }
			hidden_effect = {
				country_event = { #new culture event, 10 years after their debuff runs out
					id = marcher.2
					days = 18250
				}
			}
			if = {
				limit = { has_custom_ideas = no }
				country_event = { id = ideagroups.1 } #Swap Ideas
			}
			hidden_effect = {
				cannorian_in_ynn_rename = yes
				if = { limit = { is_subject_of_type = ynnic_iosahar } change_country_color = { country = overlord } }
			}
		}
		ai_will_do = {
			factor = 1
		}
		ai_importance = 300
	}
	
	plumstead_nation = {
		major = yes
		potential = {
			tag = H60
			NOT = { has_country_flag = formed_plumstead_flag }
			NOT = { exists = H61 }
		}
		allow = {
			hidden_trigger = {
				tag = H60
			}
			adm_tech = 7			
			OR = { 
				is_free_or_tributary_trigger = yes
				is_subject_of_type = ynnic_iosahar
			}
			is_at_war = no
			num_of_cities = 3
		}
		effect = {
			change_tag = H61
			hidden_effect = { restore_country_name = yes }
			remove_non_electors_emperors_from_empire_effect = yes
			swap_non_generic_missions = yes

			add_prestige = 25
			adventurer_legacy_effect = yes
			set_country_flag = adventurer_derived_government
			set_country_flag = formed_plumstead_flag
			clr_country_flag = knightly_order_adventurer
			hidden_effect = {
				lose_reforms = 10 # Reset reform progress
				if = {
					limit = {
						has_ruler_modifier = heir_mage_personality_mod
					}
					remove_country_modifier = heir_mage_personality_mod
					clr_heir_flag = heir_consort_mage_personality
				}
				if = {
					limit = { NOT = { government = republic } }
					change_government = republic
					add_republican_tradition = 50
				}
			}
			add_government_reform = frontier_republic_reform
#			country_event = { id = adventurer.2 days = 10 }
			country_event = { id = flavour_plumstead.1}
			hidden_effect = {
				country_event = { #new culture event, 10 years after their debuff runs out
					id = marcher.2
					days = 18250
				}
				add_republican_tradition = 50
			}
			if = {
				limit = { has_custom_ideas = no }
				country_event = { id = ideagroups.1 } #Swap Ideas
			}
			hidden_effect = {
				cannorian_in_ynn_rename = yes
				if = { limit = { is_subject_of_type = ynnic_iosahar } change_country_color = { country = overlord } }
			}
		}
		ai_will_do = {
			factor = 1
		}
		ai_importance = 300
	}
	
	nur_dhanaenn_nation = {
		major = yes
		potential = {
			tag = H62
			NOT = { has_country_flag = formed_nur_dhanaenn_flag }
			NOT = { exists = H63 }
		}
		allow = {
			hidden_trigger = {
				tag = H62
			}
			adm_tech = 7			
			OR = { 
				is_free_or_tributary_trigger = yes
				is_subject_of_type = ynnic_iosahar
			}
			is_at_war = no
			num_of_cities = 3
		}
		effect = {
			change_tag = H63
			hidden_effect = { restore_country_name = yes }
			remove_non_electors_emperors_from_empire_effect = yes

			add_prestige = 25
			adventurer_legacy_effect = yes
			set_country_flag = adventurer_derived_government
			set_country_flag = formed_nur_dhanaenn_flag
			clr_country_flag = knightly_order_adventurer
			country_event = { id = marcher.1 days = 1 }
#			country_event = { id = adventurer.2 days = 10 }
			hidden_effect = {
				country_event = { #new culture event, 10 years after their debuff runs out
					id = marcher.2
					days = 18250
				}
			}
			if = {
				limit = { has_custom_ideas = no }
				country_event = { id = ideagroups.1 } #Swap Ideas
			}
		}
		ai_will_do = {
			factor = 1
		}
		ai_importance = 300
	}
	
	tellumtir_nation = {
		major = yes
		potential = {
			tag = H64
			NOT = { has_country_flag = formed_tellumtir_flag }
			NOT = { exists = H65 }
		}
		allow = {
			hidden_trigger = {
				tag = H64
			}
			adm_tech = 7		
			OR = { 
				is_free_or_tributary_trigger = yes
				is_subject_of_type = ynnic_iosahar
			}
			is_at_war = no
			num_of_cities = 3
		}
		effect = {
			change_tag = H65
			hidden_effect = { restore_country_name = yes }
			remove_non_electors_emperors_from_empire_effect = yes

			add_prestige = 25
			adventurer_legacy_effect = yes
			set_country_flag = adventurer_derived_government
			set_country_flag = formed_tellumtir_flag
			clr_country_flag = knightly_order_adventurer
			hidden_effect = {
				lose_reforms = 10 # Reset reform progress
				if = {
					limit = {
						has_ruler_modifier = heir_mage_personality_mod
					}
					remove_country_modifier = heir_mage_personality_mod
					clr_heir_flag = heir_consort_mage_personality
				}
				if = {
					limit = { NOT = { government = republic } }
					change_government = republic
					add_republican_tradition = 50
				}
			}
			add_government_reform = frontier_republic_reform
#			country_event = { id = adventurer.2 days = 10 }
			hidden_effect = {
				country_event = { #new culture event, 10 years after their debuff runs out
					id = marcher.2
					days = 18250
				}
			}
			if = {
				limit = { has_custom_ideas = no }
				country_event = { id = ideagroups.1 } #Swap Ideas
			}
			hidden_effect = {
				cannorian_in_ynn_rename = yes
				if = { limit = { is_subject_of_type = ynnic_iosahar } change_country_color = { country = overlord } }
			}
		}
		ai_will_do = {
			factor = 1
		}
		ai_importance = 300
	}
	
	rezankand_nation = {
		major = yes
		potential = {
			tag = H66
			NOT = { has_country_flag = formed_rezankand_flag }
			NOT = { exists = H67 }
		}
		allow = {
			hidden_trigger = {
				tag = H66
			}
			adm_tech = 7
			is_free_or_tributary_trigger = yes
			is_at_war = no
			total_development = 100
		}
		effect = {
			change_tag = H67
			hidden_effect = { restore_country_name = yes }
			remove_non_electors_emperors_from_empire_effect = yes
			swap_non_generic_missions = yes

			add_prestige = 25
			adventurer_legacy_effect = yes
			set_country_flag = adventurer_derived_government
			set_country_flag = formed_rezankand_flag
			set_country_flag = no_formable_culture_shift
			clr_country_flag = knightly_order_adventurer
			country_event = { id = marcher.1 days = 1 }
#			country_event = { id = adventurer.2 days = 10 }
			hidden_effect = {
				country_event = { #new culture event, 10 years after their debuff runs out
					id = marcher.2
					days = 18250
				}
			}
			if = {
				limit = { has_custom_ideas = no }
				country_event = { id = ideagroups.1 } #Swap Ideas
			}
		}
		ai_will_do = {
			factor = 1
		}
		ai_importance = 300
	}
	
	kiohalen_nation = {
		major = yes
		potential = {
			tag = U67
			NOT = { has_country_flag = formed_kiohalen_flag }
			NOT = { exists = U68 }
		}
		allow = {
			adm_tech = 7
			is_free_or_tributary_trigger = yes
			is_nomad = no
			is_at_war = no
			total_development = 100
		}
		effect = {
			change_tag = U68
			hidden_effect = { restore_country_name = yes }
			remove_non_electors_emperors_from_empire_effect = yes
			swap_non_generic_missions = yes

			add_prestige = 25
			adventurer_legacy_effect = yes
			set_country_flag = adventurer_derived_government
			set_country_flag = formed_kiohalen_flag
			clr_country_flag = knightly_order_adventurer
			country_event = { id = marcher.1 days = 1 }
#			country_event = { id = adventurer.2 days = 10 }
			hidden_effect = {
				country_event = { #new culture event, 10 years after their debuff runs out
					id = marcher.2
					days = 18250
				}
			}
			
			if = {
				limit = { has_custom_ideas = no }
				country_event = { id = ideagroups.1 } #Swap Ideas
			}
		}
		ai_will_do = {
			factor = 1
		}
		ai_importance = 300
	}
}