
country_decisions = {

	carneter_nation = { 
		major = yes

		potential = {
			primary_culture = west_damerian
			NOT = { tag = A04 }
			NOT = { exists = B78 }
			NOT = { has_country_flag = formed_carneter_flag }

			normal_or_historical_nations = yes
			was_never_end_game_tag_trigger = yes
		}

		provinces_to_highlight = {
			OR = {
				province_id = 19
				province_id = 31
				province_id = 22
				province_id = 30
				province_id = 57
				province_id = 20
			}

			OR = {
				NOT = { owned_by = ROOT }
				NOT = { is_core = ROOT }
			}
		}

		allow = { 
			owns_core_province =  19 #Carneter
			owns_core_province =  31 #Ilvandet
			owns_core_province =  22 #Woodwell
			owns_core_province =  30 #Ancard's Crossing

			OR = {
				owns_core_province = 20 #Ordoin
				owns_core_province = 57 #Timberfort
			}

			is_at_war = no
			is_free_or_tributary_trigger = yes
		}

		effect = { 
			19 = { move_capital_effect = yes }
			change_tag = B78

			add_prestige = 25
			if = {
				limit = {
					has_custom_ideas = no
				}
				country_event = { id = ideagroups.1 } #Swap Ideas

				set_country_flag = formed_carneter_flag
			}

			woodwell_area = { change_culture = carnetori }
			carneteria_area = { change_culture = carnetori }
			57 = { change_culture = carnetori }
		}
	}
}
