
country_decisions = {
	ward_spirit_domain = {
		color = { 161 43 32 }
		provinces_to_highlight = {
			OR = {
				AND = {
					province_group = hokuma_spirit_area
					NOT = { has_province_flag = pristine_wards }
					NOT = { area_for_scope_province = { has_state_edict = spirit_hunters_edict } }
					ROOT = { has_country_flag = hokuma_highlight }
				}
				AND = {
					province_group = yanhe_spirit_area
					NOT = { has_province_flag = pristine_wards }
					NOT = { area_for_scope_province = { has_state_edict = spirit_hunters_edict } }
					ROOT = { has_country_flag = yanhe_highlight }
				}
				AND = {
					province_group = kharunyana_spirit_area
					NOT = { has_province_flag = pristine_wards }
					NOT = { area_for_scope_province = { has_state_edict = spirit_hunters_edict } }
					ROOT = { has_country_flag = kharunyana_highlight }
				}
				AND = {
					province_group = phokao_spirit_area
					NOT = { has_province_flag = pristine_wards }
					NOT = { area_for_scope_province = { has_state_edict = spirit_hunters_edict } }
					ROOT = { has_country_flag = phokao_highlight }
				}
				AND = {
					province_group = hengdu_bowu_spirit_area
					NOT = { has_province_flag = pristine_wards }
					NOT = { area_for_scope_province = { has_state_edict = spirit_hunters_edict } }
					ROOT = { has_country_flag = hengdu_bowu_highlight }
				}
				AND = {
					province_group = cinulau_spirit_area
					NOT = { has_province_flag = pristine_wards }
					NOT = { area_for_scope_province = { has_state_edict = spirit_hunters_edict } }
					ROOT = { has_country_flag = cinulau_highlight }
				}
				AND = {
					province_group = lupulan_spirit_area
					NOT = { has_province_flag = pristine_wards }
					NOT = { area_for_scope_province = { has_state_edict = spirit_hunters_edict } }
					ROOT = { has_country_flag = lupulan_highlight }
				}
				AND = {
					province_group = dhenbasana_spirit_area
					NOT = { has_province_flag = pristine_wards }
					NOT = { area_for_scope_province = { has_state_edict = spirit_hunters_edict } }
					ROOT = { has_country_flag = dhenbasana_highlight }
				}
				AND = {
					province_group = marutha_spirit_area
					NOT = { has_province_flag = pristine_wards }
					NOT = { area_for_scope_province = { has_state_edict = spirit_hunters_edict } }
					ROOT = { has_country_flag = marutha_highlight }
				}
				AND = {
					province_group = gehet_ketine_spirit_area
					NOT = { has_province_flag = pristine_wards }
					NOT = { area_for_scope_province = { has_state_edict = spirit_hunters_edict } }
					ROOT = { has_country_flag = gehet_ketine_highlight }
				}
				AND = {
					province_group = hukai_telebei_spirit_area
					NOT = { has_province_flag = pristine_wards }
					NOT = { area_for_scope_province = { has_state_edict = spirit_hunters_edict } }
					ROOT = { has_country_flag = hukai_telebei_highlight }
				}
				AND = {
					province_group = huszien_spirit_area
					NOT = { has_province_flag = pristine_wards }
					NOT = { area_for_scope_province = { has_state_edict = spirit_hunters_edict } }
					ROOT = { has_country_flag = huszien_highlight }
				}
				AND = {
					province_group = tughayasa_spirit_area
					NOT = { has_province_flag = pristine_wards }
					NOT = { area_for_scope_province = { has_state_edict = spirit_hunters_edict } }
					ROOT = { has_country_flag = tughayasa_highlight }
				}
			}
		}
		potential = {
			has_country_flag = rending_ward_flag
			NOT = { has_country_flag = halessi_spirit_menu_flag }
		}
		allow = {
			custom_trigger_tooltip = {
				tooltip = spirit_ward_yes_tt
				has_country_flag = rending_ward_flag
				NOT = { has_country_modifier = rending_menu_cooldown }
			}
		}
		effect = {
			custom_tooltip = rending_suppress_highlight_tt
			hidden_effect = {
				country_event = { id = spirits.706 }
				set_country_flag = halessi_spirit_menu_flag
				if = {
					limit = { ai = yes }
					add_country_modifier = {
						name = rending_menu_cooldown
						duration = 1825
					}
				}
			}
		}
		ai_will_do = {
			factor = 10000
		}
	}
	scour_spirit_domain = {
		color = { 161 43 32 }
		provinces_to_highlight = {
			OR = {
				AND = {
					ROOT = { has_country_flag = hokuma_highlight } 
					province_group = hokuma_spirit_area
					has_non_ruined_or_corrupted_temple_complex = yes
				}
				AND = {
					ROOT = { has_country_flag = yanhe_highlight } 
					province_group = yanhe_spirit_area
					has_non_ruined_or_corrupted_temple_complex = yes
				}
				AND = {
					ROOT = { has_country_flag = kharunyana_highlight } 
					province_group = kharunyana_spirit_area
					has_non_ruined_or_corrupted_temple_complex = yes
				}
				AND = {
					ROOT = { has_country_flag = phokao_highlight } 
					province_group = phokhao_spirit_area
					has_non_ruined_or_corrupted_temple_complex = yes
				}
				AND = {
					ROOT = { has_country_flag = hengdu_bowu_highlight } 
					province_group = hengdu_bowu_spirit_area
					has_non_ruined_or_corrupted_temple_complex = yes
				}
				AND = {
					ROOT = { has_country_flag = cinulau_highlight } 
					province_group = cinulau_spirit_area
					has_non_ruined_or_corrupted_temple_complex = yes
				}
				AND = {
					ROOT = { has_country_flag = lupulan_highlight } 
					province_group = lupulan_spirit_area
					has_non_ruined_or_corrupted_temple_complex = yes
				}
				AND = {
					ROOT = { has_country_flag = dhenbasana_highlight } 
					province_group = dhenbasana_spirit_area
					has_non_ruined_or_corrupted_temple_complex = yes
				}
				AND = {
					ROOT = { has_country_flag = marutha_highlight } 
					province_group = marutha_spirit_area
					has_non_ruined_or_corrupted_temple_complex = yes
				}
				AND = {
					ROOT = { has_country_flag = gehet_ketine_highlight } 
					province_group = gehet_ketine_spirit_area
					has_non_ruined_or_corrupted_temple_complex = yes
				}
				AND = {
					ROOT = { has_country_flag = hukai_telebei_highlight } 
					province_group = hukai_telebei_spirit_area
					has_non_ruined_or_corrupted_temple_complex = yes
				}
				AND = {
					ROOT = { has_country_flag = huszien_highlight } 
					province_group = huszien_spirit_area
					has_non_ruined_or_corrupted_temple_complex = yes
				}
				AND = {
					ROOT = { has_country_flag = tughayasa_highlight } 
					province_group = tughayasa_spirit_area
					has_non_ruined_or_corrupted_temple_complex = yes
				}
			}
		}
		potential = {
			has_country_flag = rending_corrupt_flag
			NOT = { has_country_flag = halessi_spirit_menu_flag }
		}
		allow = {
			custom_trigger_tooltip = {
				tooltip = spirit_corrupt_yes_tt
				has_country_flag = rending_corrupt_flag
				NOT = { has_country_modifier = rending_menu_cooldown }
			}
			OR = {
				is_subject = no
				is_subject_of_type = tributary_state_anb
			}
		}
		effect = {
			custom_tooltip = rending_scour_highlight_tt
			hidden_effect = {
				country_event = { id = spirits.736 }
				set_country_flag = halessi_spirit_menu_flag
				if = {
					limit = { ai = yes }
					add_country_modifier = {
						name = rending_menu_cooldown
						duration = 1825
					}
				}
			}
		}
		ai_will_do = {
			factor = 10000
		}
	}
}