namespace = cardesti_events

####MIGRATION LOGIC####

country_event = { #migration controller
	id = cardesti_events.1
	title = cardesti_events.1.t
	desc = cardesti_events.1.d
	picture = EUROPEAN_REFUGEES_eventPicture

	is_triggered_only = yes

	hidden = yes

	option = {
		name = cardesti_events.1.a
		if = {
			limit = {
				is_year = 1794
			}
			country_event = { id = cardesti_events.2 days = 1 }
			country_event = { id = cardesti_events.2 days = 2 }
			country_event = { id = cardesti_events.2 days = 3 }
			country_event = { id = cardesti_events.2 days = 4 }
			country_event = { id = cardesti_events.2 days = 5 }
			country_event = { id = cardesti_events.2 days = 6 }
			country_event = { id = cardesti_events.2 days = 7 }
			country_event = { id = cardesti_events.2 days = 8 }
			country_event = { id = cardesti_events.2 days = 9 }
			country_event = { id = cardesti_events.2 days = 10 }
			country_event = { id = cardesti_events.2 days = 11 }
			country_event = { id = cardesti_events.2 days = 12 }
			country_event = { id = cardesti_events.2 days = 13 }
			country_event = { id = cardesti_events.2 days = 14 }
		}
		else_if = {
			limit = {
				is_year = 1744
			}
			country_event = { id = cardesti_events.2 days = 1 }
			country_event = { id = cardesti_events.2 days = 2 }
			country_event = { id = cardesti_events.2 days = 3 }
			country_event = { id = cardesti_events.2 days = 4 }
			country_event = { id = cardesti_events.2 days = 5 }
			country_event = { id = cardesti_events.2 days = 6 }
			country_event = { id = cardesti_events.2 days = 7 }
			country_event = { id = cardesti_events.2 days = 8 }
			country_event = { id = cardesti_events.2 days = 9 }
			country_event = { id = cardesti_events.2 days = 10 }
			country_event = { id = cardesti_events.2 days = 11 }
			country_event = { id = cardesti_events.2 days = 12 }
			country_event = { id = cardesti_events.2 days = 13 }
		}
		else_if = {
			limit = {
				is_year = 1694
			}
			country_event = { id = cardesti_events.2 days = 1 }
			country_event = { id = cardesti_events.2 days = 2 }
			country_event = { id = cardesti_events.2 days = 3 }
			country_event = { id = cardesti_events.2 days = 4 }
			country_event = { id = cardesti_events.2 days = 5 }
			country_event = { id = cardesti_events.2 days = 6 }
			country_event = { id = cardesti_events.2 days = 7 }
			country_event = { id = cardesti_events.2 days = 8 }
			country_event = { id = cardesti_events.2 days = 9 }
			country_event = { id = cardesti_events.2 days = 10 }
			country_event = { id = cardesti_events.2 days = 11 }
			country_event = { id = cardesti_events.2 days = 12 }
		}
		else_if = {
			limit = {
				is_year = 1644
			}
			country_event = { id = cardesti_events.2 days = 1 }
			country_event = { id = cardesti_events.2 days = 2 }
			country_event = { id = cardesti_events.2 days = 3 }
			country_event = { id = cardesti_events.2 days = 4 }
			country_event = { id = cardesti_events.2 days = 5 }
			country_event = { id = cardesti_events.2 days = 6 }
			country_event = { id = cardesti_events.2 days = 7 }
			country_event = { id = cardesti_events.2 days = 8 }
			country_event = { id = cardesti_events.2 days = 9 }
			country_event = { id = cardesti_events.2 days = 10 }
			country_event = { id = cardesti_events.2 days = 11 }
		}
		else_if = {
			limit = {
				is_year = 1594
			}
			country_event = { id = cardesti_events.2 days = 1 }
			country_event = { id = cardesti_events.2 days = 2 }
			country_event = { id = cardesti_events.2 days = 3 }
			country_event = { id = cardesti_events.2 days = 4 }
			country_event = { id = cardesti_events.2 days = 5 }
			country_event = { id = cardesti_events.2 days = 6 }
			country_event = { id = cardesti_events.2 days = 7 }
			country_event = { id = cardesti_events.2 days = 8 }
			country_event = { id = cardesti_events.2 days = 9 }
			country_event = { id = cardesti_events.2 days = 10 }
		}
		else_if = {
			limit = {
				is_year = 1544
			}
			country_event = { id = cardesti_events.2 days = 1 }
			country_event = { id = cardesti_events.2 days = 2 }
			country_event = { id = cardesti_events.2 days = 3 }
			country_event = { id = cardesti_events.2 days = 4 }
			country_event = { id = cardesti_events.2 days = 5 }
			country_event = { id = cardesti_events.2 days = 6 }
			country_event = { id = cardesti_events.2 days = 7 }
			country_event = { id = cardesti_events.2 days = 8 }
			country_event = { id = cardesti_events.2 days = 9 }
		}
		else_if = {
			limit = {
				is_year = 1494
			}
			country_event = { id = cardesti_events.2 days = 1 }
			country_event = { id = cardesti_events.2 days = 2 }
			country_event = { id = cardesti_events.2 days = 3 }
			country_event = { id = cardesti_events.2 days = 4 }
			country_event = { id = cardesti_events.2 days = 5 }
			country_event = { id = cardesti_events.2 days = 6 }
			country_event = { id = cardesti_events.2 days = 7 }
			country_event = { id = cardesti_events.2 days = 8 }
		}
		else = {
			country_event = { id = cardesti_events.2 days = 1 }
			country_event = { id = cardesti_events.2 days = 2 }
			country_event = { id = cardesti_events.2 days = 3 }
			country_event = { id = cardesti_events.2 days = 4 }
			country_event = { id = cardesti_events.2 days = 5 }
			country_event = { id = cardesti_events.2 days = 6 }
			country_event = { id = cardesti_events.2 days = 7 }
		}
	}
}

country_event = { #migration logic
	id = cardesti_events.2
	title = cardesti_events.2.t
	desc = cardesti_events.2.d
	picture = EUROPEAN_REFUGEES_eventPicture

	is_triggered_only = yes

	hidden = yes

	option = {
		name = cardesti_events.2.a
		random_province = {
			limit = {
				continent = europe
				if = {
					limit = {
						NOT = { is_year = 1494 }
					}
					NOT = { superregion = escann_superregion }
				}
				NOT = {
					has_province_modifier = cardesti_minority_modifier
					superregion = deepwoods_superregion
					superregion = deepwoods_portal_superregion
					owner = {
						OR = {
							has_country_modifier = monstrous_nation
							has_country_modifier = racial_pop_human_purge
							has_country_modifier = racial_pop_human_expulsion
							has_country_flag = cardesti_migrating_out
						}
					}
				}
				is_city = yes
			}
			add_province_modifier = {
				name = cardesti_minority_modifier
				duration = -1
			}
			owner = {
				if = {
					limit = {
						NOT = { has_country_flag = cardesti_no_notice }
					}
					country_event = { id = cardesti_events.6 }
				}
			}
		}
	}
}

country_event = { #migration start
	id = cardesti_events.3
	title = cardesti_events.3.t
	desc = cardesti_events.3.d
	picture = EUROPEAN_REFUGEES_eventPicture

	is_triggered_only = yes

	hidden = yes

	option = {
		name = cardesti_events.3.a
		event_target:cardesti_core_province = {
			remove_province_modifier = cardesti_minority_modifier
		}
		random_province = {
			limit = {
				continent = europe
				if = {
					limit = {
						NOT = { is_year = 1494 }
					}
					NOT = { superregion = escann_superregion }
				}
				NOT = {
					superregion = deepwoods_superregion
					superregion = deepwoods_portal_superregion
					owner = {
						OR = {
							has_country_modifier = monstrous_nation
							has_country_modifier = racial_pop_human_purge
							has_country_modifier = racial_pop_human_expulsion
						}
					}
				}
				is_city = yes
			}
			add_province_modifier = {
				name = cardesti_minority_modifier
				duration = -1
			}
			owner = {
				if = {
					limit = {
						NOT = { has_country_flag = cardesti_no_notice }
					}
					country_event = { id = cardesti_events.6 }
				}
			}
			clear_global_event_target = cardesti_core_province
			save_global_event_target_as = cardesti_core_province
		}
		europe = {
			limit = { NOT = { province_id = event_target:cardesti_core_province } }
			remove_province_modifier = cardesti_minority_modifier
			cardesti_remove_event_modifiers_scripted_effect = yes
		}
		country_event = { id = cardesti_events.1 }
	}
}

province_event = { #individual province migration
	id = cardesti_events.4
	title = cardesti_events.4.t
	desc = cardesti_events.4.d
	picture = EUROPEAN_REFUGEES_eventPicture

	is_triggered_only = yes

	hidden = yes

	option = {
		name = cardesti_events.4.a
		random_province = {
			limit = {
				continent = europe
				if = {
					limit = {
						NOT = { is_year = 1494 }
					}
					NOT = { superregion = escann_superregion }
				}
				NOT = {
					has_province_modifier = cardesti_minority_modifier
					superregion = deepwoods_superregion
					superregion = deepwoods_portal_superregion
					owner = {
						OR = {
							has_country_modifier = monstrous_nation
									has_country_modifier = racial_pop_human_purge
							has_country_modifier = racial_pop_human_expulsion
						}
					}
				}
				is_city = yes
			}
			add_province_modifier = {
				name = cardesti_minority_modifier
				duration = -1
			}
			owner = {
				if = {
					limit = {
						NOT = { has_country_flag = cardesti_no_notice }
					}
					country_event = { id = cardesti_events.6 }
				}
			}
		}
	}
}

country_event = { #startup event
	id = cardesti_events.5
	title = cardesti_events.5.t
	desc = cardesti_events.5.d
	picture = EUROPEAN_REFUGEES_eventPicture

	is_triggered_only = yes

	trigger = {
		ai = no
	}

	option = {
		name = cardesti_events.5.a
	}
}

country_event = { #migration into lands event
	id = cardesti_events.6
	title = cardesti_events.6.t
	desc = cardesti_events.6.d
	picture = EUROPEAN_REFUGEES_eventPicture

	is_triggered_only = yes

	trigger = {
		ai = no
	}

	option = {
		name = cardesti_events.6.a
	}

	option = {
		name = cardesti_events.6.b
		set_country_flag = cardesti_no_notice
	}
}

country_event = { #startup
	id = cardesti_events.21
	title = cardesti_events.21.t
	desc = cardesti_events.21.d
	picture = EUROPEAN_REFUGEES_eventPicture

	hidden = yes
	
	fire_only_once = yes

	is_triggered_only = yes

	trigger = {}

	option = {
		name = cardesti_events.21.a
		random_province = {
			limit = {
				superregion = western_cannor_superregion
				NOT = {
					has_province_modifier = cardesti_minority_modifier
					owner = {
						monstrous_culture = yes
					}
				}
				is_city = yes
			}
			add_province_modifier = {
				name = cardesti_minority_modifier
				duration = -1
			}
			save_global_event_target_as = cardesti_core_province
			owner = {
				country_event = {
					id = cardesti_events.5
				}
			}
		}
		random_province = {
			limit = {
				superregion = western_cannor_superregion
				NOT = {
					has_province_modifier = cardesti_minority_modifier
					owner = {
						monstrous_culture = yes
					}
				}
				is_city = yes
			}
			add_province_modifier = {
				name = cardesti_minority_modifier
				duration = -1
			}
			owner = {
				country_event = {
					id = cardesti_events.5
				}
			}
		}
		random_province = {
			limit = {
				superregion = western_cannor_superregion
				NOT = {
					has_province_modifier = cardesti_minority_modifier
					owner = {
						monstrous_culture = yes
					}
				}
				is_city = yes
			}
			add_province_modifier = {
				name = cardesti_minority_modifier
				duration = -1
			}
			owner = {
				country_event = {
					id = cardesti_events.5
				}
			}
		}
		random_province = {
			limit = {
				superregion = western_cannor_superregion
				NOT = {
					has_province_modifier = cardesti_minority_modifier
					owner = {
						monstrous_culture = yes
					}
				}
				is_city = yes
			}
			add_province_modifier = {
				name = cardesti_minority_modifier
				duration = -1
			}
			owner = {
				country_event = {
					id = cardesti_events.5
				}
			}
		}
		random_province = {
			limit = {
				superregion = western_cannor_superregion
				NOT = {
					has_province_modifier = cardesti_minority_modifier
					owner = {
						monstrous_culture = yes
					}
				}
				is_city = yes
			}
			add_province_modifier = {
				name = cardesti_minority_modifier
				duration = -1
			}
			owner = {
				country_event = {
					id = cardesti_events.5
				}
			}
		}
		random_province = {
			limit = {
				superregion = western_cannor_superregion
				NOT = {
					has_province_modifier = cardesti_minority_modifier
					owner = {
						monstrous_culture = yes
					}
				}
				is_city = yes
			}
			add_province_modifier = {
				name = cardesti_minority_modifier
				duration = -1
			}
			owner = {
				country_event = {
					id = cardesti_events.5
				}
			}
		}
		random_province = {
			limit = {
				superregion = western_cannor_superregion
				NOT = {
					has_province_modifier = cardesti_minority_modifier
					owner = {
						monstrous_culture = yes
					}
				}
				is_city = yes
			}
			add_province_modifier = {
				name = cardesti_minority_modifier
				duration = -1
			}
			owner = {
				country_event = {
					id = cardesti_events.5
				}
			}
		}
		random_province = {
			limit = {
				superregion = western_cannor_superregion
				NOT = {
					has_province_modifier = cardesti_minority_modifier
					owner = {
						monstrous_culture = yes
					}
				}
				is_city = yes
			}
			add_province_modifier = {
				name = cardesti_minority_modifier
				duration = -1
			}
			owner = {
				country_event = {
					id = cardesti_events.5
				}
			}
		}
	}
}

####FLAVOUR EVENTS####

province_event = { #cardesti diviner
	id = cardesti_events.7
	title = cardesti_events.7.t
	desc = cardesti_events.7.d
	picture = ELVEN_CONSTELLATION_eventPicture

	is_triggered_only = yes

	trigger = {}

	option = {
		name = cardesti_events.7.a
		ai_chance = {
			factor = 80
			modifier = {
				factor = 1000
				culture_group = dostanorian_g
			}
		}
	}
	option = {
		name = cardesti_events.7.b
		ai_chance = {
			factor = 20
			modifier = {
				factor = 80
				owner = {
					OR = { 
						culture = moon_elf
						culture_group = gerudian
						tag = A90
						tag = A85
					}
				}
			}
		}
		owner = {
			add_country_modifier = {
				name = cardesti_divination_apc
				duration = 365
			}
			if = {
				limit = {
					monthly_income = 33
				}
				add_treasury = -200
			}
			else = {
				add_years_of_income = -0.5
			}
		}
	}
	option = {
		name = cardesti_events.7.c
		ai_chance = {
			factor = 1000
		}
		trigger = {
			owner = { ruler_has_personality = mage_personality }
		}
		owner = {
			add_country_modifier = {
				name = cardesti_divination_apc
				duration = 1095
			}
			if = {
				limit = {
					monthly_income = 33
				}
				add_treasury = -200
			}
			else = {
				add_years_of_income = -0.5
			}
		}
	}
	option = {
		name = cardesti_events.7.1
		ai_chance = {
			factor = 10000
			modifier = {
				factor = 0
				owner = { ruler_has_personality = mage_personality }
			}
		}
		trigger = {
			owner = {
				OR = {
					ruler_has_personality = embezzler_personality
					ruler_has_personality = greedy_personality
				}
			}
		}
		owner = {
			add_years_of_income = 1
			add_country_modifier = {
				name = cardesti_trade_eff_loss
				duration = 1825
			}
		}
	}
	option = {
		name = cardesti_events.7.e
		ai_chance = {
			factor = 1000
			modifier = {
				factor = 0
				owner = { ruler_has_personality = mage_personality }
			}
		}
		trigger = {
			owner = {
				OR = {
					ruler_has_personality = scholar_personality
					ruler_has_personality = free_thinker_personality
				}
			}
		}
		owner = {
			change_innovativeness = 4
		}
	}
	option = {
		name = cardesti_events.7.f
		ai_chance = {
			factor = 10
			modifier = {
				factor = 1000
				owner = {
					OR = {
						has_ruler_modifier = RC_emulant_minara_1
						has_ruler_modifier = RC_emulant_minara_2
					}
				}
			}
		}
		trigger = {
			OR = {
				owner = { has_consort = no }
				owner = { has_consort_regency = no }
				owner = { has_ruler_modifier = RC_emulant_minara_1 }
				owner = { has_ruler_modifier = RC_emulant_minara_2 }
			}
		}
		owner = {
			if = {
				limit = {
					government = monarchy
				}
				remove_consort = yes
				define_consort = {
					country_of_origin = THIS
					religion = ROOT
					culture = ROOT
				}
			}
			else = {
				random_list = {
					1 = { define_advisor = { type = philosopher skill = 1 cost_multiplier = 0.75 } }
					1 = { define_advisor = { type = natural_scientist skill = 1 cost_multiplier = 0.75 } }
					1 = { define_advisor = { type = artist skill = 1 cost_multiplier = 0.75 } }
					1 = { define_advisor = { type = treasurer skill = 1 cost_multiplier = 0.75 } }
					1 = { define_advisor = { type = theologian skill = 1 cost_multiplier = 0.75 } }
					1 = { define_advisor = { type = master_of_mint skill = 1 cost_multiplier = 0.75 } }
					1 = { define_advisor = { type = inquisitor skill = 1 cost_multiplier = 0.75 } }
					1 = { define_advisor = { type = statesman skill = 1 cost_multiplier = 0.75 } }
					1 = { define_advisor = { type = naval_reformer skill = 1 cost_multiplier = 0.75 } }
					1 = { define_advisor = { type = trader skill = 1 cost_multiplier = 0.75 } }
					1 = { define_advisor = { type = spymaster skill = 1 cost_multiplier = 0.75 } }
					1 = { define_advisor = { type = colonial_governor skill = 1 cost_multiplier = 0.75 } }
					1 = { define_advisor = { type = diplomat skill = 1 cost_multiplier = 0.75 } }
					1 = { define_advisor = { type = navigator skill = 1 cost_multiplier = 0.75 } }
					1 = { define_advisor = { type = army_reformer skill = 1 cost_multiplier = 0.75 } }
					1 = { define_advisor = { type = army_organiser skill = 1 cost_multiplier = 0.75 } }
					1 = { define_advisor = { type = commandant skill = 1 cost_multiplier = 0.75 } }
					1 = { define_advisor = { type = quartermaster skill = 1 cost_multiplier = 0.75 } }
					1 = { define_advisor = { type = recruitmaster skill = 1 cost_multiplier = 0.75 } }
					1 = { define_advisor = { type = fortification_expert skill = 1 cost_multiplier = 0.75 } }
					1 = { define_advisor = { type = grand_captain skill = 1 cost_multiplier = 0.75 } }
					1 = { define_advisor = { type = court_mage skill = 1 cost_multiplier = 0.75 } }
				}
			}
		}
	}
	option = {
		name = cardesti_events.7.g
		ai_chance = {
			factor = 80
			modifier = {
				factor = 0
				owner = { ruler_has_personality = mage_personality }
			}
		}
		trigger = {
			OR = {
				owner = { ruler_has_personality = craven_personality }
				owner = { ruler_has_personality = secretive_personality }
			}
		}
		owner = {
			add_country_modifier = {
				name = cardesti_spy_modifier
				duration = 1825
			}
		}
	}
}

province_event = { #cardesti smiths
	id = cardesti_events.8
	title = cardesti_events.8.t
	desc = cardesti_events.8.d
	picture = FORGE_eventPicture

	is_triggered_only = yes

	trigger = {}

	option = {
		name = cardesti_events.8.a
		ai_chance = {
            factor = 80
            modifier = {
                factor = 1000
                culture_group = dostanorian_g
            }
        }
		add_province_modifier = {
			name = cardesti_squash_local_smiths
			duration = -1
		}
	}
	option = {
		name = cardesti_events.8.b
		ai_chance = {
            factor = 20
            modifier = {
                factor = 80
				owner = {
					OR = { 
						culture = moon_elf
						culture_group = gerudian
						tag = A90
						tag = A85
					}
				}
            }
        }
		add_province_modifier = {
			name = cardesti_merchants_cope
			duration = -1
		}
		owner = {
			add_estate_loyalty = {
				estate = estate_burghers
				loyalty = -10
			}
		}
	}
	option = {
		name = cardesti_events.8.c
		ai_chance = {
            factor = 20
            modifier = {
                factor = 1000
				owner = {
					OR = { 
						culture = moon_elf
						culture_group = gerudian
						tag = A90
						tag = A85
					}
				}
            }
        }
		trigger = {
			OR = {
				owner = { ruler_has_personality = midas_touched_personality }
				owner = { ruler_has_personality = industrious_personality }
			}
		}
		add_province_modifier = {
			name = cardesti_merchants_cope_harder
			duration = -1
		}
		owner = {
			add_estate_loyalty = {
				estate = estate_burghers
				loyalty = -10
			}
		}
	}
	option = {
		name = cardesti_events.8.1
		ai_chance = {
			factor = 1000
		}
		trigger = {
			OR = {
				owner = { ruler_has_personality = silver_tongue_personality }
				owner = { ruler_has_personality = charismatic_negotiator_personality }
				owner = { has_ruler_flag = enchantment_2 }
			}
		}
		add_province_modifier = {
			name = cardesti_merchants_cooperation
			duration = -1
		}
	}
	option = {
		name = cardesti_events.8.e
		ai_chance = {
			factor = 5
		}
		trigger = {
			OR = {
				owner = { ruler_has_personality = embezzler_personality }
				owner = { ruler_has_personality = entrepreneur_personality }
			}
		}
		add_province_modifier = {
			name = bought_out_merchants_lmao
			duration = -1
		}
		owner = {
			add_estate_loyalty = {
				estate = estate_burghers
				loyalty = -5
			}
			if = {
				limit = {
					monthly_income = 33
				}
				add_treasury = -200
			}
			else = {
				add_years_of_income = -0.5
			}
		}
	}
}

province_event = { #cardesti seek protection
	id = cardesti_events.9
	title = cardesti_events.9.t
	desc = cardesti_events.9.d
	picture = ANGRY_MOB_eventPicture

	is_triggered_only = yes

	trigger = {}

	option = {
		name = cardesti_events.9.a
		ai_chance = {
            factor = 20
            modifier = {
                factor = 80
				owner = {
					OR = { 
						culture = moon_elf
						culture_group = gerudian
						tag = A90
						tag = A85
					}
				}
            }
        }
		owner = {
			add_manpower = -1
			add_treasury = -25
		}
	}
	option = {
		name = cardesti_events.9.b
		ai_chance = {
            factor = 80
            modifier = {
                factor = 1000
                culture_group = dostanorian_g
            }
        }
		custom_tooltip = cardesti_migrate_your_lands_tt
		hidden_effect = {
			owner = {
				set_country_flag = cardesti_migrating_out
				every_owned_province = {
					limit = { has_province_modifier = cardesti_minority_modifier }
					owner = { country_event = { id = cardesti_events.2 } }
					remove_province_modifier = cardesti_minority_modifier
					cardesti_remove_event_modifiers_scripted_effect = yes
				}
				clr_country_flag = cardesti_migrating_out
			}
		}
	}
	option = {
		name = cardesti_events.9.c
		ai_chance = {
			factor = 100
		}
		trigger = {
			OR = {
				owner = { ruler_has_personality = kind_hearted_personality }
				owner = { ruler_has_personality = benevolent_personality }
			}
		}
	}
	option = {
		name = cardesti_events.9.1
		ai_chance = {
			factor = 100
		}
		trigger = {
			OR = {
				owner = { ruler_has_personality = just_personality }
				owner = { ruler_has_personality = lawgiver_personality }
			}
		}
		owner = {
			add_stability = -1
			add_country_modifier = {
				name = cardesti_removed_troublemakers
				duration = 3650
			}
		}
	}
}

province_event = { #local superstition
	id = cardesti_events.10
	title = cardesti_events.10.t
	desc = cardesti_events.10.d
	picture = ANGRY_MOB_eventPicture

	is_triggered_only = yes

	trigger = {}

	option = {
		name = cardesti_events.10.a
		ai_chance = {
            factor = 20
            modifier = {
                factor = 80
				owner = {
					OR = { 
						culture = moon_elf
						culture_group = gerudian
						tag = A90
						tag = A85
					}
				}
            }
        }
		add_province_modifier = {
			name = local_population_superstition
			duration = -2
		}
	}
	option = {
		name = cardesti_events.10.b
		ai_chance = {
            factor = 80
            modifier = {
                factor = 1000
                culture_group = dostanorian_g
            }
        }
		custom_tooltip = cardesti_migrate_your_lands_tt
		hidden_effect = {
			owner = {
				set_country_flag = cardesti_migrating_out
				every_owned_province = {
					limit = { has_province_modifier = cardesti_minority_modifier }
					owner = { country_event = { id = cardesti_events.2 } }
					remove_province_modifier = cardesti_minority_modifier
					cardesti_remove_event_modifiers_scripted_effect = yes
				}
				clr_country_flag = cardesti_migrating_out
			}
		}
		add_province_modifier = {
			name = cardesti_expelled
			duration = 3650
		}
	}
	option = {
		name = cardesti_events.10.c
		ai_chance = {
            factor = 5
            modifier = {
                factor = 80
				owner = {
					OR = { 
						culture = moon_elf
						culture_group = gerudian
						tag = A90
						tag = A85
					}
				}
            }
        }
		trigger = {
			OR = {
				owner = { ruler_has_personality = silver_tongue_personality }
				owner = { ruler_has_personality = charismatic_negotiator_personality }
			}
		}
		add_province_modifier = {
			name = negotiated_superstition
			duration = 3650
		}
	}
}

province_event = { #cardesti bards
	id = cardesti_events.11
	title = cardesti_events.11.t
	desc = cardesti_events.11.d
	picture = PAINTER_ARTIST_eventPicture

	is_triggered_only = yes

	trigger = {}

	option = {
		name = cardesti_events.11.a
		ai_chance = {
            factor = 20
            modifier = {
                factor = 80
				owner = {
					OR = { 
						culture = moon_elf
						culture_group = gerudian
						tag = A90
						tag = A85
					}
				}
            }
        }
		owner = {
			add_stability_or_adm_power = yes
			add_years_of_income = -0.5
		}
	}
	option = {
		name = cardesti_events.11.b
		ai_chance = {
            factor = 80
            modifier = {
                factor = 1000
                culture_group = dostanorian_g
            }
        }
		trigger = {
			owner = {
				NOT = {
					ruler_has_personality = immortal_personality
				}
			}
		}
	}
	option = {
		name = cardesti_events.11.c
		ai_chance = {
			factor = 1000
		}
		trigger = {
			owner = {
				OR = {
					ruler_has_personality = patron_of_arts_personality
					tag = A90
				}
			}
		}
		owner = {
			add_stability_or_adm_power = yes
			add_stability_or_adm_power = yes
			add_years_of_income = -1
		}
	}
	option = {
		name = cardesti_events.11.1
		ai_chance = {
            factor = 20
            modifier = {
                factor = 80
				owner = {
					OR = { 
						culture = moon_elf
						culture_group = gerudian
						tag = A90
						tag = A85
					}
				}
            }
        }
		trigger = {
			owner = { ruler_has_personality = greedy_personality }
			owner = { ruler_has_personality = industrious_personality }
		}
		owner = {
			add_years_of_income = 0.25
		}
	}
	option = {
		name = cardesti_events.11.e
		ai_chance = {
            factor = 20
            modifier = {
                factor = 80
				owner = {
					OR = { 
						culture = moon_elf
						culture_group = gerudian
						tag = A90
						tag = A85
					}
				}
            }
        }
		trigger = {
			OR = {
				owner = { ruler_has_personality = charismatic_negotiator_personality }
				owner = { ruler_has_personality = silver_tongue_personality }
			}
		}
		owner = {
			add_prestige = 25
			add_years_of_income = -0.75
		}
	}
	option = {
		name = cardesti_events.11.f
		ai_chance = {
			factor = 1000
		}
		trigger = {
			owner = { ruler_has_personality = immortal_personality }
		}
	}
}

province_event = { #cardesti warn about fire
	id = cardesti_events.12
	title = cardesti_events.12.t
	desc = cardesti_events.12.d
	picture = ADVISOR_eventPicture

	is_triggered_only = yes

	trigger = {}

	option = {
		name = cardesti_events.12.a
		ai_chance = {
            factor = 20
            modifier = {
                factor = 80
				owner = {
					OR = { 
						culture = moon_elf
						culture_group = gerudian
						tag = A90
						tag = A85
					}
				}
            }
        }
		trigger = {
			owner = {
				num_of_provinces_in_states = 2
			}
		}
		custom_tooltip = cardesti_fire_dev_migration_tt
		save_event_target_as = cardesti_fire_province
		hidden_effect = {
			random_list = {
				33 = {
					trigger = {
						base_tax = 2
					}
					add_base_tax = -1
				}
				33 = {
					trigger = {
						base_production = 2
					}
					add_base_production = -1
				}
				33 = {
					trigger = {
						base_manpower = 2
					}
					add_base_manpower = -1
				}
			}
			random_list = {
				33 = {
					trigger = {
						base_tax = 2
					}
					add_base_tax = -1
				}
				33 = {
					trigger = {
						base_production = 2
					}
					add_base_production = -1
				}
				33 = {
					trigger = {
						base_manpower = 2
					}
					add_base_manpower = -1
				}
			}
			owner = {
				random_owned_province = {
					limit = {
						NOT = {
							province_id = event_target:cardesti_fire_province
						}
					}
					random_list = {
						33 = {
							add_base_tax = 1
						}
						33 = {
							add_base_production = 1
						}
						33 = {
							add_base_manpower = 1
						}
					}
					random_list = {
						33 = {
							add_base_tax = 1
						}
						33 = {
							add_base_production = 1
						}
						33 = {
							add_base_manpower = 1
						}
					}
				}
			}
		}
	}
	option = {
		name = cardesti_events.12.b
		ai_chance = {
            factor = 20
            modifier = {
                factor = 80
				owner = {
					OR = { 
						culture = moon_elf
						culture_group = gerudian
						tag = A90
					}
				}
            }
        }
		owner = { add_years_of_income = -0.25 }
	}
	option = {
		name = cardesti_events.12.c
		ai_chance = {
            factor = 20
        }
		owner = {
			add_prestige = -15
		}
		hidden_effect = {
			random_list = {
				50 = {
					province_event = { id = cardesti_events.13 days = 365 }
				}
				50 = {
				}
			}
		}
	}
	option = {
		name = cardesti_events.12.1
		ai_chance = {
            factor = 80
            modifier = {
                factor = 1000
                culture_group = dostanorian_g
            }
        }
		hidden_effect = {
			province_event = { id = cardesti_events.13 days = 365 }
		}
	}
	option = {
		name = cardesti_events.12.e
		ai_chance = {
			factor = 20
			modifier = {
				factor = 1000
				owner = { tag = A85 }
			}
		}
		trigger = {
			owner = { ruler_has_personality = mage_personality }
		}
		owner = {
			add_estate_influence_modifier = {
				estate = estate_mages
				influence = 10
				desc = "Magically warded against fires."
				duration = 3650
			}
		}
	}
	option = {
		name = cardesti_events.12.f
		ai_chance = {
			factor = 20
			modifier = {
				factor = 1000
				owner = {
					OR = {
						culture_group = gnomish
						culture_group = kobold
						culture_group = goblin
						culture = reverian
					}
				}
			}
		}
		trigger = {
			owner = { has_estate = estate_artificers }
		}
		owner = {
			add_estate_influence_modifier = {
				estate = estate_artificers
				influence = 10
				desc = "Artificers warded against fires."
				duration = 3650
			}
		}
	}
}

province_event = { #fire happened lmao
	id = cardesti_events.13
	title = cardesti_events.13.t
	desc = cardesti_events.13.d
	picture = VILLAGE_BURNING_eventPicture

	is_triggered_only = yes

	trigger = {}

	option = {
		name = cardesti_events.13.a
		custom_tooltip = cardesti_lose_dev_fire_tt
		hidden_effect = {
			random_list = {
				33 = {
					trigger = {
						base_tax = 2
					}
					add_base_tax = -1
				}
				33 = {
					trigger = {
						base_production = 2
					}
					add_base_production = -1
				}
				33 = {
					trigger = {
						base_manpower = 2
					}
					add_base_manpower = -1
				}
			}
			random_list = {
				33 = {
					trigger = {
						base_tax = 2
					}
					add_base_tax = -1
				}
				33 = {
					trigger = {
						base_production = 2
					}
					add_base_production = -1
				}
				33 = {
					trigger = {
						base_manpower = 2
					}
					add_base_manpower = -1
				}
			}
			add_devastation = 10
		}
	}
}

province_event = { #cardesti_prisoner
	id = cardesti_events.14
	title = cardesti_events.14.t
	desc = cardesti_events.14.d
	picture = FAILED_REVOLUTION_eventPicture

	is_triggered_only = yes

	trigger = {}

	option = {
		name = cardesti_events.14.a
		ai_chance = {
            factor = 80
            modifier = {
                factor = 1000
                culture_group = dostanorian_g
            }
        }
		custom_tooltip = cardesti_prisoner_5050_tt
		hidden_effect = {
			random_list = {
				50 = {
					province_event = { id = cardesti_events.15 days = 14 }
				}
				50 = {
					province_event = { id = cardesti_events.16 days = 14 }
				}
			}
		}
	}
	option = {
		name = cardesti_events.14.b
		ai_chance = {
            factor = 20
            modifier = {
                factor = 80
				owner = {
					OR = { 
						culture = moon_elf
						culture_group = gerudian
						tag = A90
						tag = A85
					}
				}
            }
        }
		add_province_modifier = {
			name = cardesti_prisoner_given_leniency
			duration = -1
		}
	}
	option = {
		name = cardesti_events.14.c
		ai_chance = {
            factor = 80
        }
		trigger = {
			owner = { num_of_provinces_in_states = 2 }
		}
		owner = {
			if = {
				limit = {
					monthly_income = 33
				}
				add_treasury = -200
			}
			else = {
				add_years_of_income = -0.5
			}
		}
	}
	option = {
		name = cardesti_events.14.1
		ai_chance = {
            factor = 80
        }
		trigger = {
			OR = {
				owner = { ruler_has_personality = greedy_personality }
				owner = { ruler_has_personality = embezzler_personality }
			}
		}
		owner = {
			if = {
				limit = {
					NOT = { monthly_income = 8 }
				}
				add_treasury = 25
			}
			else = {
				add_years_of_income = 0.25
			}
			add_corruption = 0.5
		}
		custom_tooltip = cardesti_migrate_your_lands_tt
		hidden_effect = {
			owner = {
				set_country_flag = cardesti_migrating_out
				every_owned_province = {
					limit = { has_province_modifier = cardesti_minority_modifier }
					owner = { country_event = { id = cardesti_events.2 } }
					remove_province_modifier = cardesti_minority_modifier
					cardesti_remove_event_modifiers_scripted_effect = yes
				}
				clr_country_flag = cardesti_migrating_out
			}
		}
	}
}

province_event = { #cardesti jailbreak
	id = cardesti_events.15
	title = cardesti_events.15.t
	desc = cardesti_events.15.d
	picture = ANGRY_MOB_eventPicture

	is_triggered_only = yes

	trigger = {}

	option = {
		name = cardesti_events.15.a
		add_devastation = 5
		custom_tooltip = cardesti_migrate_your_lands_tt
		hidden_effect = {
			owner = {
				set_country_flag = cardesti_migrating_out
				every_owned_province = {
					limit = { has_province_modifier = cardesti_minority_modifier }
					owner = { country_event = { id = cardesti_events.2 } }
					remove_province_modifier = cardesti_minority_modifier
					cardesti_remove_event_modifiers_scripted_effect = yes
				}
				clr_country_flag = cardesti_migrating_out
			}
		}
	}
}

province_event = { #cardesti dies in prison
	id = cardesti_events.16
	title = cardesti_events.16.t
	desc = cardesti_events.16.d
	picture = LOOMING_DEATH_eventPicture

	is_triggered_only = yes

	trigger = {}

	option = {
		name = cardesti_events.16.a
		owner = { add_manpower = -0.002 }
	}
}

province_event = { #cardesti recruits
	id = cardesti_events.17
	title = cardesti_events.17.t
	desc = cardesti_events.17.d
	picture = LAND_MILITARY_eventPicture

	is_triggered_only = yes

	trigger = {}

	option = {
		name = cardesti_events.17.a
		ai_chance = {
            factor = 20
            modifier = {
                factor = 80
				owner = {
					OR = { 
						culture = moon_elf
						culture_group = gerudian
						tag = A90
						tag = A85
					}
				}
            }
        }
		owner = {
			add_country_modifier = {
				name = made_cardesti_military_accomodations
				duration = 1825
			}
			if = {
				limit = {
					monthly_income = 16
				}
				add_treasury = -100
			}
			else = {
				add_years_of_income = -0.5
			}
			add_manpower = 0.005
		}
	}
	option = {
		name = cardesti_events.17.b
		ai_chance = {
            factor = 80
            modifier = {
                factor = 1000
                culture_group = dostanorian_g
            }
        }
		owner = {
			add_prestige = 5
		}
	}
	option = {
		name = cardesti_events.17.c
		ai_chance = {
            factor = 20
            modifier = {
                factor = 1000
				owner = {
					OR = { 
						culture = moon_elf
						culture_group = gerudian
						tag = A90
						tag = A85
					}
				}
            }
        }
		trigger = {
			OR = {
				owner = { ruler_has_personality = tactical_genius_personality }
				owner = { ruler_has_personality = bold_fighter_personality }
			}
		}
		owner = {
			add_country_modifier = {
				name = made_cardesti_military_enhancements
				duration = 1825
			}
			if = {
				limit = {
					monthly_income = 16
				}
				add_treasury = -100
			}
			else = {
				add_years_of_income = -0.5
			}
			add_manpower = 0.005
		}
	}
}

province_event = { #cardesti love
	id = cardesti_events.18
	title = cardesti_events.18.t
	desc = cardesti_events.18.d
	picture = NOBLE_ESTATE_eventPicture
	
	is_triggered_only = yes

	trigger = {}

	option = {
		name = cardesti_events.18.a
		ai_chance = {
            factor = 80
            modifier = {
                factor = 1000
                culture_group = dostanorian_g
            }
        }
		owner = {
			add_estate_loyalty = {
				estate = estate_nobles
				loyalty = 10
			}
		}
		custom_tooltip = cardesti_romance_1_tt
		custom_tooltip = cardesti_migrate_your_lands_tt
		hidden_effect = {
			owner = {
				set_country_flag = cardesti_migrating_out
				every_owned_province = {
					limit = { has_province_modifier = cardesti_minority_modifier }
					owner = { country_event = { id = cardesti_events.2 } }
					remove_province_modifier = cardesti_minority_modifier
					cardesti_remove_event_modifiers_scripted_effect = yes
				}
				clr_country_flag = cardesti_migrating_out
			}
		}
		spawn_rebels = {
			type = noble_rebels
			size = 1
		}
	}
	option = {
		name = cardesti_events.18.b
		ai_chance = {
            factor = 20
            modifier = {
                factor = 80
                owner = { culture = moon_elf }
            }
        }
		custom_tooltip = cardesti_romance_2_tt
		owner = {
			add_estate_loyalty = {
				estate = estate_nobles
				loyalty = -5
			}
		}
	}
	option = {
		name = cardesti_events.18.c
		ai_chance = {
            factor = 20
            modifier = {
                factor = 80
				owner = {
					OR = {
						culture_group = gerudian
						tag = A85
					}
				}
            }
        }
		custom_tooltip = cardesti_romance_3_tt
		owner = {
			add_estate_loyalty = {
				estate = estate_nobles
				loyalty = -10
			}
		}
	}
	option = {
		name = cardesti_events.18.1
		ai_chance = {
            factor = 20
            modifier = {
                factor = 1000
                owner = { tag = A90 }
            }
        }
		custom_tooltip = cardesti_romance_4_tt
		owner = {
			add_estate_loyalty = {
				estate = estate_nobles
				loyalty = -15
			}
		}
		spawn_rebels = {
			type = noble_rebels
			size = 2
		}
		hidden_effect = {
			owner = { country_event = { id = cardesti_events.19 days = 365 } }
		}
	}
}

country_event = { #noble abroad
	id = cardesti_events.19
	title = cardesti_events.19.t
	desc = cardesti_events.19.d
	picture = CULTURE_eventPicture

	is_triggered_only = yes

	trigger = {}

	option = {
		name = cardesti_events.19.a
		add_country_modifier = {
			name = cardesti_noble_spreads_reputation
			duration = 3650
		}
	}
}

province_event = { #cardesti knowledge
	id = cardesti_events.20
	title = cardesti_events.20.t
	desc = cardesti_events.20.d
	picture = BIG_BOOK_eventPicture

	is_triggered_only = yes

	trigger = {}

	option = {
		name = cardesti_events.20.a
		ai_chance = {
            factor = 20
            modifier = {
                factor = 80
				owner = {
					OR = { 
						culture = moon_elf
						culture_group = gerudian
						tag = A90
					}
				}
            }
        }
		add_next_institution_embracement = 20
		owner = {
			if = {
				limit = {
					monthly_income = 16
				}
				add_treasury = -100
			}
			else = {
				add_years_of_income = -0.5
			}
		}
	}
	option = {
		name = cardesti_events.20.b
		ai_chance = {
            factor = 80
            modifier = {
                factor = 1000
                culture_group = dostanorian_g
            }
        }
		add_next_institution_embracement = -10
		custom_tooltip = cardesti_migrate_your_lands_tt
		hidden_effect = {
			owner = {
				set_country_flag = cardesti_migrating_out
				every_owned_province = {
					limit = { has_province_modifier = cardesti_minority_modifier }
					owner = { country_event = { id = cardesti_events.2 } }
					remove_province_modifier = cardesti_minority_modifier
					cardesti_remove_event_modifiers_scripted_effect = yes
				}
				clr_country_flag = cardesti_migrating_out
			}
		}
	}
	option = {
		name = cardesti_events.20.c
		ai_chance = {
            factor = 20
            modifier = {
                factor = 1000
                owner = { tag = A85 }
            }
        }
		trigger = {
			owner = {
				OR = {
					ruler_has_personality = scholar_personality
					ruler_has_personality = free_thinker_personality
					ruler_has_personality = patron_of_arts_personality
				}
			}
		}
		add_next_institution_embracement = 50
		owner = {
			add_country_modifier = {
				name = cardesti_divination_apc
				duration = 365
			}
			if = {
				limit = {
					monthly_income = 33
				}
				add_treasury = -200
			}
			else = {
				add_years_of_income = -0.5
			}
			add_adm_power = -25
			add_dip_power = -25
			add_mil_power = -25
		}
	}
	option = {
		name = cardesti_events.20.1
		ai_chance = {
			factor = 1000
		}
		trigger = {
			owner = { ruler_has_personality = immortal_personality }
		}
		add_next_institution_embracement = -10
	}
	option = {
		name = cardesti_events.20.e
		ai_chance = {
			factor = 5
		}
		add_next_institution_embracement = 5
	}
}