namespace = lizard


    #Ravaged by Blood
    country_event = {
        id = lizard.1
        title = lizard.1.t
        desc = lizard.1.d
        picture = IMPALED_SOLDIERS_eventPicture
        is_triggered_only = yes

        trigger ={
            any_owned_province = {
                culture = ashhama_lizardfolk
                NOT = { has_province_modifier = curse_appeased}
            }

        }
        immediate = {
            hidden_effect = {
                random_owned_province ={
                    limit = {
                        NOT = { has_province_modifier = curse_appeased }
                    }
                    save_event_target_as = raging_crocs_province
                }
            }
        }
    #Kill them
    option = {
        name = lizard.1.a
        ai_chance = { factor = 33}
        add_yearly_manpower = -0.2
        }
    #Let the locals handle it
    option = {
            goto = soothing_sound_province
            name = lizard.1.b
            ai_chance = { factor = 33 }
            event_target:raging_crocs_province = {
                add_devastation = 10
    }
    }
    #Sooth them
    option = {
        goto = soothing_sound_province
        name = lizard.1.c
        ai_chance = { factor = 33 }
        event_target:raging_crocs_province = {
    add_province_modifier = { 
        name = curse_appeased
        duration = 3650
    }
    }
    add_adm_power = -25
}
    }
    #Talented Musician
    country_event = {
        id = lizard.2
        title = lizard.2.t
        desc = lizard.2.d
        picture = FARMING_eventPicture
        is_triggered_only = yes
        
        trigger ={
            any_owned_province = {
                culture = ashhama_lizardfolk
                NOT = { has_province_modifier = pleasing_music }
            }

        }
        immediate = {
            random_owned_province ={
                limit = {
                    NOT = { has_province_modifier = pleasing_music }
                }
                save_event_target_as = soothing_sound_province
            }
        }
        #Make him an advisor
        option = {
                name = lizard.2.a
                ai_chance = { factor = 50 }
                define_advisor = {
                    type = artist
                    discount = yes
                    skill = 1
                }
            }
        #Let him stay
        option = {
                name = lizard.2.b
                ai_chance = { factor = 50 }
        event_target:soothing_sound_province = {
    add_province_modifier = {
        name = pleasing_music
        duration = 7305
    }
            }
            goto = soothing_sound_province
        }
    }
    # Halfling Drongay festival
    country_event = {
        id = lizard.3
        title = lizard.3.t
        desc = lizard.3.d
        picture = RELIGION_eventPicture

        is_triggered_only = yes # four year pulse 3

        trigger = {
            culture_group = lizardfolk
            any_owned_province = {
                has_halfling_minority_trigger = yes
                }
        }

        mean_time_to_happen = {
            days = 1
        }

        option = {
            name = lizard.3.a # very good
            random_owned_province = {
                limit = {
                    has_halfling_minority_trigger = yes
                }
                add_province_modifier = {
                    name = halfling_drongay_festival
                    duration = 1825
                }
            }
        }

        option = {
            name = lizard.3.b # we can go further
                add_years_of_income = -1
                add_country_modifier = {
                    name = funded_halfling_drongay_festival
                    duration = 1825
                }
        }
    }

    # Bakoly Boldsong
    country_event = {
        id = lizard.4
        title = lizard.4.t
        desc = lizard.4.d
        picture = FARMING_eventPicture

        fire_only_once = yes

        mean_time_to_happen = {
            days = 50
        }

        trigger = {
            is_year = 1490
            culture_group = lizardfolk
            any_owned_province = {
                has_halfling_minority_trigger = yes
            }
        }
        
        immediate = {
            random_owned_province = {
                limit = {
                    trade_goods = wine
                    trade_goods = grain
                    trade_goods = cloves
                }
                save_event_target_as = farms_visited
            }
        }
        
        # Let the Bard continue
        option = {
            name = lizard.4.a
            add_country_modifier = {
                name = bard_roaming_country
                duration = 1825
            }
        }
        # hire as advisor
        option = {
            name = lizard.4.b
            define_advisor = {
                type = artist
                skill = 2
                culture = mboala
                religion = nakavy_avo
                discount = yes
                name = "Bakoly Boldsong"
                female = yes
            }
        }
        # pay her to increase crop production
        option = {
            name = lizard.4.c
            add_years_of_income = -1
            event_target:farms_visited = {
                add_province_modifier = {
                    name = mihipha_songs
                    duration = 1825
                }
            }
        }
    }

    # insider clove trading
    country_event = {
        id = lizard.5
        title = lizard.5.t
        desc = lizard.5.d
        picture = MERCHANTS_TALKING_eventPicture

        is_triggered_only = yes # four year pulse 3

        trigger = {
            culture_group = lizardfolk
            any_owned_province = {
                has_halfling_minority_trigger = yes
            }
        }
        # reap rewards of trade through efficiency
        option = {
            name = lizard.5.a
            add_country_modifier = {
                name = halfling_clove_traders
                duration = 3650
            }
        }
        # tax them
        option = {
            name = lizard.5.b
            add_years_of_income = 2
        }
        # hire as advisors
        option = {
            name = lizard.5.c
            add_years_of_income = -2
            define_advisor = {
                type = trader
                skill = 2
                culture = mboala
                religion = nakavy_avo
                discount = yes
            }
        }
    }

    # Vyzemby marathon candidate
    country_event = {
        id = lizard.6
        title = lizard.6.t
        desc = lizard.6.d
        picture = SHIP_SAILING_eventPicture

        trigger = {
            culture_group = lizardfolk
            any_owned_province = {
                has_halfling_minority_trigger = yes
            }
            any_country = {
                has_country_modifier = international_fahvanosy_marathon
            }
        }

        mean_time_to_happen = {
            days = 5
        }

        # May he bring pride to our nation!
        option = {
            name = lizard.6.a
            add_prestige = 10
        }
        # nah, we throwing a party in his honour!
        option = {
            name = lizard.6.b
            add_years_of_income = -0.5
            add_prestige = 20
        }
    }

    ##Rayaz Asarta alliance break

country_event = {
    id = lizard.7
    title = lizard.7.t
    desc = lizard.7.d
    picture = MESOAMERICAN_GODS_eventPicture

    fire_only_once = yes
    mean_time_to_happen = {
        days = 1
    }

    trigger = {
        tag = L96
        exists = L95
        owns_core_province = 5898
        historical_friend_with = L95
        NOT = {
            exists = S81
        }
    }

    option = {
		name = lizard.7.a
        remove_historical_friend = L95
        add_rival = L95
        break_alliance = L95
        L95 = { country_event = { id = lizard.8 } }
    }
}


country_event = {
    id = lizard.8
    title = lizard.8.t
    desc = lizard.8.d
    picture = MESOAMERICAN_GODS_eventPicture

    is_triggered_only = yes
    major = yes
    major_trigger = {
        OR = {
            primary_culture = tanizu
            primary_culture = nzeri_harpy
            primary_culture = tijarikheti
            culture_group = vurebindu
            culture_group = irsukuba
            culture_group = vyzemby
            culture_group = lizardfolk
        }
        NOT = {
            tag = L96
           
        }
    }
    
    trigger = {
        tag = L95
    }

    option = {
		name = lizard.8.a
        remove_historical_friend = L96
        add_rival = L96
        break_alliance = L96
    }
}