namespace = exodus_goblin_flavour

#OSC harass elves in Greysheep
country_event = {
	id = exodus_goblin_flavour.1
	title = exodus_goblin_flavour.1.t
	desc = exodus_goblin_flavour.1.d
	picture = COURT_eventPicture

	fire_only_once = yes
	is_triggered_only = yes

	trigger = {
		tag = U13
	}

	option = { #Let them be
		name = "exodus_goblin_flavour.1.a"
		651 = { change_religion = old_bulwari_sun_cult }
		654 = { change_religion = old_bulwari_sun_cult }
	}

	option = { #Make them stop
		name = "exodus_goblin_flavour.1.b"
		small_increase_of_elven_tolerance_effect = yes
		657 = { add_unrest = 5 }
		658 = { add_unrest = 5 }
	}

}

#Proclamation of Aqatbar
country_event = {
	id = exodus_goblin_flavour.2
	title = exodus_goblin_flavour.2.t
	desc = exodus_goblin_flavour.2.d
	picture = COURT_eventPicture

	is_triggered_only = yes

	trigger = {
		always = yes
	}

	option = {
		name = "exodus_goblin_flavour.2.a"
		country_event = { id = exodus_goblin_flavour.7 days = 1 }
	}
}

#Trolling Dartaxes
country_event = {
	id = exodus_goblin_flavour.3
	title = exodus_goblin_flavour.3.t
	desc = exodus_goblin_flavour.3.d
	picture = STREET_SPEECH_eventPicture

	fire_only_once = yes
	is_triggered_only = yes

	trigger = {
		tag = U15
	}

	option = {
		name = "exodus_goblin_flavour.3.a"
		F22 = {
			country_event = { id = exodus_goblin_flavour.4 }
		}
	}
}

#Trolling Dartaxes (Dartax Version)
country_event = {
	id = exodus_goblin_flavour.4
	title = exodus_goblin_flavour.4.t
	desc = exodus_goblin_flavour.4.d
	picture = ROYAL_COUPLE_FUTURE_eventPicture

	fire_only_once = yes
	is_triggered_only = yes

	trigger = {
		tag = F22
	}

	option = {
		name = "exodus_goblin_flavour.4.a"
		reduce_stability_or_adm_power = yes
	}
}

#Dealing with OSC
country_event = {
	id = exodus_goblin_flavour.5
	title = exodus_goblin_flavour.5.t
	desc = exodus_goblin_flavour.5.d
	picture = RELIGIOUS_CONVERSION_eventPicture

	fire_only_once = yes
	is_triggered_only = yes

	trigger = {
		always = yes
	}

	option = {
		name = "exodus_goblin_flavour.5.a"
		every_owned_province = {
			limit = { religion = old_bulwari_sun_cult }
			add_province_modifier = {
				name = marblehead_osc_zone
				duration = 7300
			}
		}
	}
}

#Harpy Marriage
country_event = {
	id = exodus_goblin_flavour.6
	title = exodus_goblin_flavour.6.t
	desc = exodus_goblin_flavour.6.d
	picture = ROYAL_COUPLE_FUTURE_eventPicture

	fire_only_once = yes
	is_triggered_only = yes

	trigger = {
		always = yes
	}

	option = {
		name = "exodus_goblin_flavour.6.a"
		medium_increase_of_harpy_tolerance_effect = yes
		every_owned_province = {
			limit = {
				culture = firanyan_harpy
			}
			add_province_modifier = {
				name = marblehead_harpy_love
				duration = 7300
			}
		}
		define_consort = {
			country_of_origin = F27
			religion = the_hunt
			culture = firanyan_harpy
			dynasty = "Firanyakin"
			female = yes
		}
	}
}

#Proclamation Part 2
country_event = {
	id = exodus_goblin_flavour.7
	title = exodus_goblin_flavour.7.t
	desc = exodus_goblin_flavour.7.d
	picture =  DEBATE_REPUBLICAN_eventPicture

	is_triggered_only = yes

	trigger = {
		always = yes
	}

	option = { #Marblehead's Answer
		name = "exodus_goblin_flavour.7.a"
		trigger = { tag = U15 }
		if = {
			limit = {
				exists = U11
			}
			add_casus_belli = {
				target = U11
				type = cb_vassalize_mission
				months = 720
			}
		}
		else = {
			U11 = {
				every_core_province = {
					limit = {
						NOT = { 
							is_core = U15
						}
					}
					add_claim = U15
				}
			}
		}
		if = {
			limit = {
				exists = U14
			}
			add_casus_belli = {
				target = U14
				type = cb_vassalize_mission
				months = 720
			}
		}
		else = {
			U14 = {
				every_core_province = {
					limit = {
						NOT = { 
							is_core = U15
						}
					}
					add_claim = U15
				}
			}
		}
		if = {
			limit = {
				exists = U13
			}
			add_casus_belli = {
				target = U13
				type = cb_vassalize_mission
				months = 720
			}
		}
		else = {
			U13 = {
				every_core_province = {
					limit = {
						NOT = { 
							is_core = U15
						}
					}
					add_claim = U15
				}
			}
		}
		custom_tooltip = marblehead_proclamation_enactment_tt
	}
	option = { #Others' Answer
		name = "exodus_goblin_flavour.7.b"
		trigger = { NOT = { tag = U15 } }
		ROOT = {
			add_trust = {
				who = U15
				value = -50
				mutual = yes
			}
		}
		add_opinion = {
			who = U15
			modifier = marblehead_tricked
		}
	}
}

#Getting all advisors
country_event = {
	id = exodus_goblin_flavour.8
	title = exodus_goblin_flavour.8.t
	desc = exodus_goblin_flavour.8.d
	picture = CITY_DEVELOPMENT_eventPicture

	fire_only_once = yes

	trigger = {
		OR = {
			tag = U15
			tag = F78
		}
		has_country_modifier = marblehead_elven_advisors
		has_country_modifier = marblehead_human_advisors
		has_country_modifier = marblehead_harpy_advisors
		has_country_modifier = marblehead_dwarven_advisors
	}

	option = {
		name = "exodus_goblin_flavour.8.a"
		add_country_modifier = {
				name = "marblehead_full_advisors"
				duration = -1
		}
		remove_country_modifier = marblehead_elven_advisors
		remove_country_modifier = marblehead_human_advisors
		remove_country_modifier = marblehead_harpy_advisors
		remove_country_modifier = marblehead_dwarven_advisors
	}
}

##Mountainhugger events

#Mountainhugger in Azka-szel-Azka
country_event = {
	id = exodus_goblin_flavour.9
	title = exodus_goblin_flavour.9.t
	desc = exodus_goblin_flavour.9.d
	picture = COURT_eventPicture

	fire_only_once = yes
	
	is_triggered_only = yes
	
	trigger = {
		always = yes
	}

	option = { #Settle for a price
		name = "exodus_goblin_flavour.9.a"
		add_years_of_income = 0.5
		medium_increase_of_human_tolerance_effect = yes
		522 = {
			add_province_modifier = {
				name = U14_OSC_preachers
				duration = 18250
			}
			change_religion = old_bulwari_sun_cult
		}	
	}

	option = { #Expel preachers
		name = "exodus_goblin_flavour.9.b"
		add_years_of_income = 1
		medium_decrease_of_human_tolerance_effect = yes
		522 = {
			add_unrest = 5
		}		
	}
}

#Ourdia second try
country_event = {
	id = exodus_goblin_flavour.10
	title = exodus_goblin_flavour.10.t
	desc = exodus_goblin_flavour.10.d
	picture = COURT_eventPicture

	fire_only_once = yes
	
	is_triggered_only = yes
	
	trigger = {
		always = yes
	}

	option = {
		name = "exodus_goblin_flavour.10.a"
	}
}

#Glass isles attempt
country_event = {
	id = exodus_goblin_flavour.11
	title = exodus_goblin_flavour.11.t
	desc = exodus_goblin_flavour.11.d
	picture = COURT_eventPicture

	fire_only_once = yes
	
	is_triggered_only = yes
	
	trigger = {
		always = yes
	}

	option = { #Too risky
		name = "exodus_goblin_flavour.11.a"
		582 = { add_permanent_claim = U14 }
	}

	option = { #Accept
		name = "exodus_goblin_flavour.11.b"
		random_list = {
			75 = { U14 = {country_event = {id = exodus_goblin_flavour.12} } }
			25 = { U14 = {country_event = {id = exodus_goblin_flavour.18} } }
		}
	}
}

#Glass isles success
country_event = {
	id = exodus_goblin_flavour.12
	title = exodus_goblin_flavour.12.t
	desc = exodus_goblin_flavour.12.d
	picture = COURT_eventPicture

	fire_only_once = yes
	
	is_triggered_only = yes
	
	trigger = {
		always = yes
	}

	option = {
		name = "exodus_goblin_flavour.12.a"
		582 = {
			owner = {
				country_event = {id = exodus_goblin_flavour.13}
				if = {
					limit = {
						is_vassal = yes
					}
					overlord = {country_event = {id = exodus_goblin_flavour.13}}
				}
			}
			cede_province = U14
		}
		add_prestige = 10
		add_navy_tradition = 10
	}
}

#Glass isles for old owner
country_event = {
	id = exodus_goblin_flavour.13
	title = exodus_goblin_flavour.13.t
	desc = exodus_goblin_flavour.13.d
	picture = COURT_eventPicture

	fire_only_once = yes
	
	is_triggered_only = yes
	
	trigger = {
		always = yes
	}

	option = {
		name = "exodus_goblin_flavour.13.a"
		add_opinion = {
			who = U14
			modifier = U14_glass_isles_stolen
		}
	}
}

#Propose to vassalize Landshark
country_event = {
	id = exodus_goblin_flavour.14
	title = exodus_goblin_flavour.14.t
	desc = exodus_goblin_flavour.14.d
	picture = COURT_eventPicture

	fire_only_once = yes
	
	is_triggered_only = yes
	
	trigger = {
		always = yes
	}

	option = { #Accept
		name = "exodus_goblin_flavour.14.a"

		ai_chance = {
			factor = 3
			modifier = {
				factor = 0
				U11 = {is_rival = U14}
			}
			modifier = {
				factor = 0
				U11 = {total_development = U14}
			}
		}

		U14 = {country_event = { id = exodus_goblin_flavour.15 } }
	}

	option = { #Reject
		name = "exodus_goblin_flavour.14.b"
		ai_chance = {
			factor = 1
		}
		U14 = {country_event = { id = exodus_goblin_flavour.16 }}
	}
}

#Landshark accepts
country_event = {
	id = exodus_goblin_flavour.15
	title = exodus_goblin_flavour.15.t
	desc = exodus_goblin_flavour.15.d
	picture = COURT_eventPicture

	fire_only_once = yes
	
	is_triggered_only = yes
	
	trigger = {
		always = yes
	}

	option = {
		name = "exodus_goblin_flavour.15.a"
		U14 = {vassalize = U11}
	}
}

#Landshark rejects
country_event = {
	id = exodus_goblin_flavour.16
	title = exodus_goblin_flavour.16.t
	desc = exodus_goblin_flavour.16.d
	picture = COURT_eventPicture

	fire_only_once = yes
	
	is_triggered_only = yes
	
	trigger = {
		always = yes
	}

	option = {
		name = "exodus_goblin_flavour.16.a"
		U14 = {
			add_casus_belli = {
				target = U11
				type = cb_vassalize_mission
				months = 120
			}
		}
	}
}

#Siege Reenactment
country_event = {
	id = exodus_goblin_flavour.17
	title = exodus_goblin_flavour.17.t
	desc = exodus_goblin_flavour.17.d
	picture = COURT_eventPicture

	fire_only_once = yes
	
	is_triggered_only = yes
	
	trigger = {
		always = yes
	}

	option = { #Chill them down
		name = "exodus_goblin_flavour.17.a"
		add_mil_power = 100
		define_advisor = {
			type = fortification_expert
			name = "Thryk Valehead"
			skill = 2
			culture = exodus_goblin
			religion = goblinic_shamanism
			discount = yes
		}
	}

	option = { #Go ham - gob will be gob
		name = "exodus_goblin_flavour.17.b"
		add_mil_power = 400
		define_advisor = {
			type = fortification_expert
			name = "Thryk Valehead"
			skill = 2
			culture = exodus_goblin
			religion = goblinic_shamanism
			cost_multiplier = 0.25
		}
		510 = {
			if = {
				limit = {
					has_province_modifier = castanorian_citadel
				}
				remove_province_modifier = castanorian_citadel
				add_province_modifier =  {
					name = ruined_castanorian_citadel
					duration = -1
				}
			}
		}		
	}
}

#Glass isles failure
country_event = {
	id = exodus_goblin_flavour.18
	title = exodus_goblin_flavour.18.t
	desc = exodus_goblin_flavour.18.d
	picture = COURT_eventPicture

	fire_only_once = yes
	
	is_triggered_only = yes
	
	trigger = {
		always = yes
	}

	option = {
		name = "exodus_goblin_flavour.18.a"
		add_navy_tradition = 5
	}
}

##Landshark Events

#Fall of Bal Ouord
country_event = {
	id = exodus_goblin_flavour.19
	title = exodus_goblin_flavour.19.t
	desc = exodus_goblin_flavour.19.d
	picture = COUNTRY_COLLAPSE_eventPicture

	fire_only_once = yes

	is_triggered_only = yes

	trigger = {
		always = yes
	}

	option = {
		name = "exodus_goblin_flavour.19.a"
		add_stability_or_adm_power = yes
		add_prestige = 20
		510 = {
			add_goblin_minority_size_effect = yes
		}
		512 = {
			add_goblin_minority_size_effect = yes
		}
		513 = {
			add_goblin_minority_size_effect = yes
		}
	}
}

#To Cleanse the land
country_event = {
	id = exodus_goblin_flavour.20
	title = exodus_goblin_flavour.20.t
	desc = exodus_goblin_flavour.20.d
	picture = COLONIZATION_eventPicture

	fire_only_once = yes

	is_triggered_only = yes

	trigger = {
		always = yes
	}

	option = {
		name = "exodus_goblin_flavour.20.a"
		add_country_modifier = {
			name = landshark_curse_cleansing
			duration = 3650
		}
		add_prestige = -20
		add_adm_power = -200
		add_dip_power = -200
	}

	option = {
		name = "exodus_goblin_flavour.20.b"
		add_country_modifier = {
			name = landshark_curse_cleansing
			duration = 7300
		}
		add_adm_power = -50
		add_dip_power = -50
	}
}

#Coastal Reclamation Menu
country_event = {
	id = exodus_goblin_flavour.21
	title = exodus_goblin_flavour.21.t
	desc = exodus_goblin_flavour.21.d
	picture = COLONIZATION_eventPicture
	
	is_triggered_only = yes
	
	trigger = {
		always = yes
	}

	immediate = { 
		hidden_effect = {
			set_country_flag = landshark_reclamation_menu_debug_flag
		}
	}

	after = {
		clr_country_flag = landshark_reclamation_menu_debug_flag
	}

	option = { #Frontier on Korrazzir
		name = exodus_goblin_flavour.21.a
		goto = 448
		trigger = {
			448 = {
				any_neighbor_province = {
					owned_by = U11
				}
				NOT = { 
					OR = {
						is_colony = yes
						is_city = yes
					}	
				}
			}
		}
		448 = {
			add_siberian_construction = 500
		}
	}

	option = { #Frontier on Ghashiz
		name = exodus_goblin_flavour.21.b
		goto = 449
		trigger = {
			449 = {
				any_neighbor_province = {
					owned_by = U11
				}
				NOT = { 
					OR = {
						is_colony = yes
						is_city = yes
					}	
				}
			}
		}
		449 = {
			add_siberian_construction = 500
		}
	}

	option = { #Frontier on Ruins of Corveld
		name = exodus_goblin_flavour.21.c
		goto = 447
		trigger = {
			447 = {
				any_neighbor_province = {
					owned_by = U11
				}
				NOT = { 
					OR = {
						is_colony = yes
						is_city = yes
					}	
				}
			}
		}
		447 = {
			add_siberian_construction = 500
		}
	}

	option = { #Frontier on Jorathur Fields
		name = exodus_goblin_flavour.21.e
		goto = 445
		trigger = {
			445 = {
				any_neighbor_province = {
					owned_by = U11
				}
				NOT = { 
					OR = {
						is_colony = yes
						is_city = yes
					}	
				}
			}
		}
		445 = {
			add_siberian_construction = 500
		}
	}

	option = {
		name = exodus_goblin_flavour.21.f
		add_manpower = 1
        add_treasury = 10
	}
}

#The Banquet
country_event = {
	id = exodus_goblin_flavour.22
	title = exodus_goblin_flavour.22.t
	desc = exodus_goblin_flavour.22.d
	picture = GREAT_BUILDING_eventPicture

	is_triggered_only = yes
	
	trigger = {
		always = yes
	}

	option = {
		name = exodus_goblin_flavour.22.a
		every_known_country = {
			limit = {
				has_opinion = {
					who = ROOT
					value = 0
				}
				capital_scope = {
					OR = {
						region = businor_region
						region = the_borders_region
						region = east_dameshead_region
						region = bahar_region
						region = harpy_hills_region
						region = bulwar_proper_region
					}
				}
				NOT = {
					has_country_modifier = monstrous_nation
				}
			}			
			add_opinion = {
				who = ROOT
				modifier = landshark_great_banquet
			}
		}
		add_adm_power = 50
		add_dip_power = 50
		if = {
			limit = { has_country_flag = removing_monstrous has_country_modifier = monstrous_nation }
			custom_tooltip = landshark_decrease_monstrous_extreme_result_tt
			hidden_effect = { subtract_variable = { monstrousPoints = 15 } }
		}
		add_prestige = 20
		change_government_reform_progress = 25
		add_country_modifier = {
			name = landshark_successful_banquet
			duration = 7300
		}
	}		
}

#Coveted Lands - Moving Capital
country_event = {
	id = exodus_goblin_flavour.23
	title = exodus_goblin_flavour.23.t
	desc = exodus_goblin_flavour.23.d
	picture = CARIBBEAN_PIRATE_FORT_eventPicture

	is_triggered_only = yes

	trigger = {
		always = yes
	}

	option = { #Bal Ouord
		name = exodus_goblin_flavour.23.a
		goto = 510
		set_capital = 510
		510 = {
			add_base_tax = 2
			add_base_production = 2
			add_base_manpower = 2
			change_culture = ROOT
			change_religion = ROOT
			custom_tooltip = landshark_culture_movement_tt
		}		
	}

	option = { #Westend
		name = exodus_goblin_flavour.23.b
		goto = 516
		set_capital = 516
		516 = {
			add_base_tax = 2
			add_base_production = 2
			add_base_manpower = 2
			change_culture = ROOT
			change_religion = ROOT
			custom_tooltip = landshark_culture_movement_tt
		}		
	}

	option = { #Not Moving
		name = exodus_goblin_flavour.23.c
		capital_scope = {
			add_base_tax = 2
			add_base_production = 2
			add_base_manpower = 2
			change_culture = ROOT
			change_religion = ROOT
			custom_tooltip = landshark_culture_movement_tt
		}
	}
}

#Marblehead proclamation enactment decision menu
country_event = {
	id = exodus_goblin_flavour.24
	title = exodus_goblin_flavour.24.t
	desc = exodus_goblin_flavour.24.d
	picture = LAND_MILITARY_eventPicture

	is_triggered_only = yes
	
	trigger = {
		always = yes
	}

	immediate = { 
		hidden_effect = {
			set_country_flag = marblehead_proclamation_menu_debug_flag
		}
	}

	after = {
		clr_country_flag = marblehead_proclamation_menu_debug_flag
	}

	option = { #Subjugate Landshark
		name = exodus_goblin_flavour.24.a
		goto = U11

		trigger = {
			has_casus_belli = {
				type = cb_vassalize_mission
				target = U11
			}
			NOT = {
				OR = {
					U11 = {
						vassal_of = ROOT
					}
					mission_completed = U15_landshark
					has_country_flag = marblehead_proclamation_declared_landshark_flag
				}				
			}			
		}

		set_country_flag = marblehead_proclamation_declared_landshark_flag

		declare_war_with_cb = {
			who = U11
			casus_belli = cb_vassalize_mission
		}
	}

	option = { #Subjugate Mountainhugger
		name = exodus_goblin_flavour.24.b
		goto = U14

		trigger = {
			has_casus_belli = {
				type = cb_vassalize_mission
				target = U14
			}
			NOT = {
				OR = {
					U14 = {
						vassal_of = ROOT
					}
					mission_completed = U15_mountainhugger
					has_country_flag = marblehead_proclamation_declared_mountainhugger_flag
				}				
			}	
		}

		set_country_flag = marblehead_proclamation_declared_mountainhugger_flag

		declare_war_with_cb = {
			who = U14
			casus_belli = cb_vassalize_mission
		}
	}

	option = { #Subjugate Greysheep
		name = exodus_goblin_flavour.24.c
		goto = U13

		trigger = {
			has_casus_belli = {
				type = cb_vassalize_mission
				target = U13
			}
			NOT = {
				OR = {
					U13 = {
						vassal_of = ROOT
					}
					mission_completed = U15_greysheep
					has_country_flag = marblehead_proclamation_declared_greysheep_flag
				}				
			}
		}

		set_country_flag = marblehead_proclamation_declared_greysheep_flag

		declare_war_with_cb = {
			who = U13
			casus_belli = cb_vassalize_mission
		}
	}

	option = { #back
		name = exodus_goblin_flavour.24.e
	}


}

namespace = flavour_overclan

#Choosing the name
country_event = {
	id = flavour_overclan.1
	title = flavour_overclan.1.t
	desc = flavour_overclan.1.d
	picture =  COURT_eventPicture

	fire_only_once = yes
	is_triggered_only = yes

	trigger = {
		tag = F78
	}

	option = { #The Overclan
		name = "flavour_overclan.1.a"
		add_prestige = 5
	}

	option = { #Bahari Overclan
		name = "flavour_overclan.1.b"
		override_country_name = BAHARI_OVERCLAN
	}

	option = { #Aqatbar Overclan
		trigger = { capital = 536 }
		name = "flavour_overclan.1.c"
		override_country_name = AQATBAR_OVERCLAN
	}

}
