
namespace = regent_court
# Regent Court Change Deity Event meant for Long Lived Races
# Commenting it out due to it not being necessary anymore thanks to the Regent Court Deity Switch decision that was implemented
# country_event = {
	# id = regent_court.1
	# title = regent_court.1.t
	# desc = regent_court.1.d
	# picture = ARTWORK_eventPicture
	
	# mean_time_to_happen = {
		# years = 100

		# modifier = {	#less likely to happen for non long-lived
			# factor = 1.5
			# NOT = { ruler_has_personality = immortal_personality }
		# }
	# }
	
	# trigger = {
		# religion = regent_court
		# has_regency = no
		# has_consort_regency = no
	# }
	
	# option = {
		# name = regent_court.1.a
		# ai_chance = {
			# factor = 1
			# modifier = {
				# factor = 5
				# OR = {
					# tag = A41	#Damish Temple
					# tag = B02	#Corintar
					# tag = A10	#Minaran Temple
					# tag = H44	#Shining Circle
					# tag = H45	#Beggaston
					# tag = G94	#Argezvale
					# tag = A43	#Ryalan Temple
					# tag = A74	#Nathalaire
					# tag = A53	#Aramari Temple
				# }
			# }
			# modifier = {
				# factor = 10
				# OR = {
					# tag = H42	#Onyx Legion
					# tag = H43	#Neratica
					# tag = B58	#Adenica
				# }
			# }
		# }
	# }
	
	# option = {
		# name = regent_court.1.b
		# ai_chance = {
			# factor = 1
			# modifier = {
				# factor = 0.2
				# NOT = { stability = 1 }
			# }
		# }
		
		# add_stability = -1
		# add_estate_loyalty = {
			# estate = estate_church
			# loyalty = -10
		# }
		
		# hidden_effect = {
			# country_event = {
				# id = regent_court.2
			# }
		# }
	# }
# }

country_event = {
	id = regent_court.2
	title = regent_court.2.t
	desc = regent_court.2.d
	picture = ARTWORK_eventPicture
	
	is_triggered_only = yes

	immediate = {
		hidden_effect = {
			set_country_flag = regent_court_menu_open
		}
	}

	option = {
		name = regent_court.2.a
		highlight = yes
		trigger = {
			ai = no
		}
	}
	
	#castellos base
	option = {
		name = regent_court.2.b
		trigger = {
			ROOT = {
				NOT = {
					OR = {
						ruler_has_personality = righteous_personality
						ruler_has_personality = just_personality
						ruler_has_personality = well_advised_personality
					}
				}
			}
			NOT = { has_global_flag = "castellos_is_dead_pantheonic_council" }
		}
		ai_chance = {
			factor = 1
			modifier = {
				factor = 3
				personality = ai_balanced
			}
			modifier = {
				factor = 2
				personality = ai_capitalist
			}
			modifier = {
				factor = 1.2
				government = monarchy
			}
			modifier = {
				factor = 1.5
				culture_group = escanni
			}
		}
		set_country_flag = regent_court_deity_switch_cooldown
		change_personal_deity = castellos
	}
	
	#castellos favorable
	option = {
		name = regent_court.2.b
		highlight = yes
		trigger = {
			ROOT = {
				OR = {
					ruler_has_personality = righteous_personality
					ruler_has_personality = just_personality
					ruler_has_personality = well_advised_personality
				}
			}
			NOT = { has_global_flag = "castellos_is_dead_pantheonic_council" }
		}
		ai_chance = {
			factor = 1
			modifier = {
				factor = 3
				personality = ai_balanced
			}
			modifier = {
				factor = 2
				personality = ai_capitalist
			}
			modifier = {
				factor = 1.2
				government = monarchy
			}
			modifier = {
				factor = 1.5
				culture_group = escanni
			}
		}
		set_country_flag = regent_court_deity_switch_cooldown
		change_personal_deity = castellos
	}
	
	#dame base
	option = {
		name = regent_court.2.c
		trigger = {
			ROOT = {
				NOT = { has_personal_deity = the_dame }
				NOT = {
					OR = {
						ruler_has_personality = tolerant_personality
						ruler_has_personality = free_thinker_personality
						ruler_has_personality = scholar_personality
					}
				}
			}
		}
		ai_chance = {
			factor = 1
			modifier = {
				factor = 2
				personality = ai_capitalist
			}
			modifier = {
				factor = 2
				personality = ai_balanced
			}
			modifier = {
				factor = 1.5
				personality = ai_diplomat
			}
			modifier = {
				factor = 0.5
				personality = ai_militarist
			}
			modifier = {
				factor = 2
				primary_culture = west_damerian	#Kingdom of Dameria dudes
			}
			modifier = {
				factor = 2
				primary_culture = east_damerian
			}
			modifier = {
				factor = 1.3
				primary_culture = vernman
			}
			modifier = {
				factor = 1.3
				primary_culture = pearlsedger	#Lesser boys of the Kingdom of Dameria
			}
			modifier = {
				factor = 5
				tag = A41	#Damish Temple
			}
			modifier = {
				factor = 3
				tag = A85	#Magisterium, I mean she's the goddess of magic after all
			}
			modifier = {
				factor = 2
				culture_group = gnomish
			}
		}
		set_country_flag = regent_court_deity_switch_cooldown
		change_personal_deity = the_dame
	}
	
	#dame favorable
	option = {
		name = regent_court.2.c
		highlight = yes
		trigger = {
			ROOT = {
				OR = {
					ruler_has_personality = tolerant_personality
					ruler_has_personality = free_thinker_personality
					ruler_has_personality = scholar_personality
				}
			}
		}
		ai_chance = {
			factor = 1
			modifier = {
				factor = 2
				personality = ai_capitalist
			}
			modifier = {
				factor = 2
				personality = ai_balanced
			}
			modifier = {
				factor = 1.5
				personality = ai_diplomat
			}
			modifier = {
				factor = 0.5
				personality = ai_militarist
			}
			modifier = {
				factor = 2
				primary_culture = west_damerian	#Kingdom of Dameria dudes
			}
			modifier = {
				factor = 2
				primary_culture = east_damerian
			}
			modifier = {
				factor = 1.3
				primary_culture = vernman
			}
			modifier = {
				factor = 1.3
				primary_culture = pearlsedger	#Lesser boys of the Kingdom of Dameria
			}
			modifier = {
				factor = 5
				tag = A41	#Damish Temple
			}
			modifier = {
				factor = 3
				tag = A85	#Magisterium, I mean she's the goddess of magic after all
			}
			modifier = {
				factor = 2
				culture_group = gnomish
			}
		}
		set_country_flag = regent_court_deity_switch_cooldown
		change_personal_deity = the_dame
	}
	
	#corin base
	option = {
		name = regent_court.2.n
		trigger = {
			has_global_flag = corins_ascension
			ROOT = {
				NOT = {
					OR = {
						ruler_has_personality = inspiring_leader_personality
						ruler_has_personality = bold_fighter_personality
						ruler_has_personality = zealot_personality
					}
				}
			}
			OR = {
				AND = {
					NOT = { is_religion_enabled = corinite }
					NOT = { has_global_flag = "crimson_deluge" }
				}
				has_global_flag = "upgraded_adean_admin"
			}
		}
		ai_chance = {
			factor = 1
			modifier = {
				factor = 3
				personality = ai_militarist
			}	
			modifier = {
				factor = 0.5
				personality = ai_capitalist
			}		
			modifier = {
				factor = 2
				has_reform = adventurer_reform
			}
			modifier = {
				factor = 5
				tag = B02	#Corintar
			}
			modifier = {
				factor = 1.5
				culture_group = escanni
			}
		}
		set_country_flag = regent_court_deity_switch_cooldown
		change_personal_deity = corin
	}
	
	#corin favorable
	option = {
		name = regent_court.2.n
		highlight = yes
		trigger = {
			has_global_flag = corins_ascension
			ROOT = {
				OR = {
					ruler_has_personality = inspiring_leader_personality
					ruler_has_personality = bold_fighter_personality
					ruler_has_personality = zealot_personality
				}
			}
			OR = {
				AND = {
					NOT = { is_religion_enabled = corinite }
					NOT = { has_global_flag = "crimson_deluge" }
				}
				has_global_flag = "upgraded_adean_admin"
			}
		}
		ai_chance = {
			factor = 1
			modifier = {
				factor = 3
				personality = ai_militarist
			}	
			modifier = {
				factor = 0.5
				personality = ai_capitalist
			}		
			modifier = {
				factor = 2
				has_reform = adventurer_reform
			}
			modifier = {
				factor = 5
				tag = B02	#Corintar
			}
			modifier = {
				factor = 1.5
				culture_group = escanni
			}
		}
		set_country_flag = regent_court_deity_switch_cooldown
		change_personal_deity = corin
	}
	
	#Adean Base
	option = {
		name = regent_court.2.e
		trigger = {
			ROOT = {
				NOT = {
					OR = {
						ruler_has_personality = righteous_personality
						ruler_has_personality = martial_educator_personality
						ruler_has_personality = strict_personality
					}
				}
			}
			NOT = {
				has_global_flag = "upgraded_adean_war"
				has_global_flag = "upgraded_adean_admin"
			}
		}
		ai_chance = {
			factor = 1
			modifier = {
				factor = 2
				personality = ai_militarist
			}
			modifier = {
				factor = 0.5
				personality = ai_colonialist
			}
			modifier = {
				factor = 1.5
				culture_group = escanni
			}
			modifier = {
				factor = 1.5
				culture_group = lencori
			}
			modifier = {
				factor = 10 
				tag = B58	#Adenica
			}
		}
		set_country_flag = regent_court_deity_switch_cooldown
		change_personal_deity = adean
	}
	
	#Adean Favorable
	option = {
		name = regent_court.2.e
		highlight = yes
		trigger = {
			ROOT = {
				OR = {
					ruler_has_personality = righteous_personality
					ruler_has_personality = martial_educator_personality
					ruler_has_personality = strict_personality
				}
			}
			NOT = {
				has_global_flag = "upgraded_adean_war"
				has_global_flag = "upgraded_adean_admin"
			}
		}
		ai_chance = {
			factor = 1
			modifier = {
				factor = 2
				personality = ai_militarist
			}
			modifier = {
				factor = 0.5
				personality = ai_colonialist
			}
			modifier = {
				factor = 1.5
				culture_group = escanni
			}
			modifier = {
				factor = 1.5
				culture_group = lencori
			}
			modifier = {
				factor = 10 
				tag = B58	#Adenica
			}
		}
		set_country_flag = regent_court_deity_switch_cooldown
		change_personal_deity = adean
	}
	
	#Munas Base
	option = {
		name = regent_court.2.f
		trigger = {
			ROOT = {
				NOT = { has_country_flag = upgraded_munas }
				NOT = {
					OR = {
						ruler_has_personality = navigator_personality
						ruler_has_personality = expansionist_personality
						ruler_has_personality = silver_tongue_personality
					}
				}
			}
		}
		ai_chance = {
			factor = 1
			modifier = {
				factor = 2
				personality = ai_diplomat
			}
			modifier = {
				factor = 2
				personality = ai_colonialist
			}
			modifier = {
				factor = 0.5
				personality = ai_capitalist
			}
			modifier = {
				factor = 1.5
				primary_culture = west_damerian
			}
			modifier = {
				factor = 1.5
				primary_culture = east_damerian
			}
			modifier = {
				factor = 2
				culture_group = elven
			}
		}
		set_country_flag = regent_court_deity_switch_cooldown
		change_personal_deity = munas_moonsinger
	}
	
	#munas favorable
	option = {
		name = regent_court.2.f
		highlight = yes
		trigger = {
			ROOT = {
				NOT = { has_country_flag = upgraded_munas }
				OR = {
					ruler_has_personality = navigator_personality
					ruler_has_personality = expansionist_personality
					ruler_has_personality = silver_tongue_personality
				}
			}
		}
		ai_chance = {
			factor = 1
			modifier = {
				factor = 2
				personality = ai_diplomat
			}
			modifier = {
				factor = 2
				personality = ai_colonialist
			}
			modifier = {
				factor = 0.5
				personality = ai_capitalist
			}
			modifier = {
				factor = 1.5
				primary_culture = west_damerian
			}
			modifier = {
				factor = 1.5
				primary_culture = east_damerian
			}
			modifier = {
				factor = 2
				culture_group = elven
			}
		}
		set_country_flag = regent_court_deity_switch_cooldown
		change_personal_deity = munas_moonsinger
	}
	
	#munas upgraded base
	option = {
		name = regent_court.2.f
		trigger = {
			has_country_flag = upgraded_munas
			NOT = {
				OR = {
					ruler_has_personality = navigator_personality
					ruler_has_personality = expansionist_personality
					ruler_has_personality = silver_tongue_personality
				}
			}
		}
		ai_chance = {
			factor = 100
		}
		set_country_flag = regent_court_deity_switch_cooldown
		change_personal_deity = munas_upgraded
	}
	
	#munas upgraded favorable
	option = {
		name = regent_court.2.f
		highlight = yes
		trigger = {
			has_country_flag = upgraded_munas
			OR = {
				ruler_has_personality = navigator_personality
				ruler_has_personality = expansionist_personality
				ruler_has_personality = silver_tongue_personality
			}
		}
		ai_chance = {
			factor = 100
		}
		set_country_flag = regent_court_deity_switch_cooldown
		change_personal_deity = munas_upgraded
	}
	
	#ara base
	option = {
		name = regent_court.2.g
		trigger = {
			ROOT = {
				NOT = {
					OR = {
						ruler_has_personality = midas_touched_personality
						ruler_has_personality = entrepreneur_personality
						ruler_has_personality = industrious_personality
					}
				}
			}
		}
		ai_chance = {
			factor = 1
			modifier = {
				factor = 3
				personality = ai_capitalist
			}
			modifier = {
				factor = 2
				personality = ai_colonialist
			}
			modifier = {
				factor = 0.5
				personality = ai_militarist
			}
			modifier = {
				factor = 1.2
				government = republic
			}
			modifier = {
				factor = 2
				primary_culture = crownsman
			}
			modifier = {
				factor = 5
				tag = A53	#Aramari Temple
			}
			modifier = {
				factor = 5
				OR = {
					tag = H44 #Shining Circle
					tag = H45 #Beggaston
				}
			}
		}
		set_country_flag = regent_court_deity_switch_cooldown
		change_personal_deity = ara
	}
	
	#ara favorable
	option = {
		name = regent_court.2.g
		highlight = yes
		trigger = {
			ROOT = {
				OR = {
					ruler_has_personality = midas_touched_personality
					ruler_has_personality = entrepreneur_personality
					ruler_has_personality = industrious_personality
				}
			}
		}
		ai_chance = {
			factor = 1
			modifier = {
				factor = 3
				personality = ai_capitalist
			}
			modifier = {
				factor = 2
				personality = ai_colonialist
			}
			modifier = {
				factor = 0.5
				personality = ai_militarist
			}
			modifier = {
				factor = 1.2
				government = republic
			}
			modifier = {
				factor = 2
				primary_culture = crownsman
			}
			modifier = {
				factor = 5
				tag = A53	#Aramari Temple
			}
			modifier = {
				factor = 5
				OR = {
					tag = H44 #Shining Circle
					tag = H45 #Beggaston
				}
			}
		}
		set_country_flag = regent_court_deity_switch_cooldown
		change_personal_deity = ara
	}
	
	#balgar base
	option = {
		name = regent_court.2.h
		trigger = {
			ROOT = {
				NOT = { has_country_flag = upgraded_balgar } #For Khughdhir, Hammerhome and Silverforge mission trees
				NOT = {
					OR = {
						ruler_has_personality = architectural_visionary_personality
						ruler_has_personality = industrious_personality
						ruler_has_personality = expansionist_personality
					}
				}
			}
		}
		ai_chance = {
			factor = 1
			modifier = {
				factor = 3
				personality = ai_capitalist
			}
			modifier = {
				factor = 0.5
				personality = ai_militarist
			}
			modifier = {
				factor = 2
				culture_group = dwarven
			}
			modifier = {
				factor = 5
				tag = G94 # Argezvale
			}
			modifier = {
				factor = 1.5
				tag = B36 # Marrhold
			}
		}
		set_country_flag = regent_court_deity_switch_cooldown
		change_personal_deity = balgar
	}
	
	#balger favorable
	option = {
		name = regent_court.2.h
		highlight = yes
		trigger = {
			ROOT = {
				NOT = { has_country_flag = upgraded_balgar } #For Khughdhir, Hammerhome and Silverforge mission trees
				OR = {
					ruler_has_personality = architectural_visionary_personality
					ruler_has_personality = industrious_personality
					ruler_has_personality = expansionist_personality
				}
			}
		}
		ai_chance = {
			factor = 1
			modifier = {
				factor = 3
				personality = ai_capitalist
			}
			modifier = {
				factor = 0.5
				personality = ai_militarist
			}
			modifier = {
				factor = 2
				culture_group = dwarven
			}
			modifier = {
				factor = 5
				tag = G94 # Argezvale
			}
			modifier = {
				factor = 1.5
				tag = B36 # Marrhold
			}
		}
		set_country_flag = regent_court_deity_switch_cooldown
		change_personal_deity = balgar
	}
	
	#balgar upgraded base
	option = {
		name = regent_court.2.h
		trigger = {
			ROOT = {
				has_country_flag = upgraded_balgar
				NOT = {
					OR = {
						ruler_has_personality = architectural_visionary_personality
						ruler_has_personality = industrious_personality
						ruler_has_personality = expansionist_personality
					}
				}
			}
		}
		ai_chance = {
			factor = 1
			modifier = {
				factor = 3
				personality = ai_capitalist
			}
			modifier = {
				factor = 0.5
				personality = ai_militarist
			}
			modifier = {
				factor = 2
				culture_group = dwarven
			}
			modifier = {
				factor = 5
				tag = G94 # Argezvale
			}
			modifier = {
				factor = 1.5
				tag = B36 # Marrhold
			}
		}
		set_country_flag = regent_court_deity_switch_cooldown
		change_personal_deity = balgar_upgraded
	}
	
	#balger upgraded favorable
	option = {
		name = regent_court.2.h
		highlight = yes
		trigger = {
			ROOT = {
				has_country_flag = upgraded_balgar
				OR = {
					ruler_has_personality = architectural_visionary_personality
					ruler_has_personality = industrious_personality
					ruler_has_personality = expansionist_personality
				}
			}
		}
		ai_chance = {
			factor = 1
			modifier = {
				factor = 3
				personality = ai_capitalist
			}
			modifier = {
				factor = 0.5
				personality = ai_militarist
			}
			modifier = {
				factor = 2
				culture_group = dwarven
			}
			modifier = {
				factor = 5
				tag = G94 # Argezvale
			}
			modifier = {
				factor = 1.5
				tag = B36 # Marrhold
			}
		}
		set_country_flag = regent_court_deity_switch_cooldown
		change_personal_deity = balgar_upgraded
	}
	
	#esmaryal base
	option = {
		name = regent_court.2.i
		trigger = {
			ROOT = {
				NOT = {
					OR = {
						ruler_has_personality = fertile_personality
						ruler_has_personality = kind_hearted_personality
						ruler_has_personality = charismatic_negotiator_personality
					}
				}
			}
		}
		ai_chance = {
			factor = 1
			modifier = {
				factor = 1.5
				personality = ai_diplomat
			}
			modifier = {
				factor = 1.3
				personality = ai_militarist
			}
			modifier = {
				factor = 0.5
				personality = ai_capitalist
			}
			modifier = {
				factor = 2
				primary_culture = esmari
			}
			modifier = {
				factor = 2
				has_heir = no
				government = monarchy
				ruler_age = 40	#old ruler
			}
			modifier = {
				factor = 1.5
				culture_group = halfling
			}
		}
		set_country_flag = regent_court_deity_switch_cooldown
		change_personal_deity = esmaryal
	}
	
	#esmaryal favorable
	option = {
		name = regent_court.2.i
		highlight = yes
		trigger = {
			ROOT = {
				OR = {
					ruler_has_personality = fertile_personality
					ruler_has_personality = kind_hearted_personality
					ruler_has_personality = charismatic_negotiator_personality
				}
			}
		}
		ai_chance = {
			factor = 1
			modifier = {
				factor = 1.5
				personality = ai_diplomat
			}
			modifier = {
				factor = 1.3
				personality = ai_militarist
			}
			modifier = {
				factor = 0.5
				personality = ai_capitalist
			}
			modifier = {
				factor = 2
				primary_culture = esmari
			}
			modifier = {
				factor = 2
				has_heir = no
				government = monarchy
				ruler_age = 40	#old ruler
			}
			modifier = {
				factor = 1.5
				culture_group = halfling
			}
		}
		set_country_flag = regent_court_deity_switch_cooldown
		change_personal_deity = esmaryal
	}
	
	#ryala base
	option = {
		name = regent_court.2.j
		trigger = {
			ROOT = {
				NOT = { has_country_flag = upgraded_ryala }
				NOT = {
					OR = {
						ruler_has_personality = calm_personality
						ruler_has_personality = careful_personality
						ruler_has_personality = benevolent_personality
					}
				}
			}
		}
		ai_chance = {
			factor = 1
			modifier = {
				factor = 3
				personality = ai_diplomat
			}
			modifier = {
				factor = 0.5
				personality = ai_militarist
			}
			modifier = {
				factor = 1.5
				primary_culture = esmari
			}
			modifier = {
				factor = 5
				tag = A43 # Ryalan Temple
			}
		}
		set_country_flag = regent_court_deity_switch_cooldown
		change_personal_deity = ryala
	}

	#ryala favorable
	option = {
		name = regent_court.2.j
		highlight = yes
		trigger = {
			ROOT = {
				NOT = { has_country_flag = upgraded_ryala }
				OR = {
					ruler_has_personality = calm_personality
					ruler_has_personality = careful_personality
					ruler_has_personality = benevolent_personality
				}
			}
		}
		ai_chance = {
			factor = 1
			modifier = {
				factor = 3
				personality = ai_diplomat
			}
			modifier = {
				factor = 0.5
				personality = ai_militarist
			}
			modifier = {
				factor = 1.5
				primary_culture = esmari
			}
			modifier = {
				factor = 5
				tag = A43 # Ryalan Temple
			}
		}
		set_country_flag = regent_court_deity_switch_cooldown
		change_personal_deity = ryala
	}
	
	#ryala upgraded base
	option = {
		name = regent_court.2.j
		trigger = {
			ROOT = {
				NOT = { has_personal_deity = ryala_upgraded }
				has_country_flag = upgraded_ryala
				NOT = {
					OR = {
						ruler_has_personality = calm_personality
						ruler_has_personality = careful_personality
						ruler_has_personality = benevolent_personality
					}
				}
			}
		}
		ai_chance = {
			factor = 1
			modifier = {
				factor = 3
				personality = ai_diplomat
			}
			modifier = {
				factor = 0.5
				personality = ai_militarist
			}
			modifier = {
				factor = 1.5
				primary_culture = esmari
			}
			modifier = {
				factor = 5
				tag = A43 # Ryalan Temple
			}
		}
		set_country_flag = regent_court_deity_switch_cooldown
		change_personal_deity = ryala_upgraded
	}

	#ryala upgraded favorable
	option = {
		name = regent_court.2.j
		highlight = yes
		trigger = {
			ROOT = {
				has_country_flag = upgraded_ryala
				OR = {
					ruler_has_personality = calm_personality
					ruler_has_personality = careful_personality
					ruler_has_personality = benevolent_personality
				}
			}
		}
		ai_chance = {
			factor = 1
			modifier = {
				factor = 3
				personality = ai_diplomat
			}
			modifier = {
				factor = 0.5
				personality = ai_militarist
			}
			modifier = {
				factor = 1.5
				primary_culture = esmari
			}
			modifier = {
				factor = 5
				tag = A43 # Ryalan Temple
			}
		}
		set_country_flag = regent_court_deity_switch_cooldown
		change_personal_deity = ryala_upgraded
	}
	
	#minara base
	option = {
		name = regent_court.2.k
		trigger = {
			ROOT = {
				NOT = {
					OR = {
						ruler_has_personality = fierce_negotiator_personality
						ruler_has_personality = silver_tongue_personality
						ruler_has_personality = fertile_personality
					}
				}
			}
		}
		ai_chance = {
			factor = 1
			modifier = {
				factor = 2
				personality = ai_diplomat
			}
			modifier = {
				factor = 1.5
				personality = ai_militarist
			}
			modifier = {
				factor = 0.5
				personality = ai_balanced
			}
			modifier = {
				factor = 2
				primary_culture = esmari
			}
			modifier = {
				factor = 1.5
				primary_culture = high_lorentish
			}
			modifier = {
				factor = 5
				tag = A10	#Minaran Temple
			}
		}
		set_country_flag = regent_court_deity_switch_cooldown
		change_personal_deity = minara
	}
	
	#minara favorable
	option = {
		name = regent_court.2.k
		highlight = yes
		trigger = {
			ROOT = {
				OR = {
					ruler_has_personality = fierce_negotiator_personality
					ruler_has_personality = silver_tongue_personality
					ruler_has_personality = fertile_personality
				}
			}
		}
		ai_chance = {
			factor = 1
			modifier = {
				factor = 2
				personality = ai_diplomat
			}
			modifier = {
				factor = 1.5
				personality = ai_militarist
			}
			modifier = {
				factor = 0.5
				personality = ai_balanced
			}
			modifier = {
				factor = 2
				primary_culture = esmari
			}
			modifier = {
				factor = 1.5
				primary_culture = high_lorentish
			}
			modifier = {
				factor = 5
				tag = A10	#Minaran Temple
			}
		}
		set_country_flag = regent_court_deity_switch_cooldown
		change_personal_deity = minara
	}
	
	#falah base
	option = {
		name = regent_court.2.l
		trigger = {
			ROOT = {
				NOT = { has_country_flag = upgraded_falah }
				NOT = {
					OR = {
						ruler_has_personality = tactical_genius_personality
						ruler_has_personality = incorruptible_personality
						ruler_has_personality = conqueror_personality
					}
				}
			}
		}
		ai_chance = {
			factor = 1
			modifier = {
				factor = 2
				personality = ai_militarist
			}
			modifier = {
				factor = 0.5
				personality = ai_capitalist
			}
			modifier = {
				factor = 1.5
				culture_group = elven
			}
			modifier = {
				factor = 1.2
				culture_group = anbennarian
			}
			modifier = {
				factor = 1.5
				primary_culture = blue_reachman
			}
			modifier = {
				factor = 1.5
				primary_culture = old_alenic
			}
		}
		set_country_flag = regent_court_deity_switch_cooldown
		change_personal_deity = falah
	}
	
	#falah favorable
	option = {
		name = regent_court.2.l
		highlight = yes
		trigger = {
			NOT = { has_country_flag = upgraded_falah }
			ROOT = {
				OR = {
					ruler_has_personality = tactical_genius_personality
					ruler_has_personality = incorruptible_personality
					ruler_has_personality = conqueror_personality
				}
			}
		}
		ai_chance = {
			factor = 1
			modifier = {
				factor = 2
				personality = ai_militarist
			}
			modifier = {
				factor = 0.5
				personality = ai_capitalist
			}
			modifier = {
				factor = 1.5
				culture_group = elven
			}
			modifier = {
				factor = 1.2
				culture_group = anbennarian
			}
			modifier = {
				factor = 1.5
				primary_culture = blue_reachman
			}
			modifier = {
				factor = 1.5
				primary_culture = old_alenic
			}
		}
		set_country_flag = regent_court_deity_switch_cooldown
		change_personal_deity = falah
	}

		#falah upgraded base
		option = {
			name = regent_court.2.l
			trigger = {
				has_country_flag = upgraded_falah
				ROOT = {
					NOT = {
						OR = {
							ruler_has_personality = tactical_genius_personality
							ruler_has_personality = incorruptible_personality
							ruler_has_personality = conqueror_personality
						}
					}
				}
			}
			ai_chance = {
				factor = 1
				modifier = {
					factor = 2
					personality = ai_militarist
				}
				modifier = {
					factor = 0.5
					personality = ai_capitalist
				}
				modifier = {
					factor = 1.5
					culture_group = elven
				}
				modifier = {
					factor = 1.2
					culture_group = anbennarian
				}
				modifier = {
					factor = 1.5
					primary_culture = blue_reachman
				}
				modifier = {
					factor = 1.5
					primary_culture = old_alenic
				}
			}
			set_country_flag = regent_court_deity_switch_cooldown
			change_personal_deity = falah_upgraded
		}
		
		#falah upgraded favorable
		option = {
			name = regent_court.2.l
			highlight = yes
			trigger = {
				has_country_flag = upgraded_falah
				ROOT = {
					OR = {
						ruler_has_personality = tactical_genius_personality
						ruler_has_personality = incorruptible_personality
						ruler_has_personality = conqueror_personality
					}
				}
			}
			ai_chance = {
				factor = 1
				modifier = {
					factor = 2
					personality = ai_militarist
				}
				modifier = {
					factor = 0.5
					personality = ai_capitalist
				}
				modifier = {
					factor = 1.5
					culture_group = elven
				}
				modifier = {
					factor = 1.2
					culture_group = anbennarian
				}
				modifier = {
					factor = 1.5
					primary_culture = blue_reachman
				}
				modifier = {
					factor = 1.5
					primary_culture = old_alenic
				}
			}
			set_country_flag = regent_court_deity_switch_cooldown
			change_personal_deity = falah_upgraded
		}
	
	#nerat base
	option = {
		name = regent_court.2.m
		trigger = {
			ROOT = {
				NOT = {
					OR = {
						ruler_has_personality = just_personality
						ruler_has_personality = lawgiver_personality
						ruler_has_personality = incorruptible_personality
					}
				}
			}
		}
		ai_chance = {
			factor = 1
			modifier = {
				factor = 2
				personality = ai_capitalist
			}
			modifier = {
				factor = 2
				personality = ai_militarist
			}
			modifier = {
				factor = 0.5
				personality = ai_diplomat
			}
			modifier = {
				factor = 2
				primary_culture = corvurian
			}
			modifier = {
				factor = 10
				OR = {
					tag = H42 #Onyx Legion
					tag = H43 #Neratica
				}
			}
		}
		set_country_flag = regent_court_deity_switch_cooldown
		change_personal_deity = nerat
	}
	
	#nerat favorable
	option = {
		name = regent_court.2.m
		highlight = yes
		trigger = {
			ROOT = {
				OR = {
					ruler_has_personality = just_personality
					ruler_has_personality = lawgiver_personality
					ruler_has_personality = incorruptible_personality
				}
			}
		}
		ai_chance = {
			factor = 1
			modifier = {
				factor = 2
				personality = ai_capitalist
			}
			modifier = {
				factor = 2
				personality = ai_militarist
			}
			modifier = {
				factor = 0.5
				personality = ai_diplomat
			}
			modifier = {
				factor = 2
				primary_culture = corvurian
			}
			modifier = {
				factor = 10
				OR = {
					tag = H42 #Onyx Legion
					tag = H43 #Neratica
				}
			}
		}
		set_country_flag = regent_court_deity_switch_cooldown
		change_personal_deity = nerat
	}
	
	#nathalyne base
	option = {
		name = regent_court.2.o
		trigger = {
			ROOT = {
				NOT = {
					OR = {
						ruler_has_personality = secretive_personality
						ruler_has_personality = intricate_web_weaver_personality
						ruler_has_personality = well_connected_personality
					}
				}
			}
		}
		ai_chance = {
			factor = 1
			modifier = {
				factor = 2
				personality = ai_capitalist
			}
			modifier = {
				factor = 2
				personality = ai_diplomat
			}
			modifier = {
				factor = 1.2
				government = republic
			}
			modifier = {
				factor = 0.5
				personality = ai_militarist
			}
			modifier = {
				factor = 5
				tag = A74	#Nathalaire
			}
		}
		set_country_flag = regent_court_deity_switch_cooldown
		change_personal_deity = nathalyne
	}
	
	#nathalyne favorable
	option = {
		name = regent_court.2.o
		highlight = yes
		trigger = {
			ROOT = {
				OR = {
					ruler_has_personality = secretive_personality
					ruler_has_personality = intricate_web_weaver_personality
					ruler_has_personality = well_connected_personality
				}
			}
		}
		ai_chance = {
			factor = 1
			modifier = {
				factor = 2
				personality = ai_capitalist
			}
			modifier = {
				factor = 2
				personality = ai_diplomat
			}
			modifier = {
				factor = 1.2
				government = republic
			}
			modifier = {
				factor = 0.5
				personality = ai_militarist
			}
			modifier = {
				factor = 5
				tag = A74	#Nathalaire
			}
		}
		set_country_flag = regent_court_deity_switch_cooldown
		change_personal_deity = nathalyne
	}
	
	#general comment: Is this whole adean war/peace really needed?
	#adean peace base
	option = {
		name = regent_court.2.e
		trigger = {
			has_global_flag = "upgraded_adean_admin"
			ROOT = {
				NOT = {
					OR = {
						ruler_has_personality = righteous_personality
						ruler_has_personality = martial_educator_personality
						ruler_has_personality = strict_personality
					}
				}
			}
		}
		ai_chance = {
			factor = 1
			modifier = {
				factor = 2
				personality = ai_militarist
			}
			modifier = {
				factor = 0.5
				personality = ai_colonialist
			}
			modifier = {
				factor = 2
				culture_group = escanni
			}
			modifier = {
				factor = 1.5
				culture_group = lencori
			}
			modifier = {
				factor = 3
				personality = ai_balanced
			}
			modifier = {
				factor = 2
				personality = ai_capitalist
			}
			modifier = {
				factor = 1.2
				government = monarchy
			}
			modifier = {
				factor = 10 
				tag = B58	#Adenica
			}
		}
		set_country_flag = regent_court_deity_switch_cooldown
		change_personal_deity = adean_upgraded_admin
	}
	
	#adean peace favorable
	option = {
		name = regent_court.2.e
		highlight = yes
		trigger = {
			has_global_flag = "upgraded_adean_admin"
			ROOT = {
				OR = {
					ruler_has_personality = righteous_personality
					ruler_has_personality = martial_educator_personality
					ruler_has_personality = strict_personality
				}
			}
		}
		ai_chance = {
			factor = 1
			modifier = {
				factor = 2
				personality = ai_militarist
			}
			modifier = {
				factor = 0.5
				personality = ai_colonialist
			}
			modifier = {
				factor = 2
				culture_group = escanni
			}
			modifier = {
				factor = 1.5
				culture_group = lencori
			}
			modifier = {
				factor = 3
				personality = ai_balanced
			}
			modifier = {
				factor = 2
				personality = ai_capitalist
			}
			modifier = {
				factor = 1.2
				government = monarchy
			}
			modifier = {
				factor = 10 
				tag = B58	#Adenica
			}
		}
		set_country_flag = regent_court_deity_switch_cooldown
		change_personal_deity = adean_upgraded_admin
	}
	
	#adean war base
	option = {
		name = regent_court.2.e
		trigger = {
			has_global_flag = "upgraded_adean_war"
			ROOT = {
				NOT = {
					OR = {
						ruler_has_personality = righteous_personality
						ruler_has_personality = martial_educator_personality
						ruler_has_personality = strict_personality
					}
				}
			}
		}
		ai_chance = {
			factor = 1
			modifier = {
				factor = 2
				personality = ai_militarist
			}
			modifier = {
				factor = 0.5
				personality = ai_colonialist
			}
			modifier = {
				factor = 1.5
				culture_group = escanni
			}
			modifier = {
				factor = 1.5
				culture_group = lencori
			}
			modifier = {
				factor = 10 
				tag = B58	#Adenica
			}
		}
		set_country_flag = regent_court_deity_switch_cooldown
		change_personal_deity = adean_upgraded_war
	}
	
	#adean war favorable
	option = {
		name = regent_court.2.e
		highlight = yes
		trigger = {
			has_global_flag = "upgraded_adean_war"
			ROOT = {
				OR = {
					ruler_has_personality = righteous_personality
					ruler_has_personality = martial_educator_personality
					ruler_has_personality = strict_personality
				}
			}
		}
		ai_chance = {
			factor = 1
			modifier = {
				factor = 2
				personality = ai_militarist
			}
			modifier = {
				factor = 0.5
				personality = ai_colonialist
			}
			modifier = {
				factor = 1.5
				culture_group = escanni
			}
			modifier = {
				factor = 1.5
				culture_group = lencori
			}
			modifier = {
				factor = 10 
				tag = B58	#Adenica
			}
		}
		set_country_flag = regent_court_deity_switch_cooldown
		change_personal_deity = adean_upgraded_war
	}
	
	#begga base
	option = {
		name = regent_court.2.p
		trigger = {
			ROOT = {
				NOT = {
					OR = {
						ruler_has_personality = kind_hearted_personality
						ruler_has_personality = benevolent_personality
						ruler_has_personality = reformist_personality
					}
				}
			}
		}
		ai_chance = {
			factor = 1
			modifier = {
				factor = 2
				personality = ai_diplomat
			}
			modifier = {
				factor = 0.5
				personality = ai_militarist
			}
			modifier = {
				factor = 2
				culture_group = halfling
			}
			modifier = {
				factor = 5
				tag = H45	#Beggaston
			}
		}
		set_country_flag = regent_court_deity_switch_cooldown
		change_personal_deity = begga
	}

	#begga favorable
	option = {
		name = regent_court.2.p
		highlight = yes
		trigger = {
			ROOT = {
				OR = {
					ruler_has_personality = kind_hearted_personality
					ruler_has_personality = benevolent_personality
					ruler_has_personality = reformist_personality
				}
			}
		}
		ai_chance = {
			factor = 1
			modifier = {
				factor = 2
				personality = ai_diplomat
			}
			modifier = {
				factor = 0.5
				personality = ai_militarist
			}
			modifier = {
				factor = 2
				culture_group = halfling
			}
			modifier = {
				factor = 5
				tag = H45	#Beggaston
			}
		}
		set_country_flag = regent_court_deity_switch_cooldown
		change_personal_deity = begga
	}

		#dookan base
		option = {
			name = regent_court.2.q
			trigger = {
				ROOT = {
					OR = {
						tag = H58	#Chipped Tooth Company
						was_tag = H58
					}
					#No emulant personalities yet
					#NOT = {
					#	OR = {
					#		ruler_has_personality = ?
					#		ruler_has_personality = ?
					#		ruler_has_personality = ?
					#	}
					#}
				}
			}
			ai_chance = {
				factor = 5
			}
			set_country_flag = regent_court_deity_switch_cooldown
			change_personal_deity = dookan
		}
		
		#No emulant events yet
		#dookan favorable
		#option = {
		#	name = regent_court.2.q
		#	highlight = yes
		#	trigger = {
		#		OR = {
		#			tag = H58	#Chipped Tooth Company
		#			was_tag = H58
		#		}
		#		ROOT = {
		#			OR = {
		#				ruler_has_personality = ?
		#				ruler_has_personality = ?
		#				ruler_has_personality = ?
		#			}
		#		}
		#	}
		#	ai_chance = {
		#		factor = 5
		#	}
		#	set_country_flag = regent_court_deity_switch_cooldown
		#	change_personal_deity = dookan
		#}

	option = {
		name = regent_court.2.a
		highlight = yes
		trigger = {
			ai = no
		}
	}

	after = {
		hidden_effect = {
			clr_country_flag = regent_court_menu_open
		}
	}
}
